group.phys-hdbs.24568675._000016.CxAOD.root
group.phys-hdbs.24568675._000010.CxAOD.root
group.phys-hdbs.24568675._000011.CxAOD.root
group.phys-hdbs.24568675._000012.CxAOD.root
group.phys-hdbs.24568675._000013.CxAOD.root
group.phys-hdbs.24568675._000015.CxAOD.root
group.phys-hdbs.24568675._000007.CxAOD.root
group.phys-hdbs.24568675._000005.CxAOD.root
group.phys-hdbs.24568675._000001.CxAOD.root
group.phys-hdbs.24568675._000002.CxAOD.root
group.phys-hdbs.24568675._000003.CxAOD.root
group.phys-hdbs.24568675._000004.CxAOD.root
group.phys-hdbs.24568675._000006.CxAOD.root
