group.phys-hdbs.30802905._000001.CxAOD.root
group.phys-hdbs.30802905._000002.CxAOD.root
group.phys-hdbs.30802905._000003.CxAOD.root
group.phys-hdbs.30802905._000004.CxAOD.root
group.phys-hdbs.30802905._000005.CxAOD.root
group.phys-hdbs.30802905._000016.CxAOD.root
group.phys-hdbs.30802905._000017.CxAOD.root
group.phys-hdbs.30802905._000018.CxAOD.root
group.phys-hdbs.30802905._000019.CxAOD.root
