group.phys-hdbs.24550816._000009.CxAOD.root
group.phys-hdbs.24550816._000014.CxAOD.root
group.phys-hdbs.24550816._000015.CxAOD.root
group.phys-hdbs.24550816._000016.CxAOD.root
group.phys-hdbs.24550816._000017.CxAOD.root
group.phys-hdbs.24550816._000018.CxAOD.root
group.phys-hdbs.24550816._000019.CxAOD.root
group.phys-hdbs.24550816._000020.CxAOD.root
