group.phys-hdbs.24552309._000001.CxAOD.root
group.phys-hdbs.24552309._000003.CxAOD.root
group.phys-hdbs.24552309._000004.CxAOD.root
group.phys-hdbs.24552309._000005.CxAOD.root
group.phys-hdbs.24552309._000006.CxAOD.root
