group.phys-hdbs.24550811._000005.CxAOD.root
group.phys-hdbs.24550811._000004.CxAOD.root
group.phys-hdbs.24550811._000003.CxAOD.root
group.phys-hdbs.24550811._000002.CxAOD.root
group.phys-hdbs.24550811._000001.CxAOD.root
