group.phys-hdbs.30796519._000001.CxAOD.root
group.phys-hdbs.30796519._000002.CxAOD.root
group.phys-hdbs.30796519._000003.CxAOD.root
group.phys-hdbs.30796519._000004.CxAOD.root
group.phys-hdbs.30796519._000005.CxAOD.root
group.phys-hdbs.30796519._000006.CxAOD.root
group.phys-hdbs.30796519._000008.CxAOD.root
group.phys-hdbs.30796519._000009.CxAOD.root
group.phys-hdbs.30796519._000010.CxAOD.root
group.phys-hdbs.30796519._000012.CxAOD.root
group.phys-hdbs.30796519._000013.CxAOD.root
group.phys-hdbs.30796519._000014.CxAOD.root
group.phys-hdbs.30796519._000015.CxAOD.root
group.phys-hdbs.30796519._000016.CxAOD.root
group.phys-hdbs.30796519._000017.CxAOD.root
group.phys-hdbs.30796519._000018.CxAOD.root
group.phys-hdbs.30796519._000019.CxAOD.root
group.phys-hdbs.30796519._000021.CxAOD.root
group.phys-hdbs.30796519._000023.CxAOD.root
group.phys-hdbs.30796519._000024.CxAOD.root
group.phys-hdbs.30796519._000025.CxAOD.root
