group.phys-hdbs.29766418._000001.CxAOD.root
group.phys-hdbs.29766418._000002.CxAOD.root
group.phys-hdbs.29766418._000003.CxAOD.root
group.phys-hdbs.29766418._000004.CxAOD.root
group.phys-hdbs.29766418._000005.CxAOD.root
group.phys-hdbs.29766418._000006.CxAOD.root
group.phys-hdbs.29766418._000007.CxAOD.root
group.phys-hdbs.29766418._000008.CxAOD.root
group.phys-hdbs.29766418._000009.CxAOD.root
group.phys-hdbs.29766418._000010.CxAOD.root
group.phys-hdbs.29766418._000011.CxAOD.root
group.phys-hdbs.29766418._000012.CxAOD.root
group.phys-hdbs.29766418._000013.CxAOD.root
group.phys-hdbs.29766418._000014.CxAOD.root
group.phys-hdbs.29766418._000015.CxAOD.root
group.phys-hdbs.29766418._000016.CxAOD.root
group.phys-hdbs.29766418._000017.CxAOD.root
group.phys-hdbs.29766418._000018.CxAOD.root
group.phys-hdbs.29766418._000019.CxAOD.root
group.phys-hdbs.29766418._000020.CxAOD.root
group.phys-hdbs.29766418._000021.CxAOD.root
group.phys-hdbs.29766418._000022.CxAOD.root
group.phys-hdbs.29766418._000023.CxAOD.root
group.phys-hdbs.29766418._000024.CxAOD.root
group.phys-hdbs.29766418._000025.CxAOD.root
group.phys-hdbs.29766418._000026.CxAOD.root
group.phys-hdbs.29766418._000027.CxAOD.root
group.phys-hdbs.29766418._000028.CxAOD.root
group.phys-hdbs.29766418._000029.CxAOD.root
group.phys-hdbs.29766418._000030.CxAOD.root
group.phys-hdbs.29766418._000031.CxAOD.root
group.phys-hdbs.29766418._000032.CxAOD.root
group.phys-hdbs.29766418._000033.CxAOD.root
group.phys-hdbs.29766418._000034.CxAOD.root
group.phys-hdbs.29766418._000035.CxAOD.root
group.phys-hdbs.29766418._000036.CxAOD.root
group.phys-hdbs.29766418._000037.CxAOD.root
group.phys-hdbs.29766418._000038.CxAOD.root
group.phys-hdbs.29766418._000039.CxAOD.root
group.phys-hdbs.29766418._000040.CxAOD.root
group.phys-hdbs.29766418._000041.CxAOD.root
group.phys-hdbs.29766418._000042.CxAOD.root
group.phys-hdbs.29766418._000043.CxAOD.root
group.phys-hdbs.29766418._000044.CxAOD.root
group.phys-hdbs.29766418._000045.CxAOD.root
group.phys-hdbs.29766418._000046.CxAOD.root
group.phys-hdbs.29766418._000047.CxAOD.root
group.phys-hdbs.29766418._000048.CxAOD.root
