Script name is: test4.sh
 
you are usign the script for link the information that comes from rucio and the local folders (CxAOD samples)
 
The sample that you're running is: Ztautau
 
The folder-region is: InvCR
 
From the target path /eos/atlas/atlascerngroupdisk/phys-hdbs/diHiggs/bbtautau/lephad/Bulbasaur/ where all the CxAOD samples in study to check is...
This is the list of directories that the script will cover: 
 
/eos/atlas/atlascerngroupdisk/phys-hdbs/diHiggs/bbtautau/lephad/Bulbasaur/InvCR/DATA16/Ztautau/group.phys-hdbs.mc16_13TeV.364140.Sh_221_NNPDF30NNLO_Ztautau_MAXHTPTV500_1000.HIGG4D2.16InvCRBulb1Norm_CxAOD.root
/eos/atlas/atlascerngroupdisk/phys-hdbs/diHiggs/bbtautau/lephad/Bulbasaur/InvCR/DATA16/Ztautau/group.phys-hdbs.mc16_13TeV.364141.Sh_221_NNPDF30NNLO_Ztautau_MAXHTPTV1000_E_CMS.HIGG4D2.16InvCRBulb1Norm_CxAOD.root
/eos/atlas/atlascerngroupdisk/phys-hdbs/diHiggs/bbtautau/lephad/Bulbasaur/InvCR/DATA16/ZtautauB/group.phys-hdbs.mc16_13TeV.364130.Sh_221_NNPDF30NNLO_Ztautau_MAXHTPTV0_70_BFilter.HIGG4D2.16InvCRBulb1Norm_CxAOD.root
/eos/atlas/atlascerngroupdisk/phys-hdbs/diHiggs/bbtautau/lephad/Bulbasaur/InvCR/DATA16/ZtautauB/group.phys-hdbs.mc16_13TeV.364133.Sh_221_NNPDF30NNLO_Ztautau_MAXHTPTV70_140_BFilter.HIGG4D2.16InvCRBulb1Norm_CxAOD.root
/eos/atlas/atlascerngroupdisk/phys-hdbs/diHiggs/bbtautau/lephad/Bulbasaur/InvCR/DATA16/ZtautauB/group.phys-hdbs.mc16_13TeV.364136.Sh_221_NNPDF30NNLO_Ztautau_MAXHTPTV140_280_BFilter.HIGG4D2.16InvCRBulb1Norm_CxAOD.root
/eos/atlas/atlascerngroupdisk/phys-hdbs/diHiggs/bbtautau/lephad/Bulbasaur/InvCR/DATA16/ZtautauB/group.phys-hdbs.mc16_13TeV.364139.Sh_221_NNPDF30NNLO_Ztautau_MAXHTPTV280_500_BFilter.HIGG4D2.16InvCRBulb1Norm_CxAOD.root
/eos/atlas/atlascerngroupdisk/phys-hdbs/diHiggs/bbtautau/lephad/Bulbasaur/InvCR/DATA16/ZtautauC/group.phys-hdbs.mc16_13TeV.364129.Sh_221_NNPDF30NNLO_Ztautau_MAXHTPTV0_70_CFilterBVeto.HIGG4D2.16InvCRBulb1Norm_CxAOD.root
/eos/atlas/atlascerngroupdisk/phys-hdbs/diHiggs/bbtautau/lephad/Bulbasaur/InvCR/DATA16/ZtautauC/group.phys-hdbs.mc16_13TeV.364132.Sh_221_NNPDF30NNLO_Ztautau_MAXHTPTV70_140_CFilterBVeto.HIGG4D2.16InvCRBulb1Norm_CxAOD.root
/eos/atlas/atlascerngroupdisk/phys-hdbs/diHiggs/bbtautau/lephad/Bulbasaur/InvCR/DATA16/ZtautauC/group.phys-hdbs.mc16_13TeV.364135.Sh_221_NNPDF30NNLO_Ztautau_MAXHTPTV140_280_CFilterBVeto.HIGG4D2.16InvCRBulb1Norm_CxAOD.root
/eos/atlas/atlascerngroupdisk/phys-hdbs/diHiggs/bbtautau/lephad/Bulbasaur/InvCR/DATA16/ZtautauC/group.phys-hdbs.mc16_13TeV.364138.Sh_221_NNPDF30NNLO_Ztautau_MAXHTPTV280_500_CFilterBVeto.HIGG4D2.16InvCRBulb1Norm_CxAOD.root
/eos/atlas/atlascerngroupdisk/phys-hdbs/diHiggs/bbtautau/lephad/Bulbasaur/InvCR/DATA16/ZtautauL/group.phys-hdbs.mc16_13TeV.364128.Sh_221_NNPDF30NNLO_Ztautau_MAXHTPTV0_70_CVetoBVeto.HIGG4D2.16InvCRBulb1Norm_CxAOD.root
/eos/atlas/atlascerngroupdisk/phys-hdbs/diHiggs/bbtautau/lephad/Bulbasaur/InvCR/DATA16/ZtautauL/group.phys-hdbs.mc16_13TeV.364131.Sh_221_NNPDF30NNLO_Ztautau_MAXHTPTV70_140_CVetoBVeto.HIGG4D2.16InvCRBulb1Norm_CxAOD.root
/eos/atlas/atlascerngroupdisk/phys-hdbs/diHiggs/bbtautau/lephad/Bulbasaur/InvCR/DATA16/ZtautauL/group.phys-hdbs.mc16_13TeV.364134.Sh_221_NNPDF30NNLO_Ztautau_MAXHTPTV140_280_CVetoBVeto.HIGG4D2.16InvCRBulb1Norm_CxAOD.root
/eos/atlas/atlascerngroupdisk/phys-hdbs/diHiggs/bbtautau/lephad/Bulbasaur/InvCR/DATA16/ZtautauL/group.phys-hdbs.mc16_13TeV.364137.Sh_221_NNPDF30NNLO_Ztautau_MAXHTPTV280_500_CVetoBVeto.HIGG4D2.16InvCRBulb1Norm_CxAOD.root
/eos/atlas/atlascerngroupdisk/phys-hdbs/diHiggs/bbtautau/lephad/Bulbasaur/InvCR/DATA16/Ztt_Madgraph/group.phys-hdbs.mc16_13TeV.361510.MGPy8EG_A14NNPDF23LO_Ztautau_Np0.HIGG4D2.16InvCRBulb1Norm_CxAOD.root
/eos/atlas/atlascerngroupdisk/phys-hdbs/diHiggs/bbtautau/lephad/Bulbasaur/InvCR/DATA16/Ztt_Madgraph/group.phys-hdbs.mc16_13TeV.361511.MGPy8EG_A14NNPDF23LO_Ztautau_Np1.HIGG4D2.16InvCRBulb1Norm_CxAOD.root
/eos/atlas/atlascerngroupdisk/phys-hdbs/diHiggs/bbtautau/lephad/Bulbasaur/InvCR/DATA16/Ztt_Madgraph/group.phys-hdbs.mc16_13TeV.361512.MGPy8EG_A14NNPDF23LO_Ztautau_Np2.HIGG4D2.16InvCRBulb1Norm_CxAOD.root
/eos/atlas/atlascerngroupdisk/phys-hdbs/diHiggs/bbtautau/lephad/Bulbasaur/InvCR/DATA16/Ztt_Madgraph/group.phys-hdbs.mc16_13TeV.361513.MGPy8EG_A14NNPDF23LO_Ztautau_Np3.HIGG4D2.16InvCRBulb1Norm_CxAOD.root
/eos/atlas/atlascerngroupdisk/phys-hdbs/diHiggs/bbtautau/lephad/Bulbasaur/InvCR/DATA16/Ztt_Madgraph/group.phys-hdbs.mc16_13TeV.361514.MGPy8EG_A14NNPDF23LO_Ztautau_Np4.HIGG4D2.16InvCRBulb1Norm_CxAOD.root
/eos/atlas/atlascerngroupdisk/phys-hdbs/diHiggs/bbtautau/lephad/Bulbasaur/InvCR/DATA16/Ztt_Madgraph/group.phys-hdbs.mc16_13TeV.361638.MGPy8EG_A14NNPDF23LO_Ztautau_lowMll_Np0.HIGG4D2.16InvCRBulb1Norm_CxAOD.root
/eos/atlas/atlascerngroupdisk/phys-hdbs/diHiggs/bbtautau/lephad/Bulbasaur/InvCR/DATA16/Ztt_Madgraph/group.phys-hdbs.mc16_13TeV.361639.MGPy8EG_A14NNPDF23LO_Ztautau_lowMll_Np1.HIGG4D2.16InvCRBulb1Norm_CxAOD.root
/eos/atlas/atlascerngroupdisk/phys-hdbs/diHiggs/bbtautau/lephad/Bulbasaur/InvCR/DATA16/Ztt_Madgraph/group.phys-hdbs.mc16_13TeV.361640.MGPy8EG_A14NNPDF23LO_Ztautau_lowMll_Np2.HIGG4D2.16InvCRBulb1Norm_CxAOD.root
/eos/atlas/atlascerngroupdisk/phys-hdbs/diHiggs/bbtautau/lephad/Bulbasaur/InvCR/DATA16/Ztt_Madgraph/group.phys-hdbs.mc16_13TeV.361641.MGPy8EG_A14NNPDF23LO_Ztautau_lowMll_Np3.HIGG4D2.16InvCRBulb1Norm_CxAOD.root
/eos/atlas/atlascerngroupdisk/phys-hdbs/diHiggs/bbtautau/lephad/Bulbasaur/InvCR/DATA16/Ztt_Madgraph/group.phys-hdbs.mc16_13TeV.361642.MGPy8EG_A14NNPDF23LO_Ztautau_lowMll_Np4.HIGG4D2.16InvCRBulb1Norm_CxAOD.root
/eos/atlas/atlascerngroupdisk/phys-hdbs/diHiggs/bbtautau/lephad/Bulbasaur/InvCR/DATA17/Ztautau/group.phys-hdbs.mc16_13TeV.364140.Sh_221_NNPDF30NNLO_Ztautau_MAXHTPTV500_1000.HIGG4D2.17InvCRBulb1Norm_CxAOD.root
/eos/atlas/atlascerngroupdisk/phys-hdbs/diHiggs/bbtautau/lephad/Bulbasaur/InvCR/DATA17/Ztautau/group.phys-hdbs.mc16_13TeV.364141.Sh_221_NNPDF30NNLO_Ztautau_MAXHTPTV1000_E_CMS.HIGG4D2.17InvCRBulb1Norm_CxAOD.root
/eos/atlas/atlascerngroupdisk/phys-hdbs/diHiggs/bbtautau/lephad/Bulbasaur/InvCR/DATA17/ZtautauB/group.phys-hdbs.mc16_13TeV.364130.Sh_221_NNPDF30NNLO_Ztautau_MAXHTPTV0_70_BFilter.HIGG4D2.17InvCRBulb1Norm_CxAOD.root
/eos/atlas/atlascerngroupdisk/phys-hdbs/diHiggs/bbtautau/lephad/Bulbasaur/InvCR/DATA17/ZtautauB/group.phys-hdbs.mc16_13TeV.364133.Sh_221_NNPDF30NNLO_Ztautau_MAXHTPTV70_140_BFilter.HIGG4D2.17InvCRBulb1Norm_CxAOD.root
/eos/atlas/atlascerngroupdisk/phys-hdbs/diHiggs/bbtautau/lephad/Bulbasaur/InvCR/DATA17/ZtautauB/group.phys-hdbs.mc16_13TeV.364136.Sh_221_NNPDF30NNLO_Ztautau_MAXHTPTV140_280_BFilter.HIGG4D2.17InvCRBulb1Norm_CxAOD.root
/eos/atlas/atlascerngroupdisk/phys-hdbs/diHiggs/bbtautau/lephad/Bulbasaur/InvCR/DATA17/ZtautauB/group.phys-hdbs.mc16_13TeV.364139.Sh_221_NNPDF30NNLO_Ztautau_MAXHTPTV280_500_BFilter.HIGG4D2.17InvCRBulb1Norm_CxAOD.root
/eos/atlas/atlascerngroupdisk/phys-hdbs/diHiggs/bbtautau/lephad/Bulbasaur/InvCR/DATA17/ZtautauC/group.phys-hdbs.mc16_13TeV.364129.Sh_221_NNPDF30NNLO_Ztautau_MAXHTPTV0_70_CFilterBVeto.HIGG4D2.17InvCRBulb1Norm_CxAOD.root
/eos/atlas/atlascerngroupdisk/phys-hdbs/diHiggs/bbtautau/lephad/Bulbasaur/InvCR/DATA17/ZtautauC/group.phys-hdbs.mc16_13TeV.364132.Sh_221_NNPDF30NNLO_Ztautau_MAXHTPTV70_140_CFilterBVeto.HIGG4D2.17InvCRBulb1Norm_CxAOD.root
/eos/atlas/atlascerngroupdisk/phys-hdbs/diHiggs/bbtautau/lephad/Bulbasaur/InvCR/DATA17/ZtautauC/group.phys-hdbs.mc16_13TeV.364135.Sh_221_NNPDF30NNLO_Ztautau_MAXHTPTV140_280_CFilterBVeto.HIGG4D2.17InvCRBulb1Norm_CxAOD.root
/eos/atlas/atlascerngroupdisk/phys-hdbs/diHiggs/bbtautau/lephad/Bulbasaur/InvCR/DATA17/ZtautauC/group.phys-hdbs.mc16_13TeV.364138.Sh_221_NNPDF30NNLO_Ztautau_MAXHTPTV280_500_CFilterBVeto.HIGG4D2.17InvCRBulb1Norm_CxAOD.root
/eos/atlas/atlascerngroupdisk/phys-hdbs/diHiggs/bbtautau/lephad/Bulbasaur/InvCR/DATA17/ZtautauL/group.phys-hdbs.mc16_13TeV.364128.Sh_221_NNPDF30NNLO_Ztautau_MAXHTPTV0_70_CVetoBVeto.HIGG4D2.17InvCRBulb1Norm_CxAOD.root
/eos/atlas/atlascerngroupdisk/phys-hdbs/diHiggs/bbtautau/lephad/Bulbasaur/InvCR/DATA17/ZtautauL/group.phys-hdbs.mc16_13TeV.364131.Sh_221_NNPDF30NNLO_Ztautau_MAXHTPTV70_140_CVetoBVeto.HIGG4D2.17InvCRBulb1Norm_CxAOD.root
/eos/atlas/atlascerngroupdisk/phys-hdbs/diHiggs/bbtautau/lephad/Bulbasaur/InvCR/DATA17/ZtautauL/group.phys-hdbs.mc16_13TeV.364134.Sh_221_NNPDF30NNLO_Ztautau_MAXHTPTV140_280_CVetoBVeto.HIGG4D2.17InvCRBulb1Norm_CxAOD.root
/eos/atlas/atlascerngroupdisk/phys-hdbs/diHiggs/bbtautau/lephad/Bulbasaur/InvCR/DATA17/ZtautauL/group.phys-hdbs.mc16_13TeV.364137.Sh_221_NNPDF30NNLO_Ztautau_MAXHTPTV280_500_CVetoBVeto.HIGG4D2.17InvCRBulb1Norm_CxAOD.root
/eos/atlas/atlascerngroupdisk/phys-hdbs/diHiggs/bbtautau/lephad/Bulbasaur/InvCR/DATA17/Ztt_Madgraph/group.phys-hdbs.mc16_13TeV.361510.MGPy8EG_A14NNPDF23LO_Ztautau_Np0.HIGG4D2.17InvCRBulb1Norm_CxAOD.root
/eos/atlas/atlascerngroupdisk/phys-hdbs/diHiggs/bbtautau/lephad/Bulbasaur/InvCR/DATA17/Ztt_Madgraph/group.phys-hdbs.mc16_13TeV.361511.MGPy8EG_A14NNPDF23LO_Ztautau_Np1.HIGG4D2.17InvCRBulb1Norm_CxAOD.root
/eos/atlas/atlascerngroupdisk/phys-hdbs/diHiggs/bbtautau/lephad/Bulbasaur/InvCR/DATA17/Ztt_Madgraph/group.phys-hdbs.mc16_13TeV.361512.MGPy8EG_A14NNPDF23LO_Ztautau_Np2.HIGG4D2.17InvCRBulb1Norm_CxAOD.root
/eos/atlas/atlascerngroupdisk/phys-hdbs/diHiggs/bbtautau/lephad/Bulbasaur/InvCR/DATA17/Ztt_Madgraph/group.phys-hdbs.mc16_13TeV.361513.MGPy8EG_A14NNPDF23LO_Ztautau_Np3.HIGG4D2.17InvCRBulb1Norm_CxAOD.root
/eos/atlas/atlascerngroupdisk/phys-hdbs/diHiggs/bbtautau/lephad/Bulbasaur/InvCR/DATA17/Ztt_Madgraph/group.phys-hdbs.mc16_13TeV.361514.MGPy8EG_A14NNPDF23LO_Ztautau_Np4.HIGG4D2.17InvCRBulb1Norm_CxAOD.root
/eos/atlas/atlascerngroupdisk/phys-hdbs/diHiggs/bbtautau/lephad/Bulbasaur/InvCR/DATA17/Ztt_Madgraph/group.phys-hdbs.mc16_13TeV.361638.MGPy8EG_A14NNPDF23LO_Ztautau_lowMll_Np0.HIGG4D2.17InvCRBulb1Norm_CxAOD.root
/eos/atlas/atlascerngroupdisk/phys-hdbs/diHiggs/bbtautau/lephad/Bulbasaur/InvCR/DATA17/Ztt_Madgraph/group.phys-hdbs.mc16_13TeV.361639.MGPy8EG_A14NNPDF23LO_Ztautau_lowMll_Np1.HIGG4D2.17InvCRBulb1Norm_CxAOD.root
/eos/atlas/atlascerngroupdisk/phys-hdbs/diHiggs/bbtautau/lephad/Bulbasaur/InvCR/DATA17/Ztt_Madgraph/group.phys-hdbs.mc16_13TeV.361640.MGPy8EG_A14NNPDF23LO_Ztautau_lowMll_Np2.HIGG4D2.17InvCRBulb1Norm_CxAOD.root
/eos/atlas/atlascerngroupdisk/phys-hdbs/diHiggs/bbtautau/lephad/Bulbasaur/InvCR/DATA17/Ztt_Madgraph/group.phys-hdbs.mc16_13TeV.361641.MGPy8EG_A14NNPDF23LO_Ztautau_lowMll_Np3.HIGG4D2.17InvCRBulb1Norm_CxAOD.root
/eos/atlas/atlascerngroupdisk/phys-hdbs/diHiggs/bbtautau/lephad/Bulbasaur/InvCR/DATA17/Ztt_Madgraph/group.phys-hdbs.mc16_13TeV.361642.MGPy8EG_A14NNPDF23LO_Ztautau_lowMll_Np4.HIGG4D2.17InvCRBulb1Norm_CxAOD.root
/eos/atlas/atlascerngroupdisk/phys-hdbs/diHiggs/bbtautau/lephad/Bulbasaur/InvCR/DATA18/Ztautau/group.phys-hdbs.mc16_13TeV.364140.Sh_221_NNPDF30NNLO_Ztautau_MAXHTPTV500_1000.HIGG4D2.18InvCRBulb1Norm_CxAOD.root
/eos/atlas/atlascerngroupdisk/phys-hdbs/diHiggs/bbtautau/lephad/Bulbasaur/InvCR/DATA18/Ztautau/group.phys-hdbs.mc16_13TeV.364141.Sh_221_NNPDF30NNLO_Ztautau_MAXHTPTV1000_E_CMS.HIGG4D2.18InvCRBulb1Norm_CxAOD.root
/eos/atlas/atlascerngroupdisk/phys-hdbs/diHiggs/bbtautau/lephad/Bulbasaur/InvCR/DATA18/ZtautauB/group.phys-hdbs.mc16_13TeV.364130.Sh_221_NNPDF30NNLO_Ztautau_MAXHTPTV0_70_BFilter.HIGG4D2.18InvCRBulb1Norm_CxAOD.root
/eos/atlas/atlascerngroupdisk/phys-hdbs/diHiggs/bbtautau/lephad/Bulbasaur/InvCR/DATA18/ZtautauB/group.phys-hdbs.mc16_13TeV.364133.Sh_221_NNPDF30NNLO_Ztautau_MAXHTPTV70_140_BFilter.HIGG4D2.18InvCRBulb1Norm_CxAOD.root
/eos/atlas/atlascerngroupdisk/phys-hdbs/diHiggs/bbtautau/lephad/Bulbasaur/InvCR/DATA18/ZtautauB/group.phys-hdbs.mc16_13TeV.364136.Sh_221_NNPDF30NNLO_Ztautau_MAXHTPTV140_280_BFilter.HIGG4D2.18InvCRBulb1Norm_CxAOD.root
/eos/atlas/atlascerngroupdisk/phys-hdbs/diHiggs/bbtautau/lephad/Bulbasaur/InvCR/DATA18/ZtautauB/group.phys-hdbs.mc16_13TeV.364139.Sh_221_NNPDF30NNLO_Ztautau_MAXHTPTV280_500_BFilter.HIGG4D2.18InvCRBulb1Norm_CxAOD.root
/eos/atlas/atlascerngroupdisk/phys-hdbs/diHiggs/bbtautau/lephad/Bulbasaur/InvCR/DATA18/ZtautauC/group.phys-hdbs.mc16_13TeV.364129.Sh_221_NNPDF30NNLO_Ztautau_MAXHTPTV0_70_CFilterBVeto.HIGG4D2.18InvCRBulb1Norm_CxAOD.root
/eos/atlas/atlascerngroupdisk/phys-hdbs/diHiggs/bbtautau/lephad/Bulbasaur/InvCR/DATA18/ZtautauC/group.phys-hdbs.mc16_13TeV.364132.Sh_221_NNPDF30NNLO_Ztautau_MAXHTPTV70_140_CFilterBVeto.HIGG4D2.18InvCRBulb1Norm_CxAOD.root
/eos/atlas/atlascerngroupdisk/phys-hdbs/diHiggs/bbtautau/lephad/Bulbasaur/InvCR/DATA18/ZtautauC/group.phys-hdbs.mc16_13TeV.364135.Sh_221_NNPDF30NNLO_Ztautau_MAXHTPTV140_280_CFilterBVeto.HIGG4D2.18InvCRBulb1Norm_CxAOD.root
/eos/atlas/atlascerngroupdisk/phys-hdbs/diHiggs/bbtautau/lephad/Bulbasaur/InvCR/DATA18/ZtautauC/group.phys-hdbs.mc16_13TeV.364138.Sh_221_NNPDF30NNLO_Ztautau_MAXHTPTV280_500_CFilterBVeto.HIGG4D2.18InvCRBulb1Norm_CxAOD.root
/eos/atlas/atlascerngroupdisk/phys-hdbs/diHiggs/bbtautau/lephad/Bulbasaur/InvCR/DATA18/ZtautauL/group.phys-hdbs.mc16_13TeV.364128.Sh_221_NNPDF30NNLO_Ztautau_MAXHTPTV0_70_CVetoBVeto.HIGG4D2.18InvCRBulb1Norm_CxAOD.root
/eos/atlas/atlascerngroupdisk/phys-hdbs/diHiggs/bbtautau/lephad/Bulbasaur/InvCR/DATA18/ZtautauL/group.phys-hdbs.mc16_13TeV.364131.Sh_221_NNPDF30NNLO_Ztautau_MAXHTPTV70_140_CVetoBVeto.HIGG4D2.18InvCRBulb1Norm_CxAOD.root
/eos/atlas/atlascerngroupdisk/phys-hdbs/diHiggs/bbtautau/lephad/Bulbasaur/InvCR/DATA18/ZtautauL/group.phys-hdbs.mc16_13TeV.364134.Sh_221_NNPDF30NNLO_Ztautau_MAXHTPTV140_280_CVetoBVeto.HIGG4D2.18InvCRBulb1Norm_CxAOD.root
/eos/atlas/atlascerngroupdisk/phys-hdbs/diHiggs/bbtautau/lephad/Bulbasaur/InvCR/DATA18/ZtautauL/group.phys-hdbs.mc16_13TeV.364137.Sh_221_NNPDF30NNLO_Ztautau_MAXHTPTV280_500_CVetoBVeto.HIGG4D2.18InvCRBulb1Norm_CxAOD.root
/eos/atlas/atlascerngroupdisk/phys-hdbs/diHiggs/bbtautau/lephad/Bulbasaur/InvCR/DATA18/Ztt_Madgraph/group.phys-hdbs.mc16_13TeV.361510.MGPy8EG_A14NNPDF23LO_Ztautau_Np0.HIGG4D2.18InvCRBulb1Norm_CxAOD.root
/eos/atlas/atlascerngroupdisk/phys-hdbs/diHiggs/bbtautau/lephad/Bulbasaur/InvCR/DATA18/Ztt_Madgraph/group.phys-hdbs.mc16_13TeV.361511.MGPy8EG_A14NNPDF23LO_Ztautau_Np1.HIGG4D2.18InvCRBulb1Norm_CxAOD.root
/eos/atlas/atlascerngroupdisk/phys-hdbs/diHiggs/bbtautau/lephad/Bulbasaur/InvCR/DATA18/Ztt_Madgraph/group.phys-hdbs.mc16_13TeV.361512.MGPy8EG_A14NNPDF23LO_Ztautau_Np2.HIGG4D2.18InvCRBulb1Norm_CxAOD.root
/eos/atlas/atlascerngroupdisk/phys-hdbs/diHiggs/bbtautau/lephad/Bulbasaur/InvCR/DATA18/Ztt_Madgraph/group.phys-hdbs.mc16_13TeV.361513.MGPy8EG_A14NNPDF23LO_Ztautau_Np3.HIGG4D2.18InvCRBulb1Norm_CxAOD.root
/eos/atlas/atlascerngroupdisk/phys-hdbs/diHiggs/bbtautau/lephad/Bulbasaur/InvCR/DATA18/Ztt_Madgraph/group.phys-hdbs.mc16_13TeV.361638.MGPy8EG_A14NNPDF23LO_Ztautau_lowMll_Np0.HIGG4D2.18InvCRBulb1Norm_CxAOD.root
/eos/atlas/atlascerngroupdisk/phys-hdbs/diHiggs/bbtautau/lephad/Bulbasaur/InvCR/DATA18/Ztt_Madgraph/group.phys-hdbs.mc16_13TeV.361640.MGPy8EG_A14NNPDF23LO_Ztautau_lowMll_Np2.HIGG4D2.18InvCRBulb1Norm_CxAOD.root
/eos/atlas/atlascerngroupdisk/phys-hdbs/diHiggs/bbtautau/lephad/Bulbasaur/InvCR/DATA18/Ztt_Madgraph/group.phys-hdbs.mc16_13TeV.361641.MGPy8EG_A14NNPDF23LO_Ztautau_lowMll_Np3.HIGG4D2.18InvCRBulb1Norm_CxAOD.root
 
The script create a text file with all the paths reviewed named: list_of_path_Ztautau.txt
 
 
The path running is:  /eos/atlas/atlascerngroupdisk/phys-hdbs/diHiggs/bbtautau/lephad/Bulbasaur/InvCR/DATA16/Ztautau/group.phys-hdbs.mc16_13TeV.364140.Sh_221_NNPDF30NNLO_Ztautau_MAXHTPTV500_1000.HIGG4D2.16InvCRBulb1Norm_CxAOD.root
 
Retain the part of the path after the last slash is: 
group.phys-hdbs.mc16_13TeV.364140.Sh_221_NNPDF30NNLO_Ztautau_MAXHTPTV500_1000.HIGG4D2.16InvCRBulb1Norm_CxAOD.root
 
This is the retrieve information from rucio 
 
group.phys-hdbs.24567386._000002.CxAOD.root
group.phys-hdbs.24567386._000001.CxAOD.root
 
This is the content of the folder: 
 
group.phys-hdbs.24567386._000001.CxAOD.root
group.phys-hdbs.24567386._000002.CxAOD.root
 
aqui va el match with diff: 
 
Los ficheros FromRucio_group.phys-hdbs.mc16_13TeV.364140.Sh_221_NNPDF30NNLO_Ztautau_MAXHTPTV500_1000.HIGG4D2.16InvCRBulb1Norm_CxAOD.root.txt y FromFolder_group.phys-hdbs.mc16_13TeV.364140.Sh_221_NNPDF30NNLO_Ztautau_MAXHTPTV500_1000.HIGG4D2.16InvCRBulb1Norm_CxAOD.root.txt son idénticos


this is the missing files between the files
_____________________________________________________________________________________
 
 
The path running is:  /eos/atlas/atlascerngroupdisk/phys-hdbs/diHiggs/bbtautau/lephad/Bulbasaur/InvCR/DATA16/Ztautau/group.phys-hdbs.mc16_13TeV.364141.Sh_221_NNPDF30NNLO_Ztautau_MAXHTPTV1000_E_CMS.HIGG4D2.16InvCRBulb1Norm_CxAOD.root
 
Retain the part of the path after the last slash is: 
group.phys-hdbs.mc16_13TeV.364141.Sh_221_NNPDF30NNLO_Ztautau_MAXHTPTV1000_E_CMS.HIGG4D2.16InvCRBulb1Norm_CxAOD.root
 
This is the retrieve information from rucio 
 
group.phys-hdbs.24567389._000002.CxAOD.root
group.phys-hdbs.24567389._000001.CxAOD.root
 
This is the content of the folder: 
 
group.phys-hdbs.24567389._000001.CxAOD.root
group.phys-hdbs.24567389._000002.CxAOD.root
 
aqui va el match with diff: 
 
Los ficheros FromRucio_group.phys-hdbs.mc16_13TeV.364141.Sh_221_NNPDF30NNLO_Ztautau_MAXHTPTV1000_E_CMS.HIGG4D2.16InvCRBulb1Norm_CxAOD.root.txt y FromFolder_group.phys-hdbs.mc16_13TeV.364141.Sh_221_NNPDF30NNLO_Ztautau_MAXHTPTV1000_E_CMS.HIGG4D2.16InvCRBulb1Norm_CxAOD.root.txt son idénticos


this is the missing files between the files
_____________________________________________________________________________________
 
 
The path running is:  /eos/atlas/atlascerngroupdisk/phys-hdbs/diHiggs/bbtautau/lephad/Bulbasaur/InvCR/DATA16/ZtautauB/group.phys-hdbs.mc16_13TeV.364130.Sh_221_NNPDF30NNLO_Ztautau_MAXHTPTV0_70_BFilter.HIGG4D2.16InvCRBulb1Norm_CxAOD.root
 
Retain the part of the path after the last slash is: 
group.phys-hdbs.mc16_13TeV.364130.Sh_221_NNPDF30NNLO_Ztautau_MAXHTPTV0_70_BFilter.HIGG4D2.16InvCRBulb1Norm_CxAOD.root
 
This is the retrieve information from rucio 
 
group.phys-hdbs.24567359._000002.CxAOD.root
group.phys-hdbs.24567359._000001.CxAOD.root
 
This is the content of the folder: 
 
group.phys-hdbs.24567359._000001.CxAOD.root
group.phys-hdbs.24567359._000002.CxAOD.root
 
aqui va el match with diff: 
 
Los ficheros FromRucio_group.phys-hdbs.mc16_13TeV.364130.Sh_221_NNPDF30NNLO_Ztautau_MAXHTPTV0_70_BFilter.HIGG4D2.16InvCRBulb1Norm_CxAOD.root.txt y FromFolder_group.phys-hdbs.mc16_13TeV.364130.Sh_221_NNPDF30NNLO_Ztautau_MAXHTPTV0_70_BFilter.HIGG4D2.16InvCRBulb1Norm_CxAOD.root.txt son idénticos


this is the missing files between the files
_____________________________________________________________________________________
 
 
The path running is:  /eos/atlas/atlascerngroupdisk/phys-hdbs/diHiggs/bbtautau/lephad/Bulbasaur/InvCR/DATA16/ZtautauB/group.phys-hdbs.mc16_13TeV.364133.Sh_221_NNPDF30NNLO_Ztautau_MAXHTPTV70_140_BFilter.HIGG4D2.16InvCRBulb1Norm_CxAOD.root
 
Retain the part of the path after the last slash is: 
group.phys-hdbs.mc16_13TeV.364133.Sh_221_NNPDF30NNLO_Ztautau_MAXHTPTV70_140_BFilter.HIGG4D2.16InvCRBulb1Norm_CxAOD.root
 
This is the retrieve information from rucio 
 
group.phys-hdbs.24567367._000002.CxAOD.root
group.phys-hdbs.24567367._000001.CxAOD.root
 
This is the content of the folder: 
 
group.phys-hdbs.24567367._000001.CxAOD.root
group.phys-hdbs.24567367._000002.CxAOD.root
 
aqui va el match with diff: 
 
Los ficheros FromRucio_group.phys-hdbs.mc16_13TeV.364133.Sh_221_NNPDF30NNLO_Ztautau_MAXHTPTV70_140_BFilter.HIGG4D2.16InvCRBulb1Norm_CxAOD.root.txt y FromFolder_group.phys-hdbs.mc16_13TeV.364133.Sh_221_NNPDF30NNLO_Ztautau_MAXHTPTV70_140_BFilter.HIGG4D2.16InvCRBulb1Norm_CxAOD.root.txt son idénticos


this is the missing files between the files
_____________________________________________________________________________________
 
 
The path running is:  /eos/atlas/atlascerngroupdisk/phys-hdbs/diHiggs/bbtautau/lephad/Bulbasaur/InvCR/DATA16/ZtautauB/group.phys-hdbs.mc16_13TeV.364136.Sh_221_NNPDF30NNLO_Ztautau_MAXHTPTV140_280_BFilter.HIGG4D2.16InvCRBulb1Norm_CxAOD.root
 
Retain the part of the path after the last slash is: 
group.phys-hdbs.mc16_13TeV.364136.Sh_221_NNPDF30NNLO_Ztautau_MAXHTPTV140_280_BFilter.HIGG4D2.16InvCRBulb1Norm_CxAOD.root
 
This is the retrieve information from rucio 
 
group.phys-hdbs.24567375._000002.CxAOD.root
group.phys-hdbs.24567375._000001.CxAOD.root
 
This is the content of the folder: 
 
group.phys-hdbs.24567375._000001.CxAOD.root
group.phys-hdbs.24567375._000002.CxAOD.root
 
aqui va el match with diff: 
 
Los ficheros FromRucio_group.phys-hdbs.mc16_13TeV.364136.Sh_221_NNPDF30NNLO_Ztautau_MAXHTPTV140_280_BFilter.HIGG4D2.16InvCRBulb1Norm_CxAOD.root.txt y FromFolder_group.phys-hdbs.mc16_13TeV.364136.Sh_221_NNPDF30NNLO_Ztautau_MAXHTPTV140_280_BFilter.HIGG4D2.16InvCRBulb1Norm_CxAOD.root.txt son idénticos


this is the missing files between the files
_____________________________________________________________________________________
 
 
The path running is:  /eos/atlas/atlascerngroupdisk/phys-hdbs/diHiggs/bbtautau/lephad/Bulbasaur/InvCR/DATA16/ZtautauB/group.phys-hdbs.mc16_13TeV.364139.Sh_221_NNPDF30NNLO_Ztautau_MAXHTPTV280_500_BFilter.HIGG4D2.16InvCRBulb1Norm_CxAOD.root
 
Retain the part of the path after the last slash is: 
group.phys-hdbs.mc16_13TeV.364139.Sh_221_NNPDF30NNLO_Ztautau_MAXHTPTV280_500_BFilter.HIGG4D2.16InvCRBulb1Norm_CxAOD.root
 
This is the retrieve information from rucio 
 
group.phys-hdbs.24567383._000002.CxAOD.root
group.phys-hdbs.24567383._000001.CxAOD.root
 
This is the content of the folder: 
 
group.phys-hdbs.24567383._000001.CxAOD.root
group.phys-hdbs.24567383._000002.CxAOD.root
 
aqui va el match with diff: 
 
Los ficheros FromRucio_group.phys-hdbs.mc16_13TeV.364139.Sh_221_NNPDF30NNLO_Ztautau_MAXHTPTV280_500_BFilter.HIGG4D2.16InvCRBulb1Norm_CxAOD.root.txt y FromFolder_group.phys-hdbs.mc16_13TeV.364139.Sh_221_NNPDF30NNLO_Ztautau_MAXHTPTV280_500_BFilter.HIGG4D2.16InvCRBulb1Norm_CxAOD.root.txt son idénticos


this is the missing files between the files
_____________________________________________________________________________________
 
 
The path running is:  /eos/atlas/atlascerngroupdisk/phys-hdbs/diHiggs/bbtautau/lephad/Bulbasaur/InvCR/DATA16/ZtautauC/group.phys-hdbs.mc16_13TeV.364129.Sh_221_NNPDF30NNLO_Ztautau_MAXHTPTV0_70_CFilterBVeto.HIGG4D2.16InvCRBulb1Norm_CxAOD.root
 
Retain the part of the path after the last slash is: 
group.phys-hdbs.mc16_13TeV.364129.Sh_221_NNPDF30NNLO_Ztautau_MAXHTPTV0_70_CFilterBVeto.HIGG4D2.16InvCRBulb1Norm_CxAOD.root
 
This is the retrieve information from rucio 
 
group.phys-hdbs.24567356._000002.CxAOD.root
group.phys-hdbs.24567356._000001.CxAOD.root
 
This is the content of the folder: 
 
group.phys-hdbs.24567356._000001.CxAOD.root
group.phys-hdbs.24567356._000002.CxAOD.root
 
aqui va el match with diff: 
 
Los ficheros FromRucio_group.phys-hdbs.mc16_13TeV.364129.Sh_221_NNPDF30NNLO_Ztautau_MAXHTPTV0_70_CFilterBVeto.HIGG4D2.16InvCRBulb1Norm_CxAOD.root.txt y FromFolder_group.phys-hdbs.mc16_13TeV.364129.Sh_221_NNPDF30NNLO_Ztautau_MAXHTPTV0_70_CFilterBVeto.HIGG4D2.16InvCRBulb1Norm_CxAOD.root.txt son idénticos


this is the missing files between the files
_____________________________________________________________________________________
 
 
The path running is:  /eos/atlas/atlascerngroupdisk/phys-hdbs/diHiggs/bbtautau/lephad/Bulbasaur/InvCR/DATA16/ZtautauC/group.phys-hdbs.mc16_13TeV.364132.Sh_221_NNPDF30NNLO_Ztautau_MAXHTPTV70_140_CFilterBVeto.HIGG4D2.16InvCRBulb1Norm_CxAOD.root
 
Retain the part of the path after the last slash is: 
group.phys-hdbs.mc16_13TeV.364132.Sh_221_NNPDF30NNLO_Ztautau_MAXHTPTV70_140_CFilterBVeto.HIGG4D2.16InvCRBulb1Norm_CxAOD.root
 
This is the retrieve information from rucio 
 
group.phys-hdbs.24567364._000002.CxAOD.root
group.phys-hdbs.24567364._000001.CxAOD.root
 
This is the content of the folder: 
 
group.phys-hdbs.24567364._000001.CxAOD.root
group.phys-hdbs.24567364._000002.CxAOD.root
 
aqui va el match with diff: 
 
Los ficheros FromRucio_group.phys-hdbs.mc16_13TeV.364132.Sh_221_NNPDF30NNLO_Ztautau_MAXHTPTV70_140_CFilterBVeto.HIGG4D2.16InvCRBulb1Norm_CxAOD.root.txt y FromFolder_group.phys-hdbs.mc16_13TeV.364132.Sh_221_NNPDF30NNLO_Ztautau_MAXHTPTV70_140_CFilterBVeto.HIGG4D2.16InvCRBulb1Norm_CxAOD.root.txt son idénticos


this is the missing files between the files
_____________________________________________________________________________________
 
 
The path running is:  /eos/atlas/atlascerngroupdisk/phys-hdbs/diHiggs/bbtautau/lephad/Bulbasaur/InvCR/DATA16/ZtautauC/group.phys-hdbs.mc16_13TeV.364135.Sh_221_NNPDF30NNLO_Ztautau_MAXHTPTV140_280_CFilterBVeto.HIGG4D2.16InvCRBulb1Norm_CxAOD.root
 
Retain the part of the path after the last slash is: 
group.phys-hdbs.mc16_13TeV.364135.Sh_221_NNPDF30NNLO_Ztautau_MAXHTPTV140_280_CFilterBVeto.HIGG4D2.16InvCRBulb1Norm_CxAOD.root
 
This is the retrieve information from rucio 
 
group.phys-hdbs.24567373._000002.CxAOD.root
group.phys-hdbs.24567373._000001.CxAOD.root
 
This is the content of the folder: 
 
group.phys-hdbs.24567373._000001.CxAOD.root
group.phys-hdbs.24567373._000002.CxAOD.root
 
aqui va el match with diff: 
 
Los ficheros FromRucio_group.phys-hdbs.mc16_13TeV.364135.Sh_221_NNPDF30NNLO_Ztautau_MAXHTPTV140_280_CFilterBVeto.HIGG4D2.16InvCRBulb1Norm_CxAOD.root.txt y FromFolder_group.phys-hdbs.mc16_13TeV.364135.Sh_221_NNPDF30NNLO_Ztautau_MAXHTPTV140_280_CFilterBVeto.HIGG4D2.16InvCRBulb1Norm_CxAOD.root.txt son idénticos


this is the missing files between the files
_____________________________________________________________________________________
 
 
The path running is:  /eos/atlas/atlascerngroupdisk/phys-hdbs/diHiggs/bbtautau/lephad/Bulbasaur/InvCR/DATA16/ZtautauC/group.phys-hdbs.mc16_13TeV.364138.Sh_221_NNPDF30NNLO_Ztautau_MAXHTPTV280_500_CFilterBVeto.HIGG4D2.16InvCRBulb1Norm_CxAOD.root
 
Retain the part of the path after the last slash is: 
group.phys-hdbs.mc16_13TeV.364138.Sh_221_NNPDF30NNLO_Ztautau_MAXHTPTV280_500_CFilterBVeto.HIGG4D2.16InvCRBulb1Norm_CxAOD.root
 
This is the retrieve information from rucio 
 
group.phys-hdbs.24567381._000002.CxAOD.root
group.phys-hdbs.24567381._000001.CxAOD.root
 
This is the content of the folder: 
 
group.phys-hdbs.24567381._000001.CxAOD.root
group.phys-hdbs.24567381._000002.CxAOD.root
 
aqui va el match with diff: 
 
Los ficheros FromRucio_group.phys-hdbs.mc16_13TeV.364138.Sh_221_NNPDF30NNLO_Ztautau_MAXHTPTV280_500_CFilterBVeto.HIGG4D2.16InvCRBulb1Norm_CxAOD.root.txt y FromFolder_group.phys-hdbs.mc16_13TeV.364138.Sh_221_NNPDF30NNLO_Ztautau_MAXHTPTV280_500_CFilterBVeto.HIGG4D2.16InvCRBulb1Norm_CxAOD.root.txt son idénticos


this is the missing files between the files
_____________________________________________________________________________________
 
 
The path running is:  /eos/atlas/atlascerngroupdisk/phys-hdbs/diHiggs/bbtautau/lephad/Bulbasaur/InvCR/DATA16/ZtautauL/group.phys-hdbs.mc16_13TeV.364128.Sh_221_NNPDF30NNLO_Ztautau_MAXHTPTV0_70_CVetoBVeto.HIGG4D2.16InvCRBulb1Norm_CxAOD.root
 
Retain the part of the path after the last slash is: 
group.phys-hdbs.mc16_13TeV.364128.Sh_221_NNPDF30NNLO_Ztautau_MAXHTPTV0_70_CVetoBVeto.HIGG4D2.16InvCRBulb1Norm_CxAOD.root
 
This is the retrieve information from rucio 
 
group.phys-hdbs.24567353._000002.CxAOD.root
group.phys-hdbs.24567353._000001.CxAOD.root
 
This is the content of the folder: 
 
group.phys-hdbs.24567353._000001.CxAOD.root
group.phys-hdbs.24567353._000002.CxAOD.root
 
aqui va el match with diff: 
 
Los ficheros FromRucio_group.phys-hdbs.mc16_13TeV.364128.Sh_221_NNPDF30NNLO_Ztautau_MAXHTPTV0_70_CVetoBVeto.HIGG4D2.16InvCRBulb1Norm_CxAOD.root.txt y FromFolder_group.phys-hdbs.mc16_13TeV.364128.Sh_221_NNPDF30NNLO_Ztautau_MAXHTPTV0_70_CVetoBVeto.HIGG4D2.16InvCRBulb1Norm_CxAOD.root.txt son idénticos


this is the missing files between the files
_____________________________________________________________________________________
 
 
The path running is:  /eos/atlas/atlascerngroupdisk/phys-hdbs/diHiggs/bbtautau/lephad/Bulbasaur/InvCR/DATA16/ZtautauL/group.phys-hdbs.mc16_13TeV.364131.Sh_221_NNPDF30NNLO_Ztautau_MAXHTPTV70_140_CVetoBVeto.HIGG4D2.16InvCRBulb1Norm_CxAOD.root
 
Retain the part of the path after the last slash is: 
group.phys-hdbs.mc16_13TeV.364131.Sh_221_NNPDF30NNLO_Ztautau_MAXHTPTV70_140_CVetoBVeto.HIGG4D2.16InvCRBulb1Norm_CxAOD.root
 
This is the retrieve information from rucio 
 
group.phys-hdbs.24567362._000002.CxAOD.root
group.phys-hdbs.24567362._000001.CxAOD.root
 
This is the content of the folder: 
 
group.phys-hdbs.24567362._000001.CxAOD.root
group.phys-hdbs.24567362._000002.CxAOD.root
 
aqui va el match with diff: 
 
Los ficheros FromRucio_group.phys-hdbs.mc16_13TeV.364131.Sh_221_NNPDF30NNLO_Ztautau_MAXHTPTV70_140_CVetoBVeto.HIGG4D2.16InvCRBulb1Norm_CxAOD.root.txt y FromFolder_group.phys-hdbs.mc16_13TeV.364131.Sh_221_NNPDF30NNLO_Ztautau_MAXHTPTV70_140_CVetoBVeto.HIGG4D2.16InvCRBulb1Norm_CxAOD.root.txt son idénticos


this is the missing files between the files
_____________________________________________________________________________________
 
 
The path running is:  /eos/atlas/atlascerngroupdisk/phys-hdbs/diHiggs/bbtautau/lephad/Bulbasaur/InvCR/DATA16/ZtautauL/group.phys-hdbs.mc16_13TeV.364134.Sh_221_NNPDF30NNLO_Ztautau_MAXHTPTV140_280_CVetoBVeto.HIGG4D2.16InvCRBulb1Norm_CxAOD.root
 
Retain the part of the path after the last slash is: 
group.phys-hdbs.mc16_13TeV.364134.Sh_221_NNPDF30NNLO_Ztautau_MAXHTPTV140_280_CVetoBVeto.HIGG4D2.16InvCRBulb1Norm_CxAOD.root
 
This is the retrieve information from rucio 
 
group.phys-hdbs.24567370._000002.CxAOD.root
group.phys-hdbs.24567370._000003.CxAOD.root
group.phys-hdbs.24567370._000001.CxAOD.root
 
This is the content of the folder: 
 
group.phys-hdbs.24567370._000001.CxAOD.root
group.phys-hdbs.24567370._000002.CxAOD.root
group.phys-hdbs.24567370._000003.CxAOD.root
 
aqui va el match with diff: 
 
Los ficheros FromRucio_group.phys-hdbs.mc16_13TeV.364134.Sh_221_NNPDF30NNLO_Ztautau_MAXHTPTV140_280_CVetoBVeto.HIGG4D2.16InvCRBulb1Norm_CxAOD.root.txt y FromFolder_group.phys-hdbs.mc16_13TeV.364134.Sh_221_NNPDF30NNLO_Ztautau_MAXHTPTV140_280_CVetoBVeto.HIGG4D2.16InvCRBulb1Norm_CxAOD.root.txt son idénticos


this is the missing files between the files
_____________________________________________________________________________________
 
 
The path running is:  /eos/atlas/atlascerngroupdisk/phys-hdbs/diHiggs/bbtautau/lephad/Bulbasaur/InvCR/DATA16/ZtautauL/group.phys-hdbs.mc16_13TeV.364137.Sh_221_NNPDF30NNLO_Ztautau_MAXHTPTV280_500_CVetoBVeto.HIGG4D2.16InvCRBulb1Norm_CxAOD.root
 
Retain the part of the path after the last slash is: 
group.phys-hdbs.mc16_13TeV.364137.Sh_221_NNPDF30NNLO_Ztautau_MAXHTPTV280_500_CVetoBVeto.HIGG4D2.16InvCRBulb1Norm_CxAOD.root
 
This is the retrieve information from rucio 
 
group.phys-hdbs.24567378._000003.CxAOD.root
group.phys-hdbs.24567378._000002.CxAOD.root
group.phys-hdbs.24567378._000001.CxAOD.root
group.phys-hdbs.24567378._000004.CxAOD.root
 
This is the content of the folder: 
 
group.phys-hdbs.24567378._000001.CxAOD.root
group.phys-hdbs.24567378._000002.CxAOD.root
group.phys-hdbs.24567378._000003.CxAOD.root
group.phys-hdbs.24567378._000004.CxAOD.root
 
aqui va el match with diff: 
 
Los ficheros FromRucio_group.phys-hdbs.mc16_13TeV.364137.Sh_221_NNPDF30NNLO_Ztautau_MAXHTPTV280_500_CVetoBVeto.HIGG4D2.16InvCRBulb1Norm_CxAOD.root.txt y FromFolder_group.phys-hdbs.mc16_13TeV.364137.Sh_221_NNPDF30NNLO_Ztautau_MAXHTPTV280_500_CVetoBVeto.HIGG4D2.16InvCRBulb1Norm_CxAOD.root.txt son idénticos


this is the missing files between the files
_____________________________________________________________________________________
 
 
The path running is:  /eos/atlas/atlascerngroupdisk/phys-hdbs/diHiggs/bbtautau/lephad/Bulbasaur/InvCR/DATA16/Ztt_Madgraph/group.phys-hdbs.mc16_13TeV.361510.MGPy8EG_A14NNPDF23LO_Ztautau_Np0.HIGG4D2.16InvCRBulb1Norm_CxAOD.root
 
Retain the part of the path after the last slash is: 
group.phys-hdbs.mc16_13TeV.361510.MGPy8EG_A14NNPDF23LO_Ztautau_Np0.HIGG4D2.16InvCRBulb1Norm_CxAOD.root
 
This is the retrieve information from rucio 
 
group.phys-hdbs.24567516._000002.CxAOD.root
group.phys-hdbs.24567516._000001.CxAOD.root
 
This is the content of the folder: 
 
group.phys-hdbs.24567516._000001.CxAOD.root
group.phys-hdbs.24567516._000002.CxAOD.root
 
aqui va el match with diff: 
 
Los ficheros FromRucio_group.phys-hdbs.mc16_13TeV.361510.MGPy8EG_A14NNPDF23LO_Ztautau_Np0.HIGG4D2.16InvCRBulb1Norm_CxAOD.root.txt y FromFolder_group.phys-hdbs.mc16_13TeV.361510.MGPy8EG_A14NNPDF23LO_Ztautau_Np0.HIGG4D2.16InvCRBulb1Norm_CxAOD.root.txt son idénticos


this is the missing files between the files
_____________________________________________________________________________________
 
 
The path running is:  /eos/atlas/atlascerngroupdisk/phys-hdbs/diHiggs/bbtautau/lephad/Bulbasaur/InvCR/DATA16/Ztt_Madgraph/group.phys-hdbs.mc16_13TeV.361511.MGPy8EG_A14NNPDF23LO_Ztautau_Np1.HIGG4D2.16InvCRBulb1Norm_CxAOD.root
 
Retain the part of the path after the last slash is: 
group.phys-hdbs.mc16_13TeV.361511.MGPy8EG_A14NNPDF23LO_Ztautau_Np1.HIGG4D2.16InvCRBulb1Norm_CxAOD.root
 
This is the retrieve information from rucio 
 
group.phys-hdbs.24567517._000002.CxAOD.root
group.phys-hdbs.24567517._000001.CxAOD.root
 
This is the content of the folder: 
 
group.phys-hdbs.24567517._000001.CxAOD.root
group.phys-hdbs.24567517._000002.CxAOD.root
 
aqui va el match with diff: 
 
Los ficheros FromRucio_group.phys-hdbs.mc16_13TeV.361511.MGPy8EG_A14NNPDF23LO_Ztautau_Np1.HIGG4D2.16InvCRBulb1Norm_CxAOD.root.txt y FromFolder_group.phys-hdbs.mc16_13TeV.361511.MGPy8EG_A14NNPDF23LO_Ztautau_Np1.HIGG4D2.16InvCRBulb1Norm_CxAOD.root.txt son idénticos


this is the missing files between the files
_____________________________________________________________________________________
 
 
The path running is:  /eos/atlas/atlascerngroupdisk/phys-hdbs/diHiggs/bbtautau/lephad/Bulbasaur/InvCR/DATA16/Ztt_Madgraph/group.phys-hdbs.mc16_13TeV.361512.MGPy8EG_A14NNPDF23LO_Ztautau_Np2.HIGG4D2.16InvCRBulb1Norm_CxAOD.root
 
Retain the part of the path after the last slash is: 
group.phys-hdbs.mc16_13TeV.361512.MGPy8EG_A14NNPDF23LO_Ztautau_Np2.HIGG4D2.16InvCRBulb1Norm_CxAOD.root
 
This is the retrieve information from rucio 
 
group.phys-hdbs.24567518._000001.CxAOD.root
group.phys-hdbs.24567518._000002.CxAOD.root
group.phys-hdbs.24567518._000003.CxAOD.root
 
This is the content of the folder: 
 
group.phys-hdbs.24567518._000001.CxAOD.root
group.phys-hdbs.24567518._000002.CxAOD.root
group.phys-hdbs.24567518._000003.CxAOD.root
 
aqui va el match with diff: 
 
Los ficheros FromRucio_group.phys-hdbs.mc16_13TeV.361512.MGPy8EG_A14NNPDF23LO_Ztautau_Np2.HIGG4D2.16InvCRBulb1Norm_CxAOD.root.txt y FromFolder_group.phys-hdbs.mc16_13TeV.361512.MGPy8EG_A14NNPDF23LO_Ztautau_Np2.HIGG4D2.16InvCRBulb1Norm_CxAOD.root.txt son idénticos


this is the missing files between the files
_____________________________________________________________________________________
 
 
The path running is:  /eos/atlas/atlascerngroupdisk/phys-hdbs/diHiggs/bbtautau/lephad/Bulbasaur/InvCR/DATA16/Ztt_Madgraph/group.phys-hdbs.mc16_13TeV.361513.MGPy8EG_A14NNPDF23LO_Ztautau_Np3.HIGG4D2.16InvCRBulb1Norm_CxAOD.root
 
Retain the part of the path after the last slash is: 
group.phys-hdbs.mc16_13TeV.361513.MGPy8EG_A14NNPDF23LO_Ztautau_Np3.HIGG4D2.16InvCRBulb1Norm_CxAOD.root
 
This is the retrieve information from rucio 
 
group.phys-hdbs.24567519._000002.CxAOD.root
group.phys-hdbs.24567519._000001.CxAOD.root
 
This is the content of the folder: 
 
group.phys-hdbs.24567519._000001.CxAOD.root
group.phys-hdbs.24567519._000002.CxAOD.root
 
aqui va el match with diff: 
 
Los ficheros FromRucio_group.phys-hdbs.mc16_13TeV.361513.MGPy8EG_A14NNPDF23LO_Ztautau_Np3.HIGG4D2.16InvCRBulb1Norm_CxAOD.root.txt y FromFolder_group.phys-hdbs.mc16_13TeV.361513.MGPy8EG_A14NNPDF23LO_Ztautau_Np3.HIGG4D2.16InvCRBulb1Norm_CxAOD.root.txt son idénticos


this is the missing files between the files
_____________________________________________________________________________________
 
 
The path running is:  /eos/atlas/atlascerngroupdisk/phys-hdbs/diHiggs/bbtautau/lephad/Bulbasaur/InvCR/DATA16/Ztt_Madgraph/group.phys-hdbs.mc16_13TeV.361514.MGPy8EG_A14NNPDF23LO_Ztautau_Np4.HIGG4D2.16InvCRBulb1Norm_CxAOD.root
 
Retain the part of the path after the last slash is: 
group.phys-hdbs.mc16_13TeV.361514.MGPy8EG_A14NNPDF23LO_Ztautau_Np4.HIGG4D2.16InvCRBulb1Norm_CxAOD.root
 
This is the retrieve information from rucio 
 
group.phys-hdbs.24567520._000002.CxAOD.root
group.phys-hdbs.24567520._000001.CxAOD.root
 
This is the content of the folder: 
 
group.phys-hdbs.24567520._000001.CxAOD.root
group.phys-hdbs.24567520._000002.CxAOD.root
 
aqui va el match with diff: 
 
Los ficheros FromRucio_group.phys-hdbs.mc16_13TeV.361514.MGPy8EG_A14NNPDF23LO_Ztautau_Np4.HIGG4D2.16InvCRBulb1Norm_CxAOD.root.txt y FromFolder_group.phys-hdbs.mc16_13TeV.361514.MGPy8EG_A14NNPDF23LO_Ztautau_Np4.HIGG4D2.16InvCRBulb1Norm_CxAOD.root.txt son idénticos


this is the missing files between the files
_____________________________________________________________________________________
 
 
The path running is:  /eos/atlas/atlascerngroupdisk/phys-hdbs/diHiggs/bbtautau/lephad/Bulbasaur/InvCR/DATA16/Ztt_Madgraph/group.phys-hdbs.mc16_13TeV.361638.MGPy8EG_A14NNPDF23LO_Ztautau_lowMll_Np0.HIGG4D2.16InvCRBulb1Norm_CxAOD.root
 
Retain the part of the path after the last slash is: 
group.phys-hdbs.mc16_13TeV.361638.MGPy8EG_A14NNPDF23LO_Ztautau_lowMll_Np0.HIGG4D2.16InvCRBulb1Norm_CxAOD.root
 
This is the retrieve information from rucio 
 
group.phys-hdbs.24567521._000001.CxAOD.root
 
This is the content of the folder: 
 
group.phys-hdbs.24567521._000001.CxAOD.root
 
aqui va el match with diff: 
 
Los ficheros FromRucio_group.phys-hdbs.mc16_13TeV.361638.MGPy8EG_A14NNPDF23LO_Ztautau_lowMll_Np0.HIGG4D2.16InvCRBulb1Norm_CxAOD.root.txt y FromFolder_group.phys-hdbs.mc16_13TeV.361638.MGPy8EG_A14NNPDF23LO_Ztautau_lowMll_Np0.HIGG4D2.16InvCRBulb1Norm_CxAOD.root.txt son idénticos


this is the missing files between the files
_____________________________________________________________________________________
 
 
The path running is:  /eos/atlas/atlascerngroupdisk/phys-hdbs/diHiggs/bbtautau/lephad/Bulbasaur/InvCR/DATA16/Ztt_Madgraph/group.phys-hdbs.mc16_13TeV.361639.MGPy8EG_A14NNPDF23LO_Ztautau_lowMll_Np1.HIGG4D2.16InvCRBulb1Norm_CxAOD.root
 
Retain the part of the path after the last slash is: 
group.phys-hdbs.mc16_13TeV.361639.MGPy8EG_A14NNPDF23LO_Ztautau_lowMll_Np1.HIGG4D2.16InvCRBulb1Norm_CxAOD.root
 
This is the retrieve information from rucio 
 
group.phys-hdbs.24567522._000001.CxAOD.root
 
This is the content of the folder: 
 
group.phys-hdbs.24567522._000001.CxAOD.root
 
aqui va el match with diff: 
 
Los ficheros FromRucio_group.phys-hdbs.mc16_13TeV.361639.MGPy8EG_A14NNPDF23LO_Ztautau_lowMll_Np1.HIGG4D2.16InvCRBulb1Norm_CxAOD.root.txt y FromFolder_group.phys-hdbs.mc16_13TeV.361639.MGPy8EG_A14NNPDF23LO_Ztautau_lowMll_Np1.HIGG4D2.16InvCRBulb1Norm_CxAOD.root.txt son idénticos


this is the missing files between the files
_____________________________________________________________________________________
 
 
The path running is:  /eos/atlas/atlascerngroupdisk/phys-hdbs/diHiggs/bbtautau/lephad/Bulbasaur/InvCR/DATA16/Ztt_Madgraph/group.phys-hdbs.mc16_13TeV.361640.MGPy8EG_A14NNPDF23LO_Ztautau_lowMll_Np2.HIGG4D2.16InvCRBulb1Norm_CxAOD.root
 
Retain the part of the path after the last slash is: 
group.phys-hdbs.mc16_13TeV.361640.MGPy8EG_A14NNPDF23LO_Ztautau_lowMll_Np2.HIGG4D2.16InvCRBulb1Norm_CxAOD.root
 
This is the retrieve information from rucio 
 
group.phys-hdbs.24567523._000001.CxAOD.root
 
This is the content of the folder: 
 
group.phys-hdbs.24567523._000001.CxAOD.root
 
aqui va el match with diff: 
 
Los ficheros FromRucio_group.phys-hdbs.mc16_13TeV.361640.MGPy8EG_A14NNPDF23LO_Ztautau_lowMll_Np2.HIGG4D2.16InvCRBulb1Norm_CxAOD.root.txt y FromFolder_group.phys-hdbs.mc16_13TeV.361640.MGPy8EG_A14NNPDF23LO_Ztautau_lowMll_Np2.HIGG4D2.16InvCRBulb1Norm_CxAOD.root.txt son idénticos


this is the missing files between the files
_____________________________________________________________________________________
 
 
The path running is:  /eos/atlas/atlascerngroupdisk/phys-hdbs/diHiggs/bbtautau/lephad/Bulbasaur/InvCR/DATA16/Ztt_Madgraph/group.phys-hdbs.mc16_13TeV.361641.MGPy8EG_A14NNPDF23LO_Ztautau_lowMll_Np3.HIGG4D2.16InvCRBulb1Norm_CxAOD.root
 
Retain the part of the path after the last slash is: 
group.phys-hdbs.mc16_13TeV.361641.MGPy8EG_A14NNPDF23LO_Ztautau_lowMll_Np3.HIGG4D2.16InvCRBulb1Norm_CxAOD.root
 
This is the retrieve information from rucio 
 
group.phys-hdbs.24567524._000001.CxAOD.root
 
This is the content of the folder: 
 
group.phys-hdbs.24567524._000001.CxAOD.root
 
aqui va el match with diff: 
 
Los ficheros FromRucio_group.phys-hdbs.mc16_13TeV.361641.MGPy8EG_A14NNPDF23LO_Ztautau_lowMll_Np3.HIGG4D2.16InvCRBulb1Norm_CxAOD.root.txt y FromFolder_group.phys-hdbs.mc16_13TeV.361641.MGPy8EG_A14NNPDF23LO_Ztautau_lowMll_Np3.HIGG4D2.16InvCRBulb1Norm_CxAOD.root.txt son idénticos


this is the missing files between the files
_____________________________________________________________________________________
 
 
The path running is:  /eos/atlas/atlascerngroupdisk/phys-hdbs/diHiggs/bbtautau/lephad/Bulbasaur/InvCR/DATA16/Ztt_Madgraph/group.phys-hdbs.mc16_13TeV.361642.MGPy8EG_A14NNPDF23LO_Ztautau_lowMll_Np4.HIGG4D2.16InvCRBulb1Norm_CxAOD.root
 
Retain the part of the path after the last slash is: 
group.phys-hdbs.mc16_13TeV.361642.MGPy8EG_A14NNPDF23LO_Ztautau_lowMll_Np4.HIGG4D2.16InvCRBulb1Norm_CxAOD.root
 
This is the retrieve information from rucio 
 
group.phys-hdbs.24567525._000001.CxAOD.root
 
This is the content of the folder: 
 
group.phys-hdbs.24567525._000001.CxAOD.root
 
aqui va el match with diff: 
 
Los ficheros FromRucio_group.phys-hdbs.mc16_13TeV.361642.MGPy8EG_A14NNPDF23LO_Ztautau_lowMll_Np4.HIGG4D2.16InvCRBulb1Norm_CxAOD.root.txt y FromFolder_group.phys-hdbs.mc16_13TeV.361642.MGPy8EG_A14NNPDF23LO_Ztautau_lowMll_Np4.HIGG4D2.16InvCRBulb1Norm_CxAOD.root.txt son idénticos


this is the missing files between the files
_____________________________________________________________________________________
 
 
The path running is:  /eos/atlas/atlascerngroupdisk/phys-hdbs/diHiggs/bbtautau/lephad/Bulbasaur/InvCR/DATA17/Ztautau/group.phys-hdbs.mc16_13TeV.364140.Sh_221_NNPDF30NNLO_Ztautau_MAXHTPTV500_1000.HIGG4D2.17InvCRBulb1Norm_CxAOD.root
 
Retain the part of the path after the last slash is: 
group.phys-hdbs.mc16_13TeV.364140.Sh_221_NNPDF30NNLO_Ztautau_MAXHTPTV500_1000.HIGG4D2.17InvCRBulb1Norm_CxAOD.root
 
This is the retrieve information from rucio 
 
group.phys-hdbs.24568021._000003.CxAOD.root
group.phys-hdbs.24568021._000001.CxAOD.root
group.phys-hdbs.24568021._000002.CxAOD.root
 
This is the content of the folder: 
 
group.phys-hdbs.24568021._000001.CxAOD.root
group.phys-hdbs.24568021._000002.CxAOD.root
group.phys-hdbs.24568021._000003.CxAOD.root
 
aqui va el match with diff: 
 
Los ficheros FromRucio_group.phys-hdbs.mc16_13TeV.364140.Sh_221_NNPDF30NNLO_Ztautau_MAXHTPTV500_1000.HIGG4D2.17InvCRBulb1Norm_CxAOD.root.txt y FromFolder_group.phys-hdbs.mc16_13TeV.364140.Sh_221_NNPDF30NNLO_Ztautau_MAXHTPTV500_1000.HIGG4D2.17InvCRBulb1Norm_CxAOD.root.txt son idénticos


this is the missing files between the files
_____________________________________________________________________________________
 
 
The path running is:  /eos/atlas/atlascerngroupdisk/phys-hdbs/diHiggs/bbtautau/lephad/Bulbasaur/InvCR/DATA17/Ztautau/group.phys-hdbs.mc16_13TeV.364141.Sh_221_NNPDF30NNLO_Ztautau_MAXHTPTV1000_E_CMS.HIGG4D2.17InvCRBulb1Norm_CxAOD.root
 
Retain the part of the path after the last slash is: 
group.phys-hdbs.mc16_13TeV.364141.Sh_221_NNPDF30NNLO_Ztautau_MAXHTPTV1000_E_CMS.HIGG4D2.17InvCRBulb1Norm_CxAOD.root
 
This is the retrieve information from rucio 
 
group.phys-hdbs.24568022._000003.CxAOD.root
group.phys-hdbs.24568022._000002.CxAOD.root
group.phys-hdbs.24568022._000001.CxAOD.root
 
This is the content of the folder: 
 
group.phys-hdbs.24568022._000001.CxAOD.root
group.phys-hdbs.24568022._000002.CxAOD.root
group.phys-hdbs.24568022._000003.CxAOD.root
 
aqui va el match with diff: 
 
Los ficheros FromRucio_group.phys-hdbs.mc16_13TeV.364141.Sh_221_NNPDF30NNLO_Ztautau_MAXHTPTV1000_E_CMS.HIGG4D2.17InvCRBulb1Norm_CxAOD.root.txt y FromFolder_group.phys-hdbs.mc16_13TeV.364141.Sh_221_NNPDF30NNLO_Ztautau_MAXHTPTV1000_E_CMS.HIGG4D2.17InvCRBulb1Norm_CxAOD.root.txt son idénticos


this is the missing files between the files
_____________________________________________________________________________________
 
 
The path running is:  /eos/atlas/atlascerngroupdisk/phys-hdbs/diHiggs/bbtautau/lephad/Bulbasaur/InvCR/DATA17/ZtautauB/group.phys-hdbs.mc16_13TeV.364130.Sh_221_NNPDF30NNLO_Ztautau_MAXHTPTV0_70_BFilter.HIGG4D2.17InvCRBulb1Norm_CxAOD.root
 
Retain the part of the path after the last slash is: 
group.phys-hdbs.mc16_13TeV.364130.Sh_221_NNPDF30NNLO_Ztautau_MAXHTPTV0_70_BFilter.HIGG4D2.17InvCRBulb1Norm_CxAOD.root
 
This is the retrieve information from rucio 
 
group.phys-hdbs.24568011._000003.CxAOD.root
group.phys-hdbs.24568011._000002.CxAOD.root
group.phys-hdbs.24568011._000001.CxAOD.root
 
This is the content of the folder: 
 
group.phys-hdbs.24568011._000001.CxAOD.root
group.phys-hdbs.24568011._000002.CxAOD.root
group.phys-hdbs.24568011._000003.CxAOD.root
 
aqui va el match with diff: 
 
Los ficheros FromRucio_group.phys-hdbs.mc16_13TeV.364130.Sh_221_NNPDF30NNLO_Ztautau_MAXHTPTV0_70_BFilter.HIGG4D2.17InvCRBulb1Norm_CxAOD.root.txt y FromFolder_group.phys-hdbs.mc16_13TeV.364130.Sh_221_NNPDF30NNLO_Ztautau_MAXHTPTV0_70_BFilter.HIGG4D2.17InvCRBulb1Norm_CxAOD.root.txt son idénticos


this is the missing files between the files
_____________________________________________________________________________________
 
 
The path running is:  /eos/atlas/atlascerngroupdisk/phys-hdbs/diHiggs/bbtautau/lephad/Bulbasaur/InvCR/DATA17/ZtautauB/group.phys-hdbs.mc16_13TeV.364133.Sh_221_NNPDF30NNLO_Ztautau_MAXHTPTV70_140_BFilter.HIGG4D2.17InvCRBulb1Norm_CxAOD.root
 
Retain the part of the path after the last slash is: 
group.phys-hdbs.mc16_13TeV.364133.Sh_221_NNPDF30NNLO_Ztautau_MAXHTPTV70_140_BFilter.HIGG4D2.17InvCRBulb1Norm_CxAOD.root
 
This is the retrieve information from rucio 
 
group.phys-hdbs.24568014._000004.CxAOD.root
group.phys-hdbs.24568014._000003.CxAOD.root
group.phys-hdbs.24568014._000002.CxAOD.root
group.phys-hdbs.24568014._000001.CxAOD.root
 
This is the content of the folder: 
 
group.phys-hdbs.24568014._000001.CxAOD.root
group.phys-hdbs.24568014._000002.CxAOD.root
group.phys-hdbs.24568014._000003.CxAOD.root
group.phys-hdbs.24568014._000004.CxAOD.root
 
aqui va el match with diff: 
 
Los ficheros FromRucio_group.phys-hdbs.mc16_13TeV.364133.Sh_221_NNPDF30NNLO_Ztautau_MAXHTPTV70_140_BFilter.HIGG4D2.17InvCRBulb1Norm_CxAOD.root.txt y FromFolder_group.phys-hdbs.mc16_13TeV.364133.Sh_221_NNPDF30NNLO_Ztautau_MAXHTPTV70_140_BFilter.HIGG4D2.17InvCRBulb1Norm_CxAOD.root.txt son idénticos


this is the missing files between the files
_____________________________________________________________________________________
 
 
The path running is:  /eos/atlas/atlascerngroupdisk/phys-hdbs/diHiggs/bbtautau/lephad/Bulbasaur/InvCR/DATA17/ZtautauB/group.phys-hdbs.mc16_13TeV.364136.Sh_221_NNPDF30NNLO_Ztautau_MAXHTPTV140_280_BFilter.HIGG4D2.17InvCRBulb1Norm_CxAOD.root
 
Retain the part of the path after the last slash is: 
group.phys-hdbs.mc16_13TeV.364136.Sh_221_NNPDF30NNLO_Ztautau_MAXHTPTV140_280_BFilter.HIGG4D2.17InvCRBulb1Norm_CxAOD.root
 
This is the retrieve information from rucio 
 
group.phys-hdbs.24568017._000004.CxAOD.root
group.phys-hdbs.24568017._000003.CxAOD.root
group.phys-hdbs.24568017._000002.CxAOD.root
group.phys-hdbs.24568017._000001.CxAOD.root
 
This is the content of the folder: 
 
group.phys-hdbs.24568017._000001.CxAOD.root
group.phys-hdbs.24568017._000002.CxAOD.root
group.phys-hdbs.24568017._000003.CxAOD.root
group.phys-hdbs.24568017._000004.CxAOD.root
 
aqui va el match with diff: 
 
Los ficheros FromRucio_group.phys-hdbs.mc16_13TeV.364136.Sh_221_NNPDF30NNLO_Ztautau_MAXHTPTV140_280_BFilter.HIGG4D2.17InvCRBulb1Norm_CxAOD.root.txt y FromFolder_group.phys-hdbs.mc16_13TeV.364136.Sh_221_NNPDF30NNLO_Ztautau_MAXHTPTV140_280_BFilter.HIGG4D2.17InvCRBulb1Norm_CxAOD.root.txt son idénticos


this is the missing files between the files
_____________________________________________________________________________________
 
 
The path running is:  /eos/atlas/atlascerngroupdisk/phys-hdbs/diHiggs/bbtautau/lephad/Bulbasaur/InvCR/DATA17/ZtautauB/group.phys-hdbs.mc16_13TeV.364139.Sh_221_NNPDF30NNLO_Ztautau_MAXHTPTV280_500_BFilter.HIGG4D2.17InvCRBulb1Norm_CxAOD.root
 
Retain the part of the path after the last slash is: 
group.phys-hdbs.mc16_13TeV.364139.Sh_221_NNPDF30NNLO_Ztautau_MAXHTPTV280_500_BFilter.HIGG4D2.17InvCRBulb1Norm_CxAOD.root
 
This is the retrieve information from rucio 
 
group.phys-hdbs.24568020._000003.CxAOD.root
group.phys-hdbs.24568020._000002.CxAOD.root
group.phys-hdbs.24568020._000001.CxAOD.root
 
This is the content of the folder: 
 
group.phys-hdbs.24568020._000001.CxAOD.root
group.phys-hdbs.24568020._000002.CxAOD.root
group.phys-hdbs.24568020._000003.CxAOD.root
 
aqui va el match with diff: 
 
Los ficheros FromRucio_group.phys-hdbs.mc16_13TeV.364139.Sh_221_NNPDF30NNLO_Ztautau_MAXHTPTV280_500_BFilter.HIGG4D2.17InvCRBulb1Norm_CxAOD.root.txt y FromFolder_group.phys-hdbs.mc16_13TeV.364139.Sh_221_NNPDF30NNLO_Ztautau_MAXHTPTV280_500_BFilter.HIGG4D2.17InvCRBulb1Norm_CxAOD.root.txt son idénticos


this is the missing files between the files
_____________________________________________________________________________________
 
 
The path running is:  /eos/atlas/atlascerngroupdisk/phys-hdbs/diHiggs/bbtautau/lephad/Bulbasaur/InvCR/DATA17/ZtautauC/group.phys-hdbs.mc16_13TeV.364129.Sh_221_NNPDF30NNLO_Ztautau_MAXHTPTV0_70_CFilterBVeto.HIGG4D2.17InvCRBulb1Norm_CxAOD.root
 
Retain the part of the path after the last slash is: 
group.phys-hdbs.mc16_13TeV.364129.Sh_221_NNPDF30NNLO_Ztautau_MAXHTPTV0_70_CFilterBVeto.HIGG4D2.17InvCRBulb1Norm_CxAOD.root
 
This is the retrieve information from rucio 
 
group.phys-hdbs.24568010._000003.CxAOD.root
group.phys-hdbs.24568010._000002.CxAOD.root
group.phys-hdbs.24568010._000001.CxAOD.root
 
This is the content of the folder: 
 
group.phys-hdbs.24568010._000001.CxAOD.root
group.phys-hdbs.24568010._000002.CxAOD.root
group.phys-hdbs.24568010._000003.CxAOD.root
 
aqui va el match with diff: 
 
Los ficheros FromRucio_group.phys-hdbs.mc16_13TeV.364129.Sh_221_NNPDF30NNLO_Ztautau_MAXHTPTV0_70_CFilterBVeto.HIGG4D2.17InvCRBulb1Norm_CxAOD.root.txt y FromFolder_group.phys-hdbs.mc16_13TeV.364129.Sh_221_NNPDF30NNLO_Ztautau_MAXHTPTV0_70_CFilterBVeto.HIGG4D2.17InvCRBulb1Norm_CxAOD.root.txt son idénticos


this is the missing files between the files
_____________________________________________________________________________________
 
 
The path running is:  /eos/atlas/atlascerngroupdisk/phys-hdbs/diHiggs/bbtautau/lephad/Bulbasaur/InvCR/DATA17/ZtautauC/group.phys-hdbs.mc16_13TeV.364132.Sh_221_NNPDF30NNLO_Ztautau_MAXHTPTV70_140_CFilterBVeto.HIGG4D2.17InvCRBulb1Norm_CxAOD.root
 
Retain the part of the path after the last slash is: 
group.phys-hdbs.mc16_13TeV.364132.Sh_221_NNPDF30NNLO_Ztautau_MAXHTPTV70_140_CFilterBVeto.HIGG4D2.17InvCRBulb1Norm_CxAOD.root
 
This is the retrieve information from rucio 
 
group.phys-hdbs.24568013._000002.CxAOD.root
group.phys-hdbs.24568013._000001.CxAOD.root
 
This is the content of the folder: 
 
group.phys-hdbs.24568013._000001.CxAOD.root
group.phys-hdbs.24568013._000002.CxAOD.root
 
aqui va el match with diff: 
 
Los ficheros FromRucio_group.phys-hdbs.mc16_13TeV.364132.Sh_221_NNPDF30NNLO_Ztautau_MAXHTPTV70_140_CFilterBVeto.HIGG4D2.17InvCRBulb1Norm_CxAOD.root.txt y FromFolder_group.phys-hdbs.mc16_13TeV.364132.Sh_221_NNPDF30NNLO_Ztautau_MAXHTPTV70_140_CFilterBVeto.HIGG4D2.17InvCRBulb1Norm_CxAOD.root.txt son idénticos


this is the missing files between the files
_____________________________________________________________________________________
 
 
The path running is:  /eos/atlas/atlascerngroupdisk/phys-hdbs/diHiggs/bbtautau/lephad/Bulbasaur/InvCR/DATA17/ZtautauC/group.phys-hdbs.mc16_13TeV.364135.Sh_221_NNPDF30NNLO_Ztautau_MAXHTPTV140_280_CFilterBVeto.HIGG4D2.17InvCRBulb1Norm_CxAOD.root
 
Retain the part of the path after the last slash is: 
group.phys-hdbs.mc16_13TeV.364135.Sh_221_NNPDF30NNLO_Ztautau_MAXHTPTV140_280_CFilterBVeto.HIGG4D2.17InvCRBulb1Norm_CxAOD.root
 
This is the retrieve information from rucio 
 
group.phys-hdbs.24568016._000003.CxAOD.root
group.phys-hdbs.24568016._000001.CxAOD.root
group.phys-hdbs.24568016._000002.CxAOD.root
 
This is the content of the folder: 
 
group.phys-hdbs.24568016._000001.CxAOD.root
group.phys-hdbs.24568016._000002.CxAOD.root
group.phys-hdbs.24568016._000003.CxAOD.root
 
aqui va el match with diff: 
 
Los ficheros FromRucio_group.phys-hdbs.mc16_13TeV.364135.Sh_221_NNPDF30NNLO_Ztautau_MAXHTPTV140_280_CFilterBVeto.HIGG4D2.17InvCRBulb1Norm_CxAOD.root.txt y FromFolder_group.phys-hdbs.mc16_13TeV.364135.Sh_221_NNPDF30NNLO_Ztautau_MAXHTPTV140_280_CFilterBVeto.HIGG4D2.17InvCRBulb1Norm_CxAOD.root.txt son idénticos


this is the missing files between the files
_____________________________________________________________________________________
 
 
The path running is:  /eos/atlas/atlascerngroupdisk/phys-hdbs/diHiggs/bbtautau/lephad/Bulbasaur/InvCR/DATA17/ZtautauC/group.phys-hdbs.mc16_13TeV.364138.Sh_221_NNPDF30NNLO_Ztautau_MAXHTPTV280_500_CFilterBVeto.HIGG4D2.17InvCRBulb1Norm_CxAOD.root
 
Retain the part of the path after the last slash is: 
group.phys-hdbs.mc16_13TeV.364138.Sh_221_NNPDF30NNLO_Ztautau_MAXHTPTV280_500_CFilterBVeto.HIGG4D2.17InvCRBulb1Norm_CxAOD.root
 
This is the retrieve information from rucio 
 
group.phys-hdbs.24568019._000002.CxAOD.root
group.phys-hdbs.24568019._000001.CxAOD.root
 
This is the content of the folder: 
 
group.phys-hdbs.24568019._000001.CxAOD.root
group.phys-hdbs.24568019._000002.CxAOD.root
 
aqui va el match with diff: 
 
Los ficheros FromRucio_group.phys-hdbs.mc16_13TeV.364138.Sh_221_NNPDF30NNLO_Ztautau_MAXHTPTV280_500_CFilterBVeto.HIGG4D2.17InvCRBulb1Norm_CxAOD.root.txt y FromFolder_group.phys-hdbs.mc16_13TeV.364138.Sh_221_NNPDF30NNLO_Ztautau_MAXHTPTV280_500_CFilterBVeto.HIGG4D2.17InvCRBulb1Norm_CxAOD.root.txt son idénticos


this is the missing files between the files
_____________________________________________________________________________________
 
 
The path running is:  /eos/atlas/atlascerngroupdisk/phys-hdbs/diHiggs/bbtautau/lephad/Bulbasaur/InvCR/DATA17/ZtautauL/group.phys-hdbs.mc16_13TeV.364128.Sh_221_NNPDF30NNLO_Ztautau_MAXHTPTV0_70_CVetoBVeto.HIGG4D2.17InvCRBulb1Norm_CxAOD.root
 
Retain the part of the path after the last slash is: 
group.phys-hdbs.mc16_13TeV.364128.Sh_221_NNPDF30NNLO_Ztautau_MAXHTPTV0_70_CVetoBVeto.HIGG4D2.17InvCRBulb1Norm_CxAOD.root
 
This is the retrieve information from rucio 
 
group.phys-hdbs.24568008._000003.CxAOD.root
group.phys-hdbs.24568008._000002.CxAOD.root
group.phys-hdbs.24568008._000001.CxAOD.root
 
This is the content of the folder: 
 
group.phys-hdbs.24568008._000001.CxAOD.root
group.phys-hdbs.24568008._000002.CxAOD.root
group.phys-hdbs.24568008._000003.CxAOD.root
 
aqui va el match with diff: 
 
Los ficheros FromRucio_group.phys-hdbs.mc16_13TeV.364128.Sh_221_NNPDF30NNLO_Ztautau_MAXHTPTV0_70_CVetoBVeto.HIGG4D2.17InvCRBulb1Norm_CxAOD.root.txt y FromFolder_group.phys-hdbs.mc16_13TeV.364128.Sh_221_NNPDF30NNLO_Ztautau_MAXHTPTV0_70_CVetoBVeto.HIGG4D2.17InvCRBulb1Norm_CxAOD.root.txt son idénticos


this is the missing files between the files
_____________________________________________________________________________________
 
 
The path running is:  /eos/atlas/atlascerngroupdisk/phys-hdbs/diHiggs/bbtautau/lephad/Bulbasaur/InvCR/DATA17/ZtautauL/group.phys-hdbs.mc16_13TeV.364131.Sh_221_NNPDF30NNLO_Ztautau_MAXHTPTV70_140_CVetoBVeto.HIGG4D2.17InvCRBulb1Norm_CxAOD.root
 
Retain the part of the path after the last slash is: 
group.phys-hdbs.mc16_13TeV.364131.Sh_221_NNPDF30NNLO_Ztautau_MAXHTPTV70_140_CVetoBVeto.HIGG4D2.17InvCRBulb1Norm_CxAOD.root
 
This is the retrieve information from rucio 
 
group.phys-hdbs.24568012._000005.CxAOD.root
group.phys-hdbs.24568012._000004.CxAOD.root
group.phys-hdbs.24568012._000003.CxAOD.root
group.phys-hdbs.24568012._000002.CxAOD.root
 
This is the content of the folder: 
 
group.phys-hdbs.24568012._000002.CxAOD.root
group.phys-hdbs.24568012._000003.CxAOD.root
group.phys-hdbs.24568012._000004.CxAOD.root
group.phys-hdbs.24568012._000005.CxAOD.root
 
aqui va el match with diff: 
 
Los ficheros FromRucio_group.phys-hdbs.mc16_13TeV.364131.Sh_221_NNPDF30NNLO_Ztautau_MAXHTPTV70_140_CVetoBVeto.HIGG4D2.17InvCRBulb1Norm_CxAOD.root.txt y FromFolder_group.phys-hdbs.mc16_13TeV.364131.Sh_221_NNPDF30NNLO_Ztautau_MAXHTPTV70_140_CVetoBVeto.HIGG4D2.17InvCRBulb1Norm_CxAOD.root.txt son idénticos


this is the missing files between the files
_____________________________________________________________________________________
 
 
The path running is:  /eos/atlas/atlascerngroupdisk/phys-hdbs/diHiggs/bbtautau/lephad/Bulbasaur/InvCR/DATA17/ZtautauL/group.phys-hdbs.mc16_13TeV.364134.Sh_221_NNPDF30NNLO_Ztautau_MAXHTPTV140_280_CVetoBVeto.HIGG4D2.17InvCRBulb1Norm_CxAOD.root
 
Retain the part of the path after the last slash is: 
group.phys-hdbs.mc16_13TeV.364134.Sh_221_NNPDF30NNLO_Ztautau_MAXHTPTV140_280_CVetoBVeto.HIGG4D2.17InvCRBulb1Norm_CxAOD.root
 
This is the retrieve information from rucio 
 
group.phys-hdbs.24568015._000003.CxAOD.root
group.phys-hdbs.24568015._000002.CxAOD.root
group.phys-hdbs.24568015._000001.CxAOD.root
 
This is the content of the folder: 
 
group.phys-hdbs.24568015._000001.CxAOD.root
group.phys-hdbs.24568015._000002.CxAOD.root
group.phys-hdbs.24568015._000003.CxAOD.root
 
aqui va el match with diff: 
 
Los ficheros FromRucio_group.phys-hdbs.mc16_13TeV.364134.Sh_221_NNPDF30NNLO_Ztautau_MAXHTPTV140_280_CVetoBVeto.HIGG4D2.17InvCRBulb1Norm_CxAOD.root.txt y FromFolder_group.phys-hdbs.mc16_13TeV.364134.Sh_221_NNPDF30NNLO_Ztautau_MAXHTPTV140_280_CVetoBVeto.HIGG4D2.17InvCRBulb1Norm_CxAOD.root.txt son idénticos


this is the missing files between the files
_____________________________________________________________________________________
 
 
The path running is:  /eos/atlas/atlascerngroupdisk/phys-hdbs/diHiggs/bbtautau/lephad/Bulbasaur/InvCR/DATA17/ZtautauL/group.phys-hdbs.mc16_13TeV.364137.Sh_221_NNPDF30NNLO_Ztautau_MAXHTPTV280_500_CVetoBVeto.HIGG4D2.17InvCRBulb1Norm_CxAOD.root
 
Retain the part of the path after the last slash is: 
group.phys-hdbs.mc16_13TeV.364137.Sh_221_NNPDF30NNLO_Ztautau_MAXHTPTV280_500_CVetoBVeto.HIGG4D2.17InvCRBulb1Norm_CxAOD.root
 
This is the retrieve information from rucio 
 
group.phys-hdbs.24568018._000006.CxAOD.root
group.phys-hdbs.24568018._000005.CxAOD.root
group.phys-hdbs.24568018._000004.CxAOD.root
group.phys-hdbs.24568018._000002.CxAOD.root
group.phys-hdbs.24568018._000001.CxAOD.root
group.phys-hdbs.24568018._000003.CxAOD.root
 
This is the content of the folder: 
 
group.phys-hdbs.24568018._000001.CxAOD.root
group.phys-hdbs.24568018._000002.CxAOD.root
group.phys-hdbs.24568018._000003.CxAOD.root
group.phys-hdbs.24568018._000004.CxAOD.root
group.phys-hdbs.24568018._000005.CxAOD.root
group.phys-hdbs.24568018._000006.CxAOD.root
 
aqui va el match with diff: 
 
Los ficheros FromRucio_group.phys-hdbs.mc16_13TeV.364137.Sh_221_NNPDF30NNLO_Ztautau_MAXHTPTV280_500_CVetoBVeto.HIGG4D2.17InvCRBulb1Norm_CxAOD.root.txt y FromFolder_group.phys-hdbs.mc16_13TeV.364137.Sh_221_NNPDF30NNLO_Ztautau_MAXHTPTV280_500_CVetoBVeto.HIGG4D2.17InvCRBulb1Norm_CxAOD.root.txt son idénticos


this is the missing files between the files
_____________________________________________________________________________________
 
 
The path running is:  /eos/atlas/atlascerngroupdisk/phys-hdbs/diHiggs/bbtautau/lephad/Bulbasaur/InvCR/DATA17/Ztt_Madgraph/group.phys-hdbs.mc16_13TeV.361510.MGPy8EG_A14NNPDF23LO_Ztautau_Np0.HIGG4D2.17InvCRBulb1Norm_CxAOD.root
 
Retain the part of the path after the last slash is: 
group.phys-hdbs.mc16_13TeV.361510.MGPy8EG_A14NNPDF23LO_Ztautau_Np0.HIGG4D2.17InvCRBulb1Norm_CxAOD.root
 
This is the retrieve information from rucio 
 
group.phys-hdbs.24568207._000001.CxAOD.root
 
This is the content of the folder: 
 
group.phys-hdbs.24568207._000001.CxAOD.root
 
aqui va el match with diff: 
 
Los ficheros FromRucio_group.phys-hdbs.mc16_13TeV.361510.MGPy8EG_A14NNPDF23LO_Ztautau_Np0.HIGG4D2.17InvCRBulb1Norm_CxAOD.root.txt y FromFolder_group.phys-hdbs.mc16_13TeV.361510.MGPy8EG_A14NNPDF23LO_Ztautau_Np0.HIGG4D2.17InvCRBulb1Norm_CxAOD.root.txt son idénticos


this is the missing files between the files
_____________________________________________________________________________________
 
 
The path running is:  /eos/atlas/atlascerngroupdisk/phys-hdbs/diHiggs/bbtautau/lephad/Bulbasaur/InvCR/DATA17/Ztt_Madgraph/group.phys-hdbs.mc16_13TeV.361511.MGPy8EG_A14NNPDF23LO_Ztautau_Np1.HIGG4D2.17InvCRBulb1Norm_CxAOD.root
 
Retain the part of the path after the last slash is: 
group.phys-hdbs.mc16_13TeV.361511.MGPy8EG_A14NNPDF23LO_Ztautau_Np1.HIGG4D2.17InvCRBulb1Norm_CxAOD.root
 
This is the retrieve information from rucio 
 
group.phys-hdbs.24568209._000001.CxAOD.root
 
This is the content of the folder: 
 
group.phys-hdbs.24568209._000001.CxAOD.root
 
aqui va el match with diff: 
 
Los ficheros FromRucio_group.phys-hdbs.mc16_13TeV.361511.MGPy8EG_A14NNPDF23LO_Ztautau_Np1.HIGG4D2.17InvCRBulb1Norm_CxAOD.root.txt y FromFolder_group.phys-hdbs.mc16_13TeV.361511.MGPy8EG_A14NNPDF23LO_Ztautau_Np1.HIGG4D2.17InvCRBulb1Norm_CxAOD.root.txt son idénticos


this is the missing files between the files
_____________________________________________________________________________________
 
 
The path running is:  /eos/atlas/atlascerngroupdisk/phys-hdbs/diHiggs/bbtautau/lephad/Bulbasaur/InvCR/DATA17/Ztt_Madgraph/group.phys-hdbs.mc16_13TeV.361512.MGPy8EG_A14NNPDF23LO_Ztautau_Np2.HIGG4D2.17InvCRBulb1Norm_CxAOD.root
 
Retain the part of the path after the last slash is: 
group.phys-hdbs.mc16_13TeV.361512.MGPy8EG_A14NNPDF23LO_Ztautau_Np2.HIGG4D2.17InvCRBulb1Norm_CxAOD.root
 
This is the retrieve information from rucio 
 
group.phys-hdbs.24568210._000001.CxAOD.root
 
This is the content of the folder: 
 
group.phys-hdbs.24568210._000001.CxAOD.root
 
aqui va el match with diff: 
 
Los ficheros FromRucio_group.phys-hdbs.mc16_13TeV.361512.MGPy8EG_A14NNPDF23LO_Ztautau_Np2.HIGG4D2.17InvCRBulb1Norm_CxAOD.root.txt y FromFolder_group.phys-hdbs.mc16_13TeV.361512.MGPy8EG_A14NNPDF23LO_Ztautau_Np2.HIGG4D2.17InvCRBulb1Norm_CxAOD.root.txt son idénticos


this is the missing files between the files
_____________________________________________________________________________________
 
 
The path running is:  /eos/atlas/atlascerngroupdisk/phys-hdbs/diHiggs/bbtautau/lephad/Bulbasaur/InvCR/DATA17/Ztt_Madgraph/group.phys-hdbs.mc16_13TeV.361513.MGPy8EG_A14NNPDF23LO_Ztautau_Np3.HIGG4D2.17InvCRBulb1Norm_CxAOD.root
 
Retain the part of the path after the last slash is: 
group.phys-hdbs.mc16_13TeV.361513.MGPy8EG_A14NNPDF23LO_Ztautau_Np3.HIGG4D2.17InvCRBulb1Norm_CxAOD.root
 
This is the retrieve information from rucio 
 
group.phys-hdbs.24568212._000001.CxAOD.root
 
This is the content of the folder: 
 
group.phys-hdbs.24568212._000001.CxAOD.root
 
aqui va el match with diff: 
 
Los ficheros FromRucio_group.phys-hdbs.mc16_13TeV.361513.MGPy8EG_A14NNPDF23LO_Ztautau_Np3.HIGG4D2.17InvCRBulb1Norm_CxAOD.root.txt y FromFolder_group.phys-hdbs.mc16_13TeV.361513.MGPy8EG_A14NNPDF23LO_Ztautau_Np3.HIGG4D2.17InvCRBulb1Norm_CxAOD.root.txt son idénticos


this is the missing files between the files
_____________________________________________________________________________________
 
 
The path running is:  /eos/atlas/atlascerngroupdisk/phys-hdbs/diHiggs/bbtautau/lephad/Bulbasaur/InvCR/DATA17/Ztt_Madgraph/group.phys-hdbs.mc16_13TeV.361514.MGPy8EG_A14NNPDF23LO_Ztautau_Np4.HIGG4D2.17InvCRBulb1Norm_CxAOD.root
 
Retain the part of the path after the last slash is: 
group.phys-hdbs.mc16_13TeV.361514.MGPy8EG_A14NNPDF23LO_Ztautau_Np4.HIGG4D2.17InvCRBulb1Norm_CxAOD.root
 
This is the retrieve information from rucio 
 
group.phys-hdbs.24568214._000001.CxAOD.root
 
This is the content of the folder: 
 
group.phys-hdbs.24568214._000001.CxAOD.root
 
aqui va el match with diff: 
 
Los ficheros FromRucio_group.phys-hdbs.mc16_13TeV.361514.MGPy8EG_A14NNPDF23LO_Ztautau_Np4.HIGG4D2.17InvCRBulb1Norm_CxAOD.root.txt y FromFolder_group.phys-hdbs.mc16_13TeV.361514.MGPy8EG_A14NNPDF23LO_Ztautau_Np4.HIGG4D2.17InvCRBulb1Norm_CxAOD.root.txt son idénticos


this is the missing files between the files
_____________________________________________________________________________________
 
 
The path running is:  /eos/atlas/atlascerngroupdisk/phys-hdbs/diHiggs/bbtautau/lephad/Bulbasaur/InvCR/DATA17/Ztt_Madgraph/group.phys-hdbs.mc16_13TeV.361638.MGPy8EG_A14NNPDF23LO_Ztautau_lowMll_Np0.HIGG4D2.17InvCRBulb1Norm_CxAOD.root
 
Retain the part of the path after the last slash is: 
group.phys-hdbs.mc16_13TeV.361638.MGPy8EG_A14NNPDF23LO_Ztautau_lowMll_Np0.HIGG4D2.17InvCRBulb1Norm_CxAOD.root
 
This is the retrieve information from rucio 
 
group.phys-hdbs.24568216._000001.CxAOD.root
 
This is the content of the folder: 
 
group.phys-hdbs.24568216._000001.CxAOD.root
 
aqui va el match with diff: 
 
Los ficheros FromRucio_group.phys-hdbs.mc16_13TeV.361638.MGPy8EG_A14NNPDF23LO_Ztautau_lowMll_Np0.HIGG4D2.17InvCRBulb1Norm_CxAOD.root.txt y FromFolder_group.phys-hdbs.mc16_13TeV.361638.MGPy8EG_A14NNPDF23LO_Ztautau_lowMll_Np0.HIGG4D2.17InvCRBulb1Norm_CxAOD.root.txt son idénticos


this is the missing files between the files
_____________________________________________________________________________________
 
 
The path running is:  /eos/atlas/atlascerngroupdisk/phys-hdbs/diHiggs/bbtautau/lephad/Bulbasaur/InvCR/DATA17/Ztt_Madgraph/group.phys-hdbs.mc16_13TeV.361639.MGPy8EG_A14NNPDF23LO_Ztautau_lowMll_Np1.HIGG4D2.17InvCRBulb1Norm_CxAOD.root
 
Retain the part of the path after the last slash is: 
group.phys-hdbs.mc16_13TeV.361639.MGPy8EG_A14NNPDF23LO_Ztautau_lowMll_Np1.HIGG4D2.17InvCRBulb1Norm_CxAOD.root
 
This is the retrieve information from rucio 
 
group.phys-hdbs.24568217._000001.CxAOD.root
 
This is the content of the folder: 
 
group.phys-hdbs.24568217._000001.CxAOD.root
 
aqui va el match with diff: 
 
Los ficheros FromRucio_group.phys-hdbs.mc16_13TeV.361639.MGPy8EG_A14NNPDF23LO_Ztautau_lowMll_Np1.HIGG4D2.17InvCRBulb1Norm_CxAOD.root.txt y FromFolder_group.phys-hdbs.mc16_13TeV.361639.MGPy8EG_A14NNPDF23LO_Ztautau_lowMll_Np1.HIGG4D2.17InvCRBulb1Norm_CxAOD.root.txt son idénticos


this is the missing files between the files
_____________________________________________________________________________________
 
 
The path running is:  /eos/atlas/atlascerngroupdisk/phys-hdbs/diHiggs/bbtautau/lephad/Bulbasaur/InvCR/DATA17/Ztt_Madgraph/group.phys-hdbs.mc16_13TeV.361640.MGPy8EG_A14NNPDF23LO_Ztautau_lowMll_Np2.HIGG4D2.17InvCRBulb1Norm_CxAOD.root
 
Retain the part of the path after the last slash is: 
group.phys-hdbs.mc16_13TeV.361640.MGPy8EG_A14NNPDF23LO_Ztautau_lowMll_Np2.HIGG4D2.17InvCRBulb1Norm_CxAOD.root
 
This is the retrieve information from rucio 
 
group.phys-hdbs.24568219._000001.CxAOD.root
 
This is the content of the folder: 
 
group.phys-hdbs.24568219._000001.CxAOD.root
 
aqui va el match with diff: 
 
Los ficheros FromRucio_group.phys-hdbs.mc16_13TeV.361640.MGPy8EG_A14NNPDF23LO_Ztautau_lowMll_Np2.HIGG4D2.17InvCRBulb1Norm_CxAOD.root.txt y FromFolder_group.phys-hdbs.mc16_13TeV.361640.MGPy8EG_A14NNPDF23LO_Ztautau_lowMll_Np2.HIGG4D2.17InvCRBulb1Norm_CxAOD.root.txt son idénticos


this is the missing files between the files
_____________________________________________________________________________________
 
 
The path running is:  /eos/atlas/atlascerngroupdisk/phys-hdbs/diHiggs/bbtautau/lephad/Bulbasaur/InvCR/DATA17/Ztt_Madgraph/group.phys-hdbs.mc16_13TeV.361641.MGPy8EG_A14NNPDF23LO_Ztautau_lowMll_Np3.HIGG4D2.17InvCRBulb1Norm_CxAOD.root
 
Retain the part of the path after the last slash is: 
group.phys-hdbs.mc16_13TeV.361641.MGPy8EG_A14NNPDF23LO_Ztautau_lowMll_Np3.HIGG4D2.17InvCRBulb1Norm_CxAOD.root
 
This is the retrieve information from rucio 
 
group.phys-hdbs.24568221._000001.CxAOD.root
 
This is the content of the folder: 
 
group.phys-hdbs.24568221._000001.CxAOD.root
 
aqui va el match with diff: 
 
Los ficheros FromRucio_group.phys-hdbs.mc16_13TeV.361641.MGPy8EG_A14NNPDF23LO_Ztautau_lowMll_Np3.HIGG4D2.17InvCRBulb1Norm_CxAOD.root.txt y FromFolder_group.phys-hdbs.mc16_13TeV.361641.MGPy8EG_A14NNPDF23LO_Ztautau_lowMll_Np3.HIGG4D2.17InvCRBulb1Norm_CxAOD.root.txt son idénticos


this is the missing files between the files
_____________________________________________________________________________________
 
 
The path running is:  /eos/atlas/atlascerngroupdisk/phys-hdbs/diHiggs/bbtautau/lephad/Bulbasaur/InvCR/DATA17/Ztt_Madgraph/group.phys-hdbs.mc16_13TeV.361642.MGPy8EG_A14NNPDF23LO_Ztautau_lowMll_Np4.HIGG4D2.17InvCRBulb1Norm_CxAOD.root
 
Retain the part of the path after the last slash is: 
group.phys-hdbs.mc16_13TeV.361642.MGPy8EG_A14NNPDF23LO_Ztautau_lowMll_Np4.HIGG4D2.17InvCRBulb1Norm_CxAOD.root
 
This is the retrieve information from rucio 
 
group.phys-hdbs.24568222._000001.CxAOD.root
 
This is the content of the folder: 
 
group.phys-hdbs.24568222._000001.CxAOD.root
 
aqui va el match with diff: 
 
Los ficheros FromRucio_group.phys-hdbs.mc16_13TeV.361642.MGPy8EG_A14NNPDF23LO_Ztautau_lowMll_Np4.HIGG4D2.17InvCRBulb1Norm_CxAOD.root.txt y FromFolder_group.phys-hdbs.mc16_13TeV.361642.MGPy8EG_A14NNPDF23LO_Ztautau_lowMll_Np4.HIGG4D2.17InvCRBulb1Norm_CxAOD.root.txt son idénticos


this is the missing files between the files
_____________________________________________________________________________________
 
 
The path running is:  /eos/atlas/atlascerngroupdisk/phys-hdbs/diHiggs/bbtautau/lephad/Bulbasaur/InvCR/DATA18/Ztautau/group.phys-hdbs.mc16_13TeV.364140.Sh_221_NNPDF30NNLO_Ztautau_MAXHTPTV500_1000.HIGG4D2.18InvCRBulb1Norm_CxAOD.root
 
Retain the part of the path after the last slash is: 
group.phys-hdbs.mc16_13TeV.364140.Sh_221_NNPDF30NNLO_Ztautau_MAXHTPTV500_1000.HIGG4D2.18InvCRBulb1Norm_CxAOD.root
 
This is the retrieve information from rucio 
 
group.phys-hdbs.24568665._000002.CxAOD.root
group.phys-hdbs.24568665._000001.CxAOD.root
 
This is the content of the folder: 
 
group.phys-hdbs.24568665._000001.CxAOD.root
group.phys-hdbs.24568665._000002.CxAOD.root
 
aqui va el match with diff: 
 
Los ficheros FromRucio_group.phys-hdbs.mc16_13TeV.364140.Sh_221_NNPDF30NNLO_Ztautau_MAXHTPTV500_1000.HIGG4D2.18InvCRBulb1Norm_CxAOD.root.txt y FromFolder_group.phys-hdbs.mc16_13TeV.364140.Sh_221_NNPDF30NNLO_Ztautau_MAXHTPTV500_1000.HIGG4D2.18InvCRBulb1Norm_CxAOD.root.txt son idénticos


this is the missing files between the files
_____________________________________________________________________________________
 
 
The path running is:  /eos/atlas/atlascerngroupdisk/phys-hdbs/diHiggs/bbtautau/lephad/Bulbasaur/InvCR/DATA18/Ztautau/group.phys-hdbs.mc16_13TeV.364141.Sh_221_NNPDF30NNLO_Ztautau_MAXHTPTV1000_E_CMS.HIGG4D2.18InvCRBulb1Norm_CxAOD.root
 
Retain the part of the path after the last slash is: 
group.phys-hdbs.mc16_13TeV.364141.Sh_221_NNPDF30NNLO_Ztautau_MAXHTPTV1000_E_CMS.HIGG4D2.18InvCRBulb1Norm_CxAOD.root
 
This is the retrieve information from rucio 
 
group.phys-hdbs.24568666._000002.CxAOD.root
group.phys-hdbs.24568666._000001.CxAOD.root
 
This is the content of the folder: 
 
group.phys-hdbs.24568666._000001.CxAOD.root
group.phys-hdbs.24568666._000002.CxAOD.root
 
aqui va el match with diff: 
 
Los ficheros FromRucio_group.phys-hdbs.mc16_13TeV.364141.Sh_221_NNPDF30NNLO_Ztautau_MAXHTPTV1000_E_CMS.HIGG4D2.18InvCRBulb1Norm_CxAOD.root.txt y FromFolder_group.phys-hdbs.mc16_13TeV.364141.Sh_221_NNPDF30NNLO_Ztautau_MAXHTPTV1000_E_CMS.HIGG4D2.18InvCRBulb1Norm_CxAOD.root.txt son idénticos


this is the missing files between the files
_____________________________________________________________________________________
 
 
The path running is:  /eos/atlas/atlascerngroupdisk/phys-hdbs/diHiggs/bbtautau/lephad/Bulbasaur/InvCR/DATA18/ZtautauB/group.phys-hdbs.mc16_13TeV.364130.Sh_221_NNPDF30NNLO_Ztautau_MAXHTPTV0_70_BFilter.HIGG4D2.18InvCRBulb1Norm_CxAOD.root
 
Retain the part of the path after the last slash is: 
group.phys-hdbs.mc16_13TeV.364130.Sh_221_NNPDF30NNLO_Ztautau_MAXHTPTV0_70_BFilter.HIGG4D2.18InvCRBulb1Norm_CxAOD.root
 
This is the retrieve information from rucio 
 
group.phys-hdbs.24568655._000002.CxAOD.root
group.phys-hdbs.24568655._000001.CxAOD.root
 
This is the content of the folder: 
 
group.phys-hdbs.24568655._000001.CxAOD.root
group.phys-hdbs.24568655._000002.CxAOD.root
 
aqui va el match with diff: 
 
Los ficheros FromRucio_group.phys-hdbs.mc16_13TeV.364130.Sh_221_NNPDF30NNLO_Ztautau_MAXHTPTV0_70_BFilter.HIGG4D2.18InvCRBulb1Norm_CxAOD.root.txt y FromFolder_group.phys-hdbs.mc16_13TeV.364130.Sh_221_NNPDF30NNLO_Ztautau_MAXHTPTV0_70_BFilter.HIGG4D2.18InvCRBulb1Norm_CxAOD.root.txt son idénticos


this is the missing files between the files
_____________________________________________________________________________________
 
 
The path running is:  /eos/atlas/atlascerngroupdisk/phys-hdbs/diHiggs/bbtautau/lephad/Bulbasaur/InvCR/DATA18/ZtautauB/group.phys-hdbs.mc16_13TeV.364133.Sh_221_NNPDF30NNLO_Ztautau_MAXHTPTV70_140_BFilter.HIGG4D2.18InvCRBulb1Norm_CxAOD.root
 
Retain the part of the path after the last slash is: 
group.phys-hdbs.mc16_13TeV.364133.Sh_221_NNPDF30NNLO_Ztautau_MAXHTPTV70_140_BFilter.HIGG4D2.18InvCRBulb1Norm_CxAOD.root
 
This is the retrieve information from rucio 
 
group.phys-hdbs.24568658._000003.CxAOD.root
group.phys-hdbs.24568658._000002.CxAOD.root
group.phys-hdbs.24568658._000001.CxAOD.root
 
This is the content of the folder: 
 
group.phys-hdbs.24568658._000001.CxAOD.root
group.phys-hdbs.24568658._000002.CxAOD.root
group.phys-hdbs.24568658._000003.CxAOD.root
 
aqui va el match with diff: 
 
Los ficheros FromRucio_group.phys-hdbs.mc16_13TeV.364133.Sh_221_NNPDF30NNLO_Ztautau_MAXHTPTV70_140_BFilter.HIGG4D2.18InvCRBulb1Norm_CxAOD.root.txt y FromFolder_group.phys-hdbs.mc16_13TeV.364133.Sh_221_NNPDF30NNLO_Ztautau_MAXHTPTV70_140_BFilter.HIGG4D2.18InvCRBulb1Norm_CxAOD.root.txt son idénticos


this is the missing files between the files
_____________________________________________________________________________________
 
 
The path running is:  /eos/atlas/atlascerngroupdisk/phys-hdbs/diHiggs/bbtautau/lephad/Bulbasaur/InvCR/DATA18/ZtautauB/group.phys-hdbs.mc16_13TeV.364136.Sh_221_NNPDF30NNLO_Ztautau_MAXHTPTV140_280_BFilter.HIGG4D2.18InvCRBulb1Norm_CxAOD.root
 
Retain the part of the path after the last slash is: 
group.phys-hdbs.mc16_13TeV.364136.Sh_221_NNPDF30NNLO_Ztautau_MAXHTPTV140_280_BFilter.HIGG4D2.18InvCRBulb1Norm_CxAOD.root
 
This is the retrieve information from rucio 
 
group.phys-hdbs.24568661._000003.CxAOD.root
group.phys-hdbs.24568661._000004.CxAOD.root
group.phys-hdbs.24568661._000002.CxAOD.root
group.phys-hdbs.24568661._000001.CxAOD.root
 
This is the content of the folder: 
 
group.phys-hdbs.24568661._000001.CxAOD.root
group.phys-hdbs.24568661._000002.CxAOD.root
group.phys-hdbs.24568661._000003.CxAOD.root
group.phys-hdbs.24568661._000004.CxAOD.root
 
aqui va el match with diff: 
 
Los ficheros FromRucio_group.phys-hdbs.mc16_13TeV.364136.Sh_221_NNPDF30NNLO_Ztautau_MAXHTPTV140_280_BFilter.HIGG4D2.18InvCRBulb1Norm_CxAOD.root.txt y FromFolder_group.phys-hdbs.mc16_13TeV.364136.Sh_221_NNPDF30NNLO_Ztautau_MAXHTPTV140_280_BFilter.HIGG4D2.18InvCRBulb1Norm_CxAOD.root.txt son idénticos


this is the missing files between the files
_____________________________________________________________________________________
 
 
The path running is:  /eos/atlas/atlascerngroupdisk/phys-hdbs/diHiggs/bbtautau/lephad/Bulbasaur/InvCR/DATA18/ZtautauB/group.phys-hdbs.mc16_13TeV.364139.Sh_221_NNPDF30NNLO_Ztautau_MAXHTPTV280_500_BFilter.HIGG4D2.18InvCRBulb1Norm_CxAOD.root
 
Retain the part of the path after the last slash is: 
group.phys-hdbs.mc16_13TeV.364139.Sh_221_NNPDF30NNLO_Ztautau_MAXHTPTV280_500_BFilter.HIGG4D2.18InvCRBulb1Norm_CxAOD.root
 
This is the retrieve information from rucio 
 
group.phys-hdbs.24568664._000003.CxAOD.root
group.phys-hdbs.24568664._000001.CxAOD.root
 
This is the content of the folder: 
 
group.phys-hdbs.24568664._000001.CxAOD.root
group.phys-hdbs.24568664._000003.CxAOD.root
 
aqui va el match with diff: 
 
Los ficheros FromRucio_group.phys-hdbs.mc16_13TeV.364139.Sh_221_NNPDF30NNLO_Ztautau_MAXHTPTV280_500_BFilter.HIGG4D2.18InvCRBulb1Norm_CxAOD.root.txt y FromFolder_group.phys-hdbs.mc16_13TeV.364139.Sh_221_NNPDF30NNLO_Ztautau_MAXHTPTV280_500_BFilter.HIGG4D2.18InvCRBulb1Norm_CxAOD.root.txt son idénticos


this is the missing files between the files
_____________________________________________________________________________________
 
 
The path running is:  /eos/atlas/atlascerngroupdisk/phys-hdbs/diHiggs/bbtautau/lephad/Bulbasaur/InvCR/DATA18/ZtautauC/group.phys-hdbs.mc16_13TeV.364129.Sh_221_NNPDF30NNLO_Ztautau_MAXHTPTV0_70_CFilterBVeto.HIGG4D2.18InvCRBulb1Norm_CxAOD.root
 
Retain the part of the path after the last slash is: 
group.phys-hdbs.mc16_13TeV.364129.Sh_221_NNPDF30NNLO_Ztautau_MAXHTPTV0_70_CFilterBVeto.HIGG4D2.18InvCRBulb1Norm_CxAOD.root
 
This is the retrieve information from rucio 
 
group.phys-hdbs.24568654._000002.CxAOD.root
group.phys-hdbs.24568654._000001.CxAOD.root
 
This is the content of the folder: 
 
group.phys-hdbs.24568654._000001.CxAOD.root
group.phys-hdbs.24568654._000002.CxAOD.root
 
aqui va el match with diff: 
 
Los ficheros FromRucio_group.phys-hdbs.mc16_13TeV.364129.Sh_221_NNPDF30NNLO_Ztautau_MAXHTPTV0_70_CFilterBVeto.HIGG4D2.18InvCRBulb1Norm_CxAOD.root.txt y FromFolder_group.phys-hdbs.mc16_13TeV.364129.Sh_221_NNPDF30NNLO_Ztautau_MAXHTPTV0_70_CFilterBVeto.HIGG4D2.18InvCRBulb1Norm_CxAOD.root.txt son idénticos


this is the missing files between the files
_____________________________________________________________________________________
 
 
The path running is:  /eos/atlas/atlascerngroupdisk/phys-hdbs/diHiggs/bbtautau/lephad/Bulbasaur/InvCR/DATA18/ZtautauC/group.phys-hdbs.mc16_13TeV.364132.Sh_221_NNPDF30NNLO_Ztautau_MAXHTPTV70_140_CFilterBVeto.HIGG4D2.18InvCRBulb1Norm_CxAOD.root
 
Retain the part of the path after the last slash is: 
group.phys-hdbs.mc16_13TeV.364132.Sh_221_NNPDF30NNLO_Ztautau_MAXHTPTV70_140_CFilterBVeto.HIGG4D2.18InvCRBulb1Norm_CxAOD.root
 
This is the retrieve information from rucio 
 
group.phys-hdbs.24568657._000003.CxAOD.root
group.phys-hdbs.24568657._000004.CxAOD.root
group.phys-hdbs.24568657._000005.CxAOD.root
group.phys-hdbs.24568657._000001.CxAOD.root
 
This is the content of the folder: 
 
group.phys-hdbs.24568657._000001.CxAOD.root
group.phys-hdbs.24568657._000003.CxAOD.root
group.phys-hdbs.24568657._000004.CxAOD.root
group.phys-hdbs.24568657._000005.CxAOD.root
 
aqui va el match with diff: 
 
Los ficheros FromRucio_group.phys-hdbs.mc16_13TeV.364132.Sh_221_NNPDF30NNLO_Ztautau_MAXHTPTV70_140_CFilterBVeto.HIGG4D2.18InvCRBulb1Norm_CxAOD.root.txt y FromFolder_group.phys-hdbs.mc16_13TeV.364132.Sh_221_NNPDF30NNLO_Ztautau_MAXHTPTV70_140_CFilterBVeto.HIGG4D2.18InvCRBulb1Norm_CxAOD.root.txt son idénticos


this is the missing files between the files
_____________________________________________________________________________________
 
 
The path running is:  /eos/atlas/atlascerngroupdisk/phys-hdbs/diHiggs/bbtautau/lephad/Bulbasaur/InvCR/DATA18/ZtautauC/group.phys-hdbs.mc16_13TeV.364135.Sh_221_NNPDF30NNLO_Ztautau_MAXHTPTV140_280_CFilterBVeto.HIGG4D2.18InvCRBulb1Norm_CxAOD.root
 
Retain the part of the path after the last slash is: 
group.phys-hdbs.mc16_13TeV.364135.Sh_221_NNPDF30NNLO_Ztautau_MAXHTPTV140_280_CFilterBVeto.HIGG4D2.18InvCRBulb1Norm_CxAOD.root
 
This is the retrieve information from rucio 
 
group.phys-hdbs.24568660._000002.CxAOD.root
group.phys-hdbs.24568660._000001.CxAOD.root
 
This is the content of the folder: 
 
group.phys-hdbs.24568660._000001.CxAOD.root
group.phys-hdbs.24568660._000002.CxAOD.root
 
aqui va el match with diff: 
 
Los ficheros FromRucio_group.phys-hdbs.mc16_13TeV.364135.Sh_221_NNPDF30NNLO_Ztautau_MAXHTPTV140_280_CFilterBVeto.HIGG4D2.18InvCRBulb1Norm_CxAOD.root.txt y FromFolder_group.phys-hdbs.mc16_13TeV.364135.Sh_221_NNPDF30NNLO_Ztautau_MAXHTPTV140_280_CFilterBVeto.HIGG4D2.18InvCRBulb1Norm_CxAOD.root.txt son idénticos


this is the missing files between the files
_____________________________________________________________________________________
 
 
The path running is:  /eos/atlas/atlascerngroupdisk/phys-hdbs/diHiggs/bbtautau/lephad/Bulbasaur/InvCR/DATA18/ZtautauC/group.phys-hdbs.mc16_13TeV.364138.Sh_221_NNPDF30NNLO_Ztautau_MAXHTPTV280_500_CFilterBVeto.HIGG4D2.18InvCRBulb1Norm_CxAOD.root
 
Retain the part of the path after the last slash is: 
group.phys-hdbs.mc16_13TeV.364138.Sh_221_NNPDF30NNLO_Ztautau_MAXHTPTV280_500_CFilterBVeto.HIGG4D2.18InvCRBulb1Norm_CxAOD.root
 
This is the retrieve information from rucio 
 
group.phys-hdbs.24568663._000002.CxAOD.root
group.phys-hdbs.24568663._000003.CxAOD.root
group.phys-hdbs.24568663._000001.CxAOD.root
 
This is the content of the folder: 
 
group.phys-hdbs.24568663._000001.CxAOD.root
group.phys-hdbs.24568663._000002.CxAOD.root
group.phys-hdbs.24568663._000003.CxAOD.root
 
aqui va el match with diff: 
 
Los ficheros FromRucio_group.phys-hdbs.mc16_13TeV.364138.Sh_221_NNPDF30NNLO_Ztautau_MAXHTPTV280_500_CFilterBVeto.HIGG4D2.18InvCRBulb1Norm_CxAOD.root.txt y FromFolder_group.phys-hdbs.mc16_13TeV.364138.Sh_221_NNPDF30NNLO_Ztautau_MAXHTPTV280_500_CFilterBVeto.HIGG4D2.18InvCRBulb1Norm_CxAOD.root.txt son idénticos


this is the missing files between the files
_____________________________________________________________________________________
 
 
The path running is:  /eos/atlas/atlascerngroupdisk/phys-hdbs/diHiggs/bbtautau/lephad/Bulbasaur/InvCR/DATA18/ZtautauL/group.phys-hdbs.mc16_13TeV.364128.Sh_221_NNPDF30NNLO_Ztautau_MAXHTPTV0_70_CVetoBVeto.HIGG4D2.18InvCRBulb1Norm_CxAOD.root
 
Retain the part of the path after the last slash is: 
group.phys-hdbs.mc16_13TeV.364128.Sh_221_NNPDF30NNLO_Ztautau_MAXHTPTV0_70_CVetoBVeto.HIGG4D2.18InvCRBulb1Norm_CxAOD.root
 
This is the retrieve information from rucio 
 
group.phys-hdbs.24568653._000002.CxAOD.root
group.phys-hdbs.24568653._000001.CxAOD.root
 
This is the content of the folder: 
 
group.phys-hdbs.24568653._000001.CxAOD.root
group.phys-hdbs.24568653._000002.CxAOD.root
 
aqui va el match with diff: 
 
Los ficheros FromRucio_group.phys-hdbs.mc16_13TeV.364128.Sh_221_NNPDF30NNLO_Ztautau_MAXHTPTV0_70_CVetoBVeto.HIGG4D2.18InvCRBulb1Norm_CxAOD.root.txt y FromFolder_group.phys-hdbs.mc16_13TeV.364128.Sh_221_NNPDF30NNLO_Ztautau_MAXHTPTV0_70_CVetoBVeto.HIGG4D2.18InvCRBulb1Norm_CxAOD.root.txt son idénticos


this is the missing files between the files
_____________________________________________________________________________________
 
 
The path running is:  /eos/atlas/atlascerngroupdisk/phys-hdbs/diHiggs/bbtautau/lephad/Bulbasaur/InvCR/DATA18/ZtautauL/group.phys-hdbs.mc16_13TeV.364131.Sh_221_NNPDF30NNLO_Ztautau_MAXHTPTV70_140_CVetoBVeto.HIGG4D2.18InvCRBulb1Norm_CxAOD.root
 
Retain the part of the path after the last slash is: 
group.phys-hdbs.mc16_13TeV.364131.Sh_221_NNPDF30NNLO_Ztautau_MAXHTPTV70_140_CVetoBVeto.HIGG4D2.18InvCRBulb1Norm_CxAOD.root
 
This is the retrieve information from rucio 
 
group.phys-hdbs.24568656._000003.CxAOD.root
group.phys-hdbs.24568656._000001.CxAOD.root
group.phys-hdbs.24568656._000002.CxAOD.root
 
This is the content of the folder: 
 
group.phys-hdbs.24568656._000001.CxAOD.root
group.phys-hdbs.24568656._000002.CxAOD.root
group.phys-hdbs.24568656._000003.CxAOD.root
 
aqui va el match with diff: 
 
Los ficheros FromRucio_group.phys-hdbs.mc16_13TeV.364131.Sh_221_NNPDF30NNLO_Ztautau_MAXHTPTV70_140_CVetoBVeto.HIGG4D2.18InvCRBulb1Norm_CxAOD.root.txt y FromFolder_group.phys-hdbs.mc16_13TeV.364131.Sh_221_NNPDF30NNLO_Ztautau_MAXHTPTV70_140_CVetoBVeto.HIGG4D2.18InvCRBulb1Norm_CxAOD.root.txt son idénticos


this is the missing files between the files
_____________________________________________________________________________________
 
 
The path running is:  /eos/atlas/atlascerngroupdisk/phys-hdbs/diHiggs/bbtautau/lephad/Bulbasaur/InvCR/DATA18/ZtautauL/group.phys-hdbs.mc16_13TeV.364134.Sh_221_NNPDF30NNLO_Ztautau_MAXHTPTV140_280_CVetoBVeto.HIGG4D2.18InvCRBulb1Norm_CxAOD.root
 
Retain the part of the path after the last slash is: 
group.phys-hdbs.mc16_13TeV.364134.Sh_221_NNPDF30NNLO_Ztautau_MAXHTPTV140_280_CVetoBVeto.HIGG4D2.18InvCRBulb1Norm_CxAOD.root
 
This is the retrieve information from rucio 
 
group.phys-hdbs.24568659._000003.CxAOD.root
group.phys-hdbs.24568659._000002.CxAOD.root
group.phys-hdbs.24568659._000001.CxAOD.root
 
This is the content of the folder: 
 
group.phys-hdbs.24568659._000001.CxAOD.root
group.phys-hdbs.24568659._000002.CxAOD.root
group.phys-hdbs.24568659._000003.CxAOD.root
 
aqui va el match with diff: 
 
Los ficheros FromRucio_group.phys-hdbs.mc16_13TeV.364134.Sh_221_NNPDF30NNLO_Ztautau_MAXHTPTV140_280_CVetoBVeto.HIGG4D2.18InvCRBulb1Norm_CxAOD.root.txt y FromFolder_group.phys-hdbs.mc16_13TeV.364134.Sh_221_NNPDF30NNLO_Ztautau_MAXHTPTV140_280_CVetoBVeto.HIGG4D2.18InvCRBulb1Norm_CxAOD.root.txt son idénticos


this is the missing files between the files
_____________________________________________________________________________________
 
 
The path running is:  /eos/atlas/atlascerngroupdisk/phys-hdbs/diHiggs/bbtautau/lephad/Bulbasaur/InvCR/DATA18/ZtautauL/group.phys-hdbs.mc16_13TeV.364137.Sh_221_NNPDF30NNLO_Ztautau_MAXHTPTV280_500_CVetoBVeto.HIGG4D2.18InvCRBulb1Norm_CxAOD.root
 
Retain the part of the path after the last slash is: 
group.phys-hdbs.mc16_13TeV.364137.Sh_221_NNPDF30NNLO_Ztautau_MAXHTPTV280_500_CVetoBVeto.HIGG4D2.18InvCRBulb1Norm_CxAOD.root
 
This is the retrieve information from rucio 
 
group.phys-hdbs.24568662._000005.CxAOD.root
group.phys-hdbs.24568662._000004.CxAOD.root
group.phys-hdbs.24568662._000002.CxAOD.root
group.phys-hdbs.24568662._000003.CxAOD.root
group.phys-hdbs.24568662._000001.CxAOD.root
 
This is the content of the folder: 
 
group.phys-hdbs.24568662._000001.CxAOD.root
group.phys-hdbs.24568662._000002.CxAOD.root
group.phys-hdbs.24568662._000003.CxAOD.root
group.phys-hdbs.24568662._000004.CxAOD.root
group.phys-hdbs.24568662._000005.CxAOD.root
 
aqui va el match with diff: 
 
Los ficheros FromRucio_group.phys-hdbs.mc16_13TeV.364137.Sh_221_NNPDF30NNLO_Ztautau_MAXHTPTV280_500_CVetoBVeto.HIGG4D2.18InvCRBulb1Norm_CxAOD.root.txt y FromFolder_group.phys-hdbs.mc16_13TeV.364137.Sh_221_NNPDF30NNLO_Ztautau_MAXHTPTV280_500_CVetoBVeto.HIGG4D2.18InvCRBulb1Norm_CxAOD.root.txt son idénticos


this is the missing files between the files
_____________________________________________________________________________________
 
 
The path running is:  /eos/atlas/atlascerngroupdisk/phys-hdbs/diHiggs/bbtautau/lephad/Bulbasaur/InvCR/DATA18/Ztt_Madgraph/group.phys-hdbs.mc16_13TeV.361510.MGPy8EG_A14NNPDF23LO_Ztautau_Np0.HIGG4D2.18InvCRBulb1Norm_CxAOD.root
 
Retain the part of the path after the last slash is: 
group.phys-hdbs.mc16_13TeV.361510.MGPy8EG_A14NNPDF23LO_Ztautau_Np0.HIGG4D2.18InvCRBulb1Norm_CxAOD.root
 
This is the retrieve information from rucio 
 
group.phys-hdbs.24568781._000002.CxAOD.root
group.phys-hdbs.24568781._000001.CxAOD.root
 
This is the content of the folder: 
 
group.phys-hdbs.24568781._000001.CxAOD.root
group.phys-hdbs.24568781._000002.CxAOD.root
 
aqui va el match with diff: 
 
Los ficheros FromRucio_group.phys-hdbs.mc16_13TeV.361510.MGPy8EG_A14NNPDF23LO_Ztautau_Np0.HIGG4D2.18InvCRBulb1Norm_CxAOD.root.txt y FromFolder_group.phys-hdbs.mc16_13TeV.361510.MGPy8EG_A14NNPDF23LO_Ztautau_Np0.HIGG4D2.18InvCRBulb1Norm_CxAOD.root.txt son idénticos


this is the missing files between the files
_____________________________________________________________________________________
 
 
The path running is:  /eos/atlas/atlascerngroupdisk/phys-hdbs/diHiggs/bbtautau/lephad/Bulbasaur/InvCR/DATA18/Ztt_Madgraph/group.phys-hdbs.mc16_13TeV.361511.MGPy8EG_A14NNPDF23LO_Ztautau_Np1.HIGG4D2.18InvCRBulb1Norm_CxAOD.root
 
Retain the part of the path after the last slash is: 
group.phys-hdbs.mc16_13TeV.361511.MGPy8EG_A14NNPDF23LO_Ztautau_Np1.HIGG4D2.18InvCRBulb1Norm_CxAOD.root
 
This is the retrieve information from rucio 
 
group.phys-hdbs.24568782._000002.CxAOD.root
group.phys-hdbs.24568782._000001.CxAOD.root
 
This is the content of the folder: 
 
group.phys-hdbs.24568782._000001.CxAOD.root
group.phys-hdbs.24568782._000002.CxAOD.root
 
aqui va el match with diff: 
 
Los ficheros FromRucio_group.phys-hdbs.mc16_13TeV.361511.MGPy8EG_A14NNPDF23LO_Ztautau_Np1.HIGG4D2.18InvCRBulb1Norm_CxAOD.root.txt y FromFolder_group.phys-hdbs.mc16_13TeV.361511.MGPy8EG_A14NNPDF23LO_Ztautau_Np1.HIGG4D2.18InvCRBulb1Norm_CxAOD.root.txt son idénticos


this is the missing files between the files
_____________________________________________________________________________________
 
 
The path running is:  /eos/atlas/atlascerngroupdisk/phys-hdbs/diHiggs/bbtautau/lephad/Bulbasaur/InvCR/DATA18/Ztt_Madgraph/group.phys-hdbs.mc16_13TeV.361512.MGPy8EG_A14NNPDF23LO_Ztautau_Np2.HIGG4D2.18InvCRBulb1Norm_CxAOD.root
 
Retain the part of the path after the last slash is: 
group.phys-hdbs.mc16_13TeV.361512.MGPy8EG_A14NNPDF23LO_Ztautau_Np2.HIGG4D2.18InvCRBulb1Norm_CxAOD.root
 
This is the retrieve information from rucio 
 
group.phys-hdbs.24568783._000002.CxAOD.root
group.phys-hdbs.24568783._000001.CxAOD.root
 
This is the content of the folder: 
 
group.phys-hdbs.24568783._000001.CxAOD.root
group.phys-hdbs.24568783._000002.CxAOD.root
 
aqui va el match with diff: 
 
Los ficheros FromRucio_group.phys-hdbs.mc16_13TeV.361512.MGPy8EG_A14NNPDF23LO_Ztautau_Np2.HIGG4D2.18InvCRBulb1Norm_CxAOD.root.txt y FromFolder_group.phys-hdbs.mc16_13TeV.361512.MGPy8EG_A14NNPDF23LO_Ztautau_Np2.HIGG4D2.18InvCRBulb1Norm_CxAOD.root.txt son idénticos


this is the missing files between the files
_____________________________________________________________________________________
 
 
The path running is:  /eos/atlas/atlascerngroupdisk/phys-hdbs/diHiggs/bbtautau/lephad/Bulbasaur/InvCR/DATA18/Ztt_Madgraph/group.phys-hdbs.mc16_13TeV.361513.MGPy8EG_A14NNPDF23LO_Ztautau_Np3.HIGG4D2.18InvCRBulb1Norm_CxAOD.root
 
Retain the part of the path after the last slash is: 
group.phys-hdbs.mc16_13TeV.361513.MGPy8EG_A14NNPDF23LO_Ztautau_Np3.HIGG4D2.18InvCRBulb1Norm_CxAOD.root
 
This is the retrieve information from rucio 
 
group.phys-hdbs.24568784._000001.CxAOD.root
 
This is the content of the folder: 
 
group.phys-hdbs.24568784._000001.CxAOD.root
 
aqui va el match with diff: 
 
Los ficheros FromRucio_group.phys-hdbs.mc16_13TeV.361513.MGPy8EG_A14NNPDF23LO_Ztautau_Np3.HIGG4D2.18InvCRBulb1Norm_CxAOD.root.txt y FromFolder_group.phys-hdbs.mc16_13TeV.361513.MGPy8EG_A14NNPDF23LO_Ztautau_Np3.HIGG4D2.18InvCRBulb1Norm_CxAOD.root.txt son idénticos


this is the missing files between the files
_____________________________________________________________________________________
 
 
The path running is:  /eos/atlas/atlascerngroupdisk/phys-hdbs/diHiggs/bbtautau/lephad/Bulbasaur/InvCR/DATA18/Ztt_Madgraph/group.phys-hdbs.mc16_13TeV.361638.MGPy8EG_A14NNPDF23LO_Ztautau_lowMll_Np0.HIGG4D2.18InvCRBulb1Norm_CxAOD.root
 
Retain the part of the path after the last slash is: 
group.phys-hdbs.mc16_13TeV.361638.MGPy8EG_A14NNPDF23LO_Ztautau_lowMll_Np0.HIGG4D2.18InvCRBulb1Norm_CxAOD.root
 
This is the retrieve information from rucio 
 
group.phys-hdbs.24568785._000001.CxAOD.root
 
This is the content of the folder: 
 
group.phys-hdbs.24568785._000001.CxAOD.root
 
aqui va el match with diff: 
 
Los ficheros FromRucio_group.phys-hdbs.mc16_13TeV.361638.MGPy8EG_A14NNPDF23LO_Ztautau_lowMll_Np0.HIGG4D2.18InvCRBulb1Norm_CxAOD.root.txt y FromFolder_group.phys-hdbs.mc16_13TeV.361638.MGPy8EG_A14NNPDF23LO_Ztautau_lowMll_Np0.HIGG4D2.18InvCRBulb1Norm_CxAOD.root.txt son idénticos


this is the missing files between the files
_____________________________________________________________________________________
 
 
The path running is:  /eos/atlas/atlascerngroupdisk/phys-hdbs/diHiggs/bbtautau/lephad/Bulbasaur/InvCR/DATA18/Ztt_Madgraph/group.phys-hdbs.mc16_13TeV.361640.MGPy8EG_A14NNPDF23LO_Ztautau_lowMll_Np2.HIGG4D2.18InvCRBulb1Norm_CxAOD.root
 
Retain the part of the path after the last slash is: 
group.phys-hdbs.mc16_13TeV.361640.MGPy8EG_A14NNPDF23LO_Ztautau_lowMll_Np2.HIGG4D2.18InvCRBulb1Norm_CxAOD.root
 
This is the retrieve information from rucio 
 
group.phys-hdbs.24568786._000001.CxAOD.root
 
This is the content of the folder: 
 
group.phys-hdbs.24568786._000001.CxAOD.root
 
aqui va el match with diff: 
 
Los ficheros FromRucio_group.phys-hdbs.mc16_13TeV.361640.MGPy8EG_A14NNPDF23LO_Ztautau_lowMll_Np2.HIGG4D2.18InvCRBulb1Norm_CxAOD.root.txt y FromFolder_group.phys-hdbs.mc16_13TeV.361640.MGPy8EG_A14NNPDF23LO_Ztautau_lowMll_Np2.HIGG4D2.18InvCRBulb1Norm_CxAOD.root.txt son idénticos


this is the missing files between the files
_____________________________________________________________________________________
 
 
The path running is:  /eos/atlas/atlascerngroupdisk/phys-hdbs/diHiggs/bbtautau/lephad/Bulbasaur/InvCR/DATA18/Ztt_Madgraph/group.phys-hdbs.mc16_13TeV.361641.MGPy8EG_A14NNPDF23LO_Ztautau_lowMll_Np3.HIGG4D2.18InvCRBulb1Norm_CxAOD.root
 
Retain the part of the path after the last slash is: 
group.phys-hdbs.mc16_13TeV.361641.MGPy8EG_A14NNPDF23LO_Ztautau_lowMll_Np3.HIGG4D2.18InvCRBulb1Norm_CxAOD.root
 
This is the retrieve information from rucio 
 
group.phys-hdbs.24568787._000001.CxAOD.root
 
This is the content of the folder: 
 
group.phys-hdbs.24568787._000001.CxAOD.root
 
aqui va el match with diff: 
 
Los ficheros FromRucio_group.phys-hdbs.mc16_13TeV.361641.MGPy8EG_A14NNPDF23LO_Ztautau_lowMll_Np3.HIGG4D2.18InvCRBulb1Norm_CxAOD.root.txt y FromFolder_group.phys-hdbs.mc16_13TeV.361641.MGPy8EG_A14NNPDF23LO_Ztautau_lowMll_Np3.HIGG4D2.18InvCRBulb1Norm_CxAOD.root.txt son idénticos


this is the missing files between the files
_____________________________________________________________________________________
 
