group.phys-hdbs.30344961._000001.CxAOD.root
group.phys-hdbs.30344961._000002.CxAOD.root
group.phys-hdbs.30344961._000003.CxAOD.root
group.phys-hdbs.30344961._000004.CxAOD.root
group.phys-hdbs.30344961._000005.CxAOD.root
