group.phys-hdbs.24394291._000001.CxAOD.root
group.phys-hdbs.24394291._000002.CxAOD.root
group.phys-hdbs.24394291._000003.CxAOD.root
group.phys-hdbs.24394291._000004.CxAOD.root
group.phys-hdbs.24394291._000007.CxAOD.root
group.phys-hdbs.24394291._000008.CxAOD.root
group.phys-hdbs.24394291._000009.CxAOD.root
group.phys-hdbs.24394291._000010.CxAOD.root
