group.phys-hdbs.24405556._000001.CxAOD.root
group.phys-hdbs.24405556._000002.CxAOD.root
group.phys-hdbs.24405556._000003.CxAOD.root
group.phys-hdbs.24405556._000004.CxAOD.root
group.phys-hdbs.24405556._000005.CxAOD.root
