user.yanlin.24407434._000001.CxAOD.root
user.yanlin.24407434._000002.CxAOD.root
user.yanlin.24407434._000003.CxAOD.root
user.yanlin.24407434._000004.CxAOD.root
user.yanlin.24407434._000005.CxAOD.root
