group.phys-hdbs.28383618._000001.CxAOD.root
group.phys-hdbs.28383618._000002.CxAOD.root
group.phys-hdbs.28383618._000003.CxAOD.root
group.phys-hdbs.28383618._000004.CxAOD.root
group.phys-hdbs.28383618._000005.CxAOD.root
group.phys-hdbs.28383618._000006.CxAOD.root
