group.phys-hdbs.30345807._000001.CxAOD.root
group.phys-hdbs.30345807._000002.CxAOD.root
group.phys-hdbs.30345807._000003.CxAOD.root
group.phys-hdbs.30345807._000004.CxAOD.root
group.phys-hdbs.30345807._000005.CxAOD.root
group.phys-hdbs.30345807._000009.CxAOD.root
group.phys-hdbs.30345807._000011.CxAOD.root
group.phys-hdbs.30345807._000034.CxAOD.root
group.phys-hdbs.30345807._000035.CxAOD.root
group.phys-hdbs.30345807._000036.CxAOD.root
group.phys-hdbs.30345807._000037.CxAOD.root
