group.phys-hdbs.28384375._000001.CxAOD.root
group.phys-hdbs.28384375._000004.CxAOD.root
group.phys-hdbs.28384375._000005.CxAOD.root
group.phys-hdbs.28384375._000006.CxAOD.root
group.phys-hdbs.28384375._000007.CxAOD.root
group.phys-hdbs.28384375._000008.CxAOD.root
group.phys-hdbs.28384375._000009.CxAOD.root
