group.phys-hdbs.24393862._000002.CxAOD.root
group.phys-hdbs.24393862._000003.CxAOD.root
group.phys-hdbs.24393862._000004.CxAOD.root
group.phys-hdbs.24393862._000005.CxAOD.root
group.phys-hdbs.24393862._000006.CxAOD.root
group.phys-hdbs.24393862._000007.CxAOD.root
group.phys-hdbs.24393862._000008.CxAOD.root
