user.yanlin.24422241._000001.CxAOD.root
user.yanlin.24422241._000002.CxAOD.root
user.yanlin.24422241._000003.CxAOD.root
user.yanlin.24422241._000004.CxAOD.root
user.yanlin.24422241._000005.CxAOD.root
