group.phys-hdbs.28392474._000001.CxAOD.root
group.phys-hdbs.28392474._000002.CxAOD.root
group.phys-hdbs.28392474._000003.CxAOD.root
group.phys-hdbs.28392474._000004.CxAOD.root
group.phys-hdbs.28392474._000005.CxAOD.root
