group.phys-hdbs.28393297._000002.CxAOD.root
group.phys-hdbs.28393297._000003.CxAOD.root
group.phys-hdbs.28393297._000004.CxAOD.root
group.phys-hdbs.28393297._000005.CxAOD.root
group.phys-hdbs.28393297._000006.CxAOD.root
