group.phys-hdbs.30345415._000007.CxAOD.root
group.phys-hdbs.30345415._000003.CxAOD.root
group.phys-hdbs.30345415._000004.CxAOD.root
group.phys-hdbs.30345415._000005.CxAOD.root
group.phys-hdbs.30345415._000006.CxAOD.root
group.phys-hdbs.30345415._000002.CxAOD.root
group.phys-hdbs.30345415._000001.CxAOD.root
