group.phys-hdbs.24396271._000007.CxAOD.root
group.phys-hdbs.24396271._000004.CxAOD.root
group.phys-hdbs.24396271._000005.CxAOD.root
group.phys-hdbs.24396271._000006.CxAOD.root
group.phys-hdbs.24396271._000003.CxAOD.root
group.phys-hdbs.24396271._000002.CxAOD.root
group.phys-hdbs.24396271._000001.CxAOD.root
