group.phys-hdbs.28395580._000005.CxAOD.root
group.phys-hdbs.28395580._000003.CxAOD.root
group.phys-hdbs.28395580._000004.CxAOD.root
group.phys-hdbs.28395580._000002.CxAOD.root
group.phys-hdbs.28395580._000001.CxAOD.root
