group.phys-hdbs.30345546._000021.CxAOD.root
group.phys-hdbs.30345546._000011.CxAOD.root
group.phys-hdbs.30345546._000012.CxAOD.root
group.phys-hdbs.30345546._000013.CxAOD.root
group.phys-hdbs.30345546._000016.CxAOD.root
group.phys-hdbs.30345546._000018.CxAOD.root
group.phys-hdbs.30345546._000019.CxAOD.root
group.phys-hdbs.30345546._000007.CxAOD.root
group.phys-hdbs.30345546._000015.CxAOD.root
group.phys-hdbs.30345546._000017.CxAOD.root
group.phys-hdbs.30345546._000020.CxAOD.root
group.phys-hdbs.30345546._000014.CxAOD.root
group.phys-hdbs.30345546._000001.CxAOD.root
