group.phys-hdbs.30345829._000009.CxAOD.root
group.phys-hdbs.30345829._000008.CxAOD.root
group.phys-hdbs.30345829._000007.CxAOD.root
group.phys-hdbs.30345829._000006.CxAOD.root
group.phys-hdbs.30345829._000003.CxAOD.root
group.phys-hdbs.30345829._000001.CxAOD.root
group.phys-hdbs.30345829._000002.CxAOD.root
