group.phys-hdbs.24404933._000004.CxAOD.root
group.phys-hdbs.24404933._000003.CxAOD.root
group.phys-hdbs.24404933._000005.CxAOD.root
group.phys-hdbs.24404933._000001.CxAOD.root
group.phys-hdbs.24404933._000002.CxAOD.root
