group.phys-hdbs.30345743._000088.CxAOD.root
group.phys-hdbs.30345743._000089.CxAOD.root
group.phys-hdbs.30345743._000086.CxAOD.root
group.phys-hdbs.30345743._000087.CxAOD.root
group.phys-hdbs.30345743._000083.CxAOD.root
group.phys-hdbs.30345743._000084.CxAOD.root
group.phys-hdbs.30345743._000082.CxAOD.root
group.phys-hdbs.30345743._000081.CxAOD.root
group.phys-hdbs.30345743._000080.CxAOD.root
group.phys-hdbs.30345743._000003.CxAOD.root
group.phys-hdbs.30345743._000004.CxAOD.root
group.phys-hdbs.30345743._000002.CxAOD.root
group.phys-hdbs.30345743._000001.CxAOD.root
