group.phys-hdbs.30345855._000274.CxAOD.root
group.phys-hdbs.30345855._000275.CxAOD.root
group.phys-hdbs.30345855._000276.CxAOD.root
group.phys-hdbs.30345855._000277.CxAOD.root
group.phys-hdbs.30345855._000196.CxAOD.root
group.phys-hdbs.30345855._000272.CxAOD.root
group.phys-hdbs.30345855._000273.CxAOD.root
group.phys-hdbs.30345855._000120.CxAOD.root
group.phys-hdbs.30345855._000001.CxAOD.root
