group.phys-hdbs.30345481._000006.CxAOD.root
group.phys-hdbs.30345481._000007.CxAOD.root
group.phys-hdbs.30345481._000008.CxAOD.root
group.phys-hdbs.30345481._000009.CxAOD.root
group.phys-hdbs.30345481._000002.CxAOD.root
group.phys-hdbs.30345481._000001.CxAOD.root
group.phys-hdbs.30345481._000003.CxAOD.root
group.phys-hdbs.30345481._000004.CxAOD.root
group.phys-hdbs.30345481._000005.CxAOD.root
