group.phys-hdbs.29764503._000001.CxAOD.root
group.phys-hdbs.29764503._000002.CxAOD.root
group.phys-hdbs.29764503._000003.CxAOD.root
group.phys-hdbs.29764503._000004.CxAOD.root
group.phys-hdbs.29764503._000005.CxAOD.root
group.phys-hdbs.29764503._000006.CxAOD.root
group.phys-hdbs.29764503._000007.CxAOD.root
group.phys-hdbs.29764503._000008.CxAOD.root
group.phys-hdbs.29764503._000009.CxAOD.root
group.phys-hdbs.29764503._000010.CxAOD.root
group.phys-hdbs.29764503._000011.CxAOD.root
