group.phys-hdbs.24552242._000001.CxAOD.root
group.phys-hdbs.24552242._000002.CxAOD.root
group.phys-hdbs.24552242._000003.CxAOD.root
group.phys-hdbs.24552242._000004.CxAOD.root
group.phys-hdbs.24552242._000005.CxAOD.root
