group.phys-hdbs.24550750._000001.CxAOD.root
group.phys-hdbs.24550750._000003.CxAOD.root
group.phys-hdbs.24550750._000004.CxAOD.root
group.phys-hdbs.24550750._000005.CxAOD.root
group.phys-hdbs.24550750._000008.CxAOD.root
group.phys-hdbs.24550750._000009.CxAOD.root
group.phys-hdbs.24550750._000010.CxAOD.root
group.phys-hdbs.24550750._000011.CxAOD.root
