group.phys-hdbs.29766817._000001.CxAOD.root
group.phys-hdbs.29766817._000002.CxAOD.root
group.phys-hdbs.29766817._000003.CxAOD.root
group.phys-hdbs.29766817._000004.CxAOD.root
group.phys-hdbs.29766817._000005.CxAOD.root
group.phys-hdbs.29766817._000008.CxAOD.root
group.phys-hdbs.29766817._000009.CxAOD.root
group.phys-hdbs.29766817._000012.CxAOD.root
group.phys-hdbs.29766817._000013.CxAOD.root
group.phys-hdbs.29766817._000014.CxAOD.root
group.phys-hdbs.29766817._000015.CxAOD.root
group.phys-hdbs.29766817._000016.CxAOD.root
group.phys-hdbs.29766817._000017.CxAOD.root
group.phys-hdbs.29766817._000018.CxAOD.root
group.phys-hdbs.29766817._000019.CxAOD.root
group.phys-hdbs.29766817._000020.CxAOD.root
group.phys-hdbs.29766817._000021.CxAOD.root
group.phys-hdbs.29766817._000022.CxAOD.root
group.phys-hdbs.29766817._000023.CxAOD.root
group.phys-hdbs.29766817._000024.CxAOD.root
group.phys-hdbs.29766817._000025.CxAOD.root
group.phys-hdbs.29766817._000026.CxAOD.root
