group.phys-hdbs.24405432._000001.CxAOD.root
group.phys-hdbs.24405432._000002.CxAOD.root
group.phys-hdbs.24405432._000003.CxAOD.root
group.phys-hdbs.24405432._000004.CxAOD.root
group.phys-hdbs.24405432._000006.CxAOD.root
group.phys-hdbs.24405432._000009.CxAOD.root
