group.phys-hdbs.24405998._000001.CxAOD.root
group.phys-hdbs.24405998._000002.CxAOD.root
group.phys-hdbs.24405998._000003.CxAOD.root
group.phys-hdbs.24405998._000005.CxAOD.root
group.phys-hdbs.24405998._000006.CxAOD.root
group.phys-hdbs.24405998._000007.CxAOD.root
