group.phys-hdbs.24565619._000001.CxAOD.root
group.phys-hdbs.24565619._000002.CxAOD.root
group.phys-hdbs.24565619._000003.CxAOD.root
group.phys-hdbs.24565619._000004.CxAOD.root
group.phys-hdbs.24565619._000005.CxAOD.root
group.phys-hdbs.24565619._000006.CxAOD.root
group.phys-hdbs.24565619._000007.CxAOD.root
