group.phys-hdbs.24404836._000001.CxAOD.root
group.phys-hdbs.24404836._000002.CxAOD.root
group.phys-hdbs.24404836._000003.CxAOD.root
group.phys-hdbs.24404836._000004.CxAOD.root
group.phys-hdbs.24404836._000005.CxAOD.root
