group.phys-hdbs.24393799._000003.CxAOD.root
group.phys-hdbs.24393799._000004.CxAOD.root
group.phys-hdbs.24393799._000006.CxAOD.root
group.phys-hdbs.24393799._000008.CxAOD.root
group.phys-hdbs.24393799._000009.CxAOD.root
group.phys-hdbs.24393799._000010.CxAOD.root
group.phys-hdbs.24393799._000011.CxAOD.root
group.phys-hdbs.24393799._000013.CxAOD.root
group.phys-hdbs.24393799._000017.CxAOD.root
group.phys-hdbs.24393799._000019.CxAOD.root
group.phys-hdbs.24393799._000021.CxAOD.root
