group.phys-hdbs.24565620._000001.CxAOD.root
group.phys-hdbs.24565620._000002.CxAOD.root
group.phys-hdbs.24565620._000003.CxAOD.root
group.phys-hdbs.24565620._000004.CxAOD.root
group.phys-hdbs.24565620._000005.CxAOD.root
group.phys-hdbs.24565620._000006.CxAOD.root
