group.phys-hdbs.24550745._000001.CxAOD.root
group.phys-hdbs.24550745._000002.CxAOD.root
group.phys-hdbs.24550745._000004.CxAOD.root
group.phys-hdbs.24550745._000006.CxAOD.root
group.phys-hdbs.24550745._000007.CxAOD.root
