group.phys-hdbs.29764707._000001.CxAOD.root
group.phys-hdbs.29764707._000002.CxAOD.root
group.phys-hdbs.29764707._000003.CxAOD.root
group.phys-hdbs.29764707._000004.CxAOD.root
group.phys-hdbs.29764707._000005.CxAOD.root
group.phys-hdbs.29764707._000006.CxAOD.root
group.phys-hdbs.29764707._000007.CxAOD.root
group.phys-hdbs.29764707._000008.CxAOD.root
group.phys-hdbs.29764707._000009.CxAOD.root
group.phys-hdbs.29764707._000010.CxAOD.root
group.phys-hdbs.29764707._000011.CxAOD.root
group.phys-hdbs.29764707._000012.CxAOD.root
group.phys-hdbs.29764707._000013.CxAOD.root
group.phys-hdbs.29764707._000014.CxAOD.root
group.phys-hdbs.29764707._000015.CxAOD.root
group.phys-hdbs.29764707._000016.CxAOD.root
group.phys-hdbs.29764707._000017.CxAOD.root
group.phys-hdbs.29764707._000018.CxAOD.root
group.phys-hdbs.29764707._000019.CxAOD.root
group.phys-hdbs.29764707._000020.CxAOD.root
group.phys-hdbs.29764707._000021.CxAOD.root
group.phys-hdbs.29764707._000022.CxAOD.root
group.phys-hdbs.29764707._000023.CxAOD.root
group.phys-hdbs.29764707._000024.CxAOD.root
group.phys-hdbs.29764707._000025.CxAOD.root
group.phys-hdbs.29764707._000026.CxAOD.root
group.phys-hdbs.29764707._000027.CxAOD.root
group.phys-hdbs.29764707._000028.CxAOD.root
group.phys-hdbs.29764707._000029.CxAOD.root
