group.phys-hdbs.30803667._000001.CxAOD.root
group.phys-hdbs.30803667._000002.CxAOD.root
group.phys-hdbs.30803667._000003.CxAOD.root
group.phys-hdbs.30803667._000004.CxAOD.root
group.phys-hdbs.30803667._000005.CxAOD.root
group.phys-hdbs.30803667._000006.CxAOD.root
group.phys-hdbs.30803667._000007.CxAOD.root
group.phys-hdbs.30803667._000008.CxAOD.root
group.phys-hdbs.30803667._000009.CxAOD.root
group.phys-hdbs.30803667._000010.CxAOD.root
group.phys-hdbs.30803667._000011.CxAOD.root
group.phys-hdbs.30803667._000012.CxAOD.root
group.phys-hdbs.30803667._000013.CxAOD.root
group.phys-hdbs.30803667._000014.CxAOD.root
group.phys-hdbs.30803667._000015.CxAOD.root
group.phys-hdbs.30803667._000016.CxAOD.root
group.phys-hdbs.30803667._000017.CxAOD.root
group.phys-hdbs.30803667._000018.CxAOD.root
group.phys-hdbs.30803667._000019.CxAOD.root
group.phys-hdbs.30803667._000020.CxAOD.root
group.phys-hdbs.30803667._000021.CxAOD.root
group.phys-hdbs.30803667._000022.CxAOD.root
group.phys-hdbs.30803667._000023.CxAOD.root
group.phys-hdbs.30803667._000024.CxAOD.root
group.phys-hdbs.30803667._000025.CxAOD.root
group.phys-hdbs.30803667._000026.CxAOD.root
group.phys-hdbs.30803667._000027.CxAOD.root
group.phys-hdbs.30803667._000028.CxAOD.root
group.phys-hdbs.30803667._000029.CxAOD.root
group.phys-hdbs.30803667._000030.CxAOD.root
group.phys-hdbs.30803667._000031.CxAOD.root
group.phys-hdbs.30803667._000032.CxAOD.root
group.phys-hdbs.30803667._000033.CxAOD.root
group.phys-hdbs.30803667._000034.CxAOD.root
group.phys-hdbs.30803667._000035.CxAOD.root
group.phys-hdbs.30803667._000036.CxAOD.root
group.phys-hdbs.30803667._000037.CxAOD.root
group.phys-hdbs.30803667._000038.CxAOD.root
group.phys-hdbs.30803667._000039.CxAOD.root
group.phys-hdbs.30803667._000040.CxAOD.root
group.phys-hdbs.30803667._000041.CxAOD.root
group.phys-hdbs.30803667._000045.CxAOD.root
group.phys-hdbs.30803667._000046.CxAOD.root
group.phys-hdbs.30803667._000047.CxAOD.root
group.phys-hdbs.30803667._000048.CxAOD.root
group.phys-hdbs.30803667._000049.CxAOD.root
group.phys-hdbs.30803667._000050.CxAOD.root
group.phys-hdbs.30803667._000051.CxAOD.root
group.phys-hdbs.30803667._000052.CxAOD.root
group.phys-hdbs.30803667._000053.CxAOD.root
group.phys-hdbs.30803667._000054.CxAOD.root
