group.phys-hdbs.30796802._000006.CxAOD.root
group.phys-hdbs.30796802._000005.CxAOD.root
group.phys-hdbs.30796802._000003.CxAOD.root
group.phys-hdbs.30796802._000004.CxAOD.root
group.phys-hdbs.30796802._000001.CxAOD.root
group.phys-hdbs.30796802._000002.CxAOD.root
