group.phys-hdbs.24551661._000006.CxAOD.root
group.phys-hdbs.24551661._000007.CxAOD.root
group.phys-hdbs.24551661._000005.CxAOD.root
group.phys-hdbs.24551661._000008.CxAOD.root
group.phys-hdbs.24551661._000009.CxAOD.root
group.phys-hdbs.24551661._000002.CxAOD.root
group.phys-hdbs.24551661._000001.CxAOD.root
