group.phys-hdbs.24394187._000005.CxAOD.root
group.phys-hdbs.24394187._000003.CxAOD.root
group.phys-hdbs.24394187._000002.CxAOD.root
group.phys-hdbs.24394187._000001.CxAOD.root
group.phys-hdbs.24394187._000004.CxAOD.root
