group.phys-hdbs.24395795._000005.CxAOD.root
group.phys-hdbs.24395795._000004.CxAOD.root
group.phys-hdbs.24395795._000002.CxAOD.root
group.phys-hdbs.24395795._000003.CxAOD.root
group.phys-hdbs.24395795._000001.CxAOD.root
