group.phys-hdbs.24552250._000002.CxAOD.root
group.phys-hdbs.24552250._000003.CxAOD.root
group.phys-hdbs.24552250._000004.CxAOD.root
group.phys-hdbs.24552250._000005.CxAOD.root
group.phys-hdbs.24552250._000006.CxAOD.root
group.phys-hdbs.24552250._000001.CxAOD.root
