group.phys-hdbs.24394186._000004.CxAOD.root
group.phys-hdbs.24394186._000005.CxAOD.root
group.phys-hdbs.24394186._000001.CxAOD.root
group.phys-hdbs.24394186._000002.CxAOD.root
group.phys-hdbs.24394186._000003.CxAOD.root
