group.phys-hdbs.24568641._000005.CxAOD.root
group.phys-hdbs.24568641._000002.CxAOD.root
group.phys-hdbs.24568641._000003.CxAOD.root
group.phys-hdbs.24568641._000004.CxAOD.root
group.phys-hdbs.24568641._000001.CxAOD.root
