group.phys-hdbs.24394600._000007.CxAOD.root
group.phys-hdbs.24394600._000006.CxAOD.root
group.phys-hdbs.24394600._000003.CxAOD.root
group.phys-hdbs.24394600._000004.CxAOD.root
group.phys-hdbs.24394600._000008.CxAOD.root
group.phys-hdbs.24394600._000002.CxAOD.root
group.phys-hdbs.24394600._000001.CxAOD.root
