group.phys-hdbs.24393805._000005.CxAOD.root
group.phys-hdbs.24393805._000003.CxAOD.root
group.phys-hdbs.24393805._000004.CxAOD.root
group.phys-hdbs.24393805._000002.CxAOD.root
group.phys-hdbs.24393805._000001.CxAOD.root
