group.phys-hdbs.24552221._000001.CxAOD.root
group.phys-hdbs.24552221._000002.CxAOD.root
group.phys-hdbs.24552221._000003.CxAOD.root
group.phys-hdbs.24552221._000004.CxAOD.root
group.phys-hdbs.24552221._000005.CxAOD.root
