group.phys-hdbs.24394121._000001.CxAOD.root
group.phys-hdbs.24394121._000002.CxAOD.root
group.phys-hdbs.24394121._000003.CxAOD.root
group.phys-hdbs.24394121._000006.CxAOD.root
group.phys-hdbs.24394121._000010.CxAOD.root
group.phys-hdbs.24394121._000011.CxAOD.root
group.phys-hdbs.24394121._000014.CxAOD.root
group.phys-hdbs.24394121._000017.CxAOD.root
