group.phys-hdbs.24393778._000001.CxAOD.root
group.phys-hdbs.24393778._000002.CxAOD.root
group.phys-hdbs.24393778._000003.CxAOD.root
group.phys-hdbs.24393778._000004.CxAOD.root
group.phys-hdbs.24393778._000005.CxAOD.root
