group.phys-hdbs.30796848._000001.CxAOD.root
group.phys-hdbs.30796848._000002.CxAOD.root
group.phys-hdbs.30796848._000003.CxAOD.root
group.phys-hdbs.30796848._000004.CxAOD.root
group.phys-hdbs.30796848._000005.CxAOD.root
