group.phys-hdbs.30804126._000005.CxAOD.root
group.phys-hdbs.30804126._000002.CxAOD.root
group.phys-hdbs.30804126._000003.CxAOD.root
group.phys-hdbs.30804126._000004.CxAOD.root
group.phys-hdbs.30804126._000001.CxAOD.root
