group.phys-hdbs.30804121._000005.CxAOD.root
group.phys-hdbs.30804121._000004.CxAOD.root
group.phys-hdbs.30804121._000003.CxAOD.root
group.phys-hdbs.30804121._000002.CxAOD.root
group.phys-hdbs.30804121._000001.CxAOD.root
