group.phys-hdbs.30344931._000001.CxAOD.root
group.phys-hdbs.30344931._000002.CxAOD.root
group.phys-hdbs.30344931._000003.CxAOD.root
group.phys-hdbs.30344931._000004.CxAOD.root
group.phys-hdbs.30344931._000005.CxAOD.root
group.phys-hdbs.30344931._000006.CxAOD.root
group.phys-hdbs.30344931._000007.CxAOD.root
group.phys-hdbs.30344931._000008.CxAOD.root
group.phys-hdbs.30344931._000009.CxAOD.root
group.phys-hdbs.30344931._000010.CxAOD.root
group.phys-hdbs.30344931._000011.CxAOD.root
