user.yanlin.24421513._000001.CxAOD.root
user.yanlin.24421513._000002.CxAOD.root
user.yanlin.24421513._000003.CxAOD.root
user.yanlin.24421513._000005.CxAOD.root
user.yanlin.24421513._000006.CxAOD.root
