group.phys-hdbs.30345845._000001.CxAOD.root
group.phys-hdbs.30345845._000002.CxAOD.root
group.phys-hdbs.30345845._000003.CxAOD.root
group.phys-hdbs.30345845._000005.CxAOD.root
group.phys-hdbs.30345845._000006.CxAOD.root
group.phys-hdbs.30345845._000007.CxAOD.root
group.phys-hdbs.30345845._000008.CxAOD.root
group.phys-hdbs.30345845._000009.CxAOD.root
group.phys-hdbs.30345845._000010.CxAOD.root
group.phys-hdbs.30345845._000011.CxAOD.root
group.phys-hdbs.30345845._000012.CxAOD.root
group.phys-hdbs.30345845._000013.CxAOD.root
group.phys-hdbs.30345845._000014.CxAOD.root
group.phys-hdbs.30345845._000015.CxAOD.root
group.phys-hdbs.30345845._000016.CxAOD.root
group.phys-hdbs.30345845._000017.CxAOD.root
group.phys-hdbs.30345845._000018.CxAOD.root
group.phys-hdbs.30345845._000019.CxAOD.root
group.phys-hdbs.30345845._000021.CxAOD.root
group.phys-hdbs.30345845._000022.CxAOD.root
group.phys-hdbs.30345845._000024.CxAOD.root
group.phys-hdbs.30345845._000025.CxAOD.root
group.phys-hdbs.30345845._000026.CxAOD.root
group.phys-hdbs.30345845._000029.CxAOD.root
group.phys-hdbs.30345845._000030.CxAOD.root
group.phys-hdbs.30345845._000031.CxAOD.root
group.phys-hdbs.30345845._000032.CxAOD.root
group.phys-hdbs.30345845._000033.CxAOD.root
group.phys-hdbs.30345845._000034.CxAOD.root
group.phys-hdbs.30345845._000035.CxAOD.root
group.phys-hdbs.30345845._000036.CxAOD.root
group.phys-hdbs.30345845._000037.CxAOD.root
group.phys-hdbs.30345845._000039.CxAOD.root
group.phys-hdbs.30345845._000040.CxAOD.root
group.phys-hdbs.30345845._000041.CxAOD.root
group.phys-hdbs.30345845._000042.CxAOD.root
group.phys-hdbs.30345845._000043.CxAOD.root
group.phys-hdbs.30345845._000044.CxAOD.root
group.phys-hdbs.30345845._000045.CxAOD.root
group.phys-hdbs.30345845._000046.CxAOD.root
group.phys-hdbs.30345845._000047.CxAOD.root
group.phys-hdbs.30345845._000048.CxAOD.root
group.phys-hdbs.30345845._000049.CxAOD.root
group.phys-hdbs.30345845._000050.CxAOD.root
group.phys-hdbs.30345845._000051.CxAOD.root
group.phys-hdbs.30345845._000052.CxAOD.root
group.phys-hdbs.30345845._000053.CxAOD.root
group.phys-hdbs.30345845._000054.CxAOD.root
group.phys-hdbs.30345845._000056.CxAOD.root
group.phys-hdbs.30345845._000057.CxAOD.root
group.phys-hdbs.30345845._000058.CxAOD.root
group.phys-hdbs.30345845._000059.CxAOD.root
group.phys-hdbs.30345845._000060.CxAOD.root
group.phys-hdbs.30345845._000061.CxAOD.root
group.phys-hdbs.30345845._000062.CxAOD.root
group.phys-hdbs.30345845._000063.CxAOD.root
group.phys-hdbs.30345845._000064.CxAOD.root
group.phys-hdbs.30345845._000065.CxAOD.root
group.phys-hdbs.30345845._000066.CxAOD.root
group.phys-hdbs.30345845._000067.CxAOD.root
group.phys-hdbs.30345845._000068.CxAOD.root
group.phys-hdbs.30345845._000069.CxAOD.root
group.phys-hdbs.30345845._000070.CxAOD.root
group.phys-hdbs.30345845._000071.CxAOD.root
group.phys-hdbs.30345845._000072.CxAOD.root
group.phys-hdbs.30345845._000073.CxAOD.root
group.phys-hdbs.30345845._000074.CxAOD.root
group.phys-hdbs.30345845._000075.CxAOD.root
group.phys-hdbs.30345845._000076.CxAOD.root
group.phys-hdbs.30345845._000077.CxAOD.root
group.phys-hdbs.30345845._000078.CxAOD.root
group.phys-hdbs.30345845._000079.CxAOD.root
group.phys-hdbs.30345845._000080.CxAOD.root
group.phys-hdbs.30345845._000082.CxAOD.root
group.phys-hdbs.30345845._000083.CxAOD.root
group.phys-hdbs.30345845._000084.CxAOD.root
group.phys-hdbs.30345845._000086.CxAOD.root
group.phys-hdbs.30345845._000088.CxAOD.root
group.phys-hdbs.30345845._000089.CxAOD.root
group.phys-hdbs.30345845._000090.CxAOD.root
group.phys-hdbs.30345845._000091.CxAOD.root
group.phys-hdbs.30345845._000092.CxAOD.root
group.phys-hdbs.30345845._000093.CxAOD.root
group.phys-hdbs.30345845._000094.CxAOD.root
group.phys-hdbs.30345845._000095.CxAOD.root
group.phys-hdbs.30345845._000096.CxAOD.root
group.phys-hdbs.30345845._000097.CxAOD.root
