group.phys-hdbs.30345353._000001.CxAOD.root
group.phys-hdbs.30345353._000002.CxAOD.root
group.phys-hdbs.30345353._000003.CxAOD.root
group.phys-hdbs.30345353._000004.CxAOD.root
group.phys-hdbs.30345353._000005.CxAOD.root
group.phys-hdbs.30345353._000006.CxAOD.root
group.phys-hdbs.30345353._000007.CxAOD.root
group.phys-hdbs.30345353._000008.CxAOD.root
group.phys-hdbs.30345353._000009.CxAOD.root
group.phys-hdbs.30345353._000010.CxAOD.root
group.phys-hdbs.30345353._000011.CxAOD.root
group.phys-hdbs.30345353._000012.CxAOD.root
group.phys-hdbs.30345353._000013.CxAOD.root
group.phys-hdbs.30345353._000014.CxAOD.root
group.phys-hdbs.30345353._000015.CxAOD.root
group.phys-hdbs.30345353._000016.CxAOD.root
group.phys-hdbs.30345353._000017.CxAOD.root
group.phys-hdbs.30345353._000018.CxAOD.root
group.phys-hdbs.30345353._000019.CxAOD.root
group.phys-hdbs.30345353._000020.CxAOD.root
group.phys-hdbs.30345353._000021.CxAOD.root
group.phys-hdbs.30345353._000022.CxAOD.root
group.phys-hdbs.30345353._000023.CxAOD.root
group.phys-hdbs.30345353._000024.CxAOD.root
group.phys-hdbs.30345353._000025.CxAOD.root
group.phys-hdbs.30345353._000026.CxAOD.root
group.phys-hdbs.30345353._000027.CxAOD.root
group.phys-hdbs.30345353._000028.CxAOD.root
group.phys-hdbs.30345353._000029.CxAOD.root
group.phys-hdbs.30345353._000030.CxAOD.root
group.phys-hdbs.30345353._000031.CxAOD.root
group.phys-hdbs.30345353._000032.CxAOD.root
group.phys-hdbs.30345353._000033.CxAOD.root
group.phys-hdbs.30345353._000034.CxAOD.root
group.phys-hdbs.30345353._000035.CxAOD.root
group.phys-hdbs.30345353._000036.CxAOD.root
group.phys-hdbs.30345353._000038.CxAOD.root
group.phys-hdbs.30345353._000039.CxAOD.root
group.phys-hdbs.30345353._000040.CxAOD.root
group.phys-hdbs.30345353._000042.CxAOD.root
group.phys-hdbs.30345353._000043.CxAOD.root
group.phys-hdbs.30345353._000045.CxAOD.root
group.phys-hdbs.30345353._000046.CxAOD.root
group.phys-hdbs.30345353._000047.CxAOD.root
group.phys-hdbs.30345353._000049.CxAOD.root
group.phys-hdbs.30345353._000050.CxAOD.root
group.phys-hdbs.30345353._000051.CxAOD.root
group.phys-hdbs.30345353._000052.CxAOD.root
group.phys-hdbs.30345353._000053.CxAOD.root
