group.phys-hdbs.30345120._000001.CxAOD.root
group.phys-hdbs.30345120._000002.CxAOD.root
group.phys-hdbs.30345120._000003.CxAOD.root
group.phys-hdbs.30345120._000004.CxAOD.root
group.phys-hdbs.30345120._000005.CxAOD.root
group.phys-hdbs.30345120._000006.CxAOD.root
group.phys-hdbs.30345120._000007.CxAOD.root
group.phys-hdbs.30345120._000008.CxAOD.root
group.phys-hdbs.30345120._000009.CxAOD.root
group.phys-hdbs.30345120._000010.CxAOD.root
group.phys-hdbs.30345120._000011.CxAOD.root
group.phys-hdbs.30345120._000012.CxAOD.root
group.phys-hdbs.30345120._000013.CxAOD.root
group.phys-hdbs.30345120._000014.CxAOD.root
group.phys-hdbs.30345120._000015.CxAOD.root
group.phys-hdbs.30345120._000016.CxAOD.root
group.phys-hdbs.30345120._000017.CxAOD.root
group.phys-hdbs.30345120._000022.CxAOD.root
group.phys-hdbs.30345120._000024.CxAOD.root
group.phys-hdbs.30345120._000025.CxAOD.root
group.phys-hdbs.30345120._000026.CxAOD.root
group.phys-hdbs.30345120._000027.CxAOD.root
group.phys-hdbs.30345120._000028.CxAOD.root
group.phys-hdbs.30345120._000030.CxAOD.root
group.phys-hdbs.30345120._000031.CxAOD.root
group.phys-hdbs.30345120._000032.CxAOD.root
group.phys-hdbs.30345120._000033.CxAOD.root
group.phys-hdbs.30345120._000034.CxAOD.root
group.phys-hdbs.30345120._000035.CxAOD.root
group.phys-hdbs.30345120._000036.CxAOD.root
group.phys-hdbs.30345120._000037.CxAOD.root
group.phys-hdbs.30345120._000038.CxAOD.root
group.phys-hdbs.30345120._000039.CxAOD.root
group.phys-hdbs.30345120._000040.CxAOD.root
group.phys-hdbs.30345120._000041.CxAOD.root
group.phys-hdbs.30345120._000042.CxAOD.root
group.phys-hdbs.30345120._000043.CxAOD.root
group.phys-hdbs.30345120._000044.CxAOD.root
group.phys-hdbs.30345120._000045.CxAOD.root
group.phys-hdbs.30345120._000046.CxAOD.root
group.phys-hdbs.30345120._000047.CxAOD.root
group.phys-hdbs.30345120._000048.CxAOD.root
group.phys-hdbs.30345120._000049.CxAOD.root
