group.phys-hdbs.30345842._000001.CxAOD.root
group.phys-hdbs.30345842._000008.CxAOD.root
group.phys-hdbs.30345842._000010.CxAOD.root
group.phys-hdbs.30345842._000011.CxAOD.root
group.phys-hdbs.30345842._000012.CxAOD.root
group.phys-hdbs.30345842._000013.CxAOD.root
group.phys-hdbs.30345842._000014.CxAOD.root
group.phys-hdbs.30345842._000015.CxAOD.root
group.phys-hdbs.30345842._000016.CxAOD.root
group.phys-hdbs.30345842._000017.CxAOD.root
group.phys-hdbs.30345842._000018.CxAOD.root
group.phys-hdbs.30345842._000019.CxAOD.root
group.phys-hdbs.30345842._000020.CxAOD.root
group.phys-hdbs.30345842._000021.CxAOD.root
group.phys-hdbs.30345842._000022.CxAOD.root
group.phys-hdbs.30345842._000024.CxAOD.root
group.phys-hdbs.30345842._000025.CxAOD.root
group.phys-hdbs.30345842._000026.CxAOD.root
group.phys-hdbs.30345842._000027.CxAOD.root
group.phys-hdbs.30345842._000028.CxAOD.root
