user.yanlin.24422174._000001.CxAOD.root
user.yanlin.24422174._000002.CxAOD.root
user.yanlin.24422174._000003.CxAOD.root
user.yanlin.24422174._000004.CxAOD.root
user.yanlin.24422174._000005.CxAOD.root
user.yanlin.24422174._000006.CxAOD.root
user.yanlin.24422174._000007.CxAOD.root
user.yanlin.24422174._000008.CxAOD.root
user.yanlin.24422174._000009.CxAOD.root
user.yanlin.24422174._000010.CxAOD.root
user.yanlin.24422174._000011.CxAOD.root
user.yanlin.24422174._000012.CxAOD.root
user.yanlin.24422174._000013.CxAOD.root
user.yanlin.24422174._000014.CxAOD.root
user.yanlin.24422174._000015.CxAOD.root
user.yanlin.24422174._000016.CxAOD.root
user.yanlin.24422174._000017.CxAOD.root
user.yanlin.24422174._000018.CxAOD.root
user.yanlin.24422174._000019.CxAOD.root
user.yanlin.24422174._000020.CxAOD.root
user.yanlin.24422174._000021.CxAOD.root
