group.phys-hdbs.24396246._000001.CxAOD.root
group.phys-hdbs.24396246._000002.CxAOD.root
group.phys-hdbs.24396246._000003.CxAOD.root
group.phys-hdbs.24396246._000004.CxAOD.root
group.phys-hdbs.24396246._000005.CxAOD.root
group.phys-hdbs.24396246._000006.CxAOD.root
group.phys-hdbs.24396246._000007.CxAOD.root
group.phys-hdbs.24396246._000008.CxAOD.root
group.phys-hdbs.24396246._000009.CxAOD.root
group.phys-hdbs.24396246._000010.CxAOD.root
group.phys-hdbs.24396246._000011.CxAOD.root
group.phys-hdbs.24396246._000012.CxAOD.root
group.phys-hdbs.24396246._000013.CxAOD.root
group.phys-hdbs.24396246._000014.CxAOD.root
group.phys-hdbs.24396246._000015.CxAOD.root
group.phys-hdbs.24396246._000016.CxAOD.root
group.phys-hdbs.24396246._000017.CxAOD.root
group.phys-hdbs.24396246._000018.CxAOD.root
group.phys-hdbs.24396246._000019.CxAOD.root
group.phys-hdbs.24396246._000020.CxAOD.root
group.phys-hdbs.24396246._000021.CxAOD.root
group.phys-hdbs.24396246._000022.CxAOD.root
group.phys-hdbs.24396246._000023.CxAOD.root
group.phys-hdbs.24396246._000024.CxAOD.root
group.phys-hdbs.24396246._000025.CxAOD.root
group.phys-hdbs.24396246._000026.CxAOD.root
group.phys-hdbs.24396246._000027.CxAOD.root
group.phys-hdbs.24396246._000028.CxAOD.root
group.phys-hdbs.24396246._000029.CxAOD.root
group.phys-hdbs.24396246._000030.CxAOD.root
group.phys-hdbs.24396246._000031.CxAOD.root
group.phys-hdbs.24396246._000032.CxAOD.root
group.phys-hdbs.24396246._000033.CxAOD.root
group.phys-hdbs.24396246._000034.CxAOD.root
group.phys-hdbs.24396246._000035.CxAOD.root
group.phys-hdbs.24396246._000036.CxAOD.root
group.phys-hdbs.24396246._000037.CxAOD.root
group.phys-hdbs.24396246._000038.CxAOD.root
group.phys-hdbs.24396246._000039.CxAOD.root
group.phys-hdbs.24396246._000040.CxAOD.root
group.phys-hdbs.24396246._000041.CxAOD.root
group.phys-hdbs.24396246._000042.CxAOD.root
group.phys-hdbs.24396246._000043.CxAOD.root
group.phys-hdbs.24396246._000044.CxAOD.root
group.phys-hdbs.24396246._000045.CxAOD.root
group.phys-hdbs.24396246._000046.CxAOD.root
group.phys-hdbs.24396246._000047.CxAOD.root
group.phys-hdbs.24396246._000048.CxAOD.root
group.phys-hdbs.24396246._000049.CxAOD.root
group.phys-hdbs.24396246._000050.CxAOD.root
group.phys-hdbs.24396246._000051.CxAOD.root
group.phys-hdbs.24396246._000052.CxAOD.root
group.phys-hdbs.24396246._000053.CxAOD.root
group.phys-hdbs.24396246._000054.CxAOD.root
group.phys-hdbs.24396246._000055.CxAOD.root
group.phys-hdbs.24396246._000056.CxAOD.root
group.phys-hdbs.24396246._000057.CxAOD.root
group.phys-hdbs.24396246._000058.CxAOD.root
group.phys-hdbs.24396246._000059.CxAOD.root
group.phys-hdbs.24396246._000060.CxAOD.root
group.phys-hdbs.24396246._000061.CxAOD.root
group.phys-hdbs.24396246._000062.CxAOD.root
group.phys-hdbs.24396246._000063.CxAOD.root
group.phys-hdbs.24396246._000064.CxAOD.root
group.phys-hdbs.24396246._000065.CxAOD.root
group.phys-hdbs.24396246._000066.CxAOD.root
group.phys-hdbs.24396246._000067.CxAOD.root
group.phys-hdbs.24396246._000068.CxAOD.root
group.phys-hdbs.24396246._000069.CxAOD.root
group.phys-hdbs.24396246._000070.CxAOD.root
group.phys-hdbs.24396246._000071.CxAOD.root
group.phys-hdbs.24396246._000072.CxAOD.root
group.phys-hdbs.24396246._000073.CxAOD.root
group.phys-hdbs.24396246._000074.CxAOD.root
group.phys-hdbs.24396246._000075.CxAOD.root
group.phys-hdbs.24396246._000076.CxAOD.root
group.phys-hdbs.24396246._000077.CxAOD.root
group.phys-hdbs.24396246._000078.CxAOD.root
group.phys-hdbs.24396246._000079.CxAOD.root
group.phys-hdbs.24396246._000080.CxAOD.root
group.phys-hdbs.24396246._000081.CxAOD.root
group.phys-hdbs.24396246._000082.CxAOD.root
group.phys-hdbs.24396246._000083.CxAOD.root
group.phys-hdbs.24396246._000084.CxAOD.root
group.phys-hdbs.24396246._000085.CxAOD.root
group.phys-hdbs.24396246._000086.CxAOD.root
group.phys-hdbs.24396246._000087.CxAOD.root
group.phys-hdbs.24396246._000088.CxAOD.root
group.phys-hdbs.24396246._000089.CxAOD.root
group.phys-hdbs.24396246._000090.CxAOD.root
group.phys-hdbs.24396246._000091.CxAOD.root
group.phys-hdbs.24396246._000092.CxAOD.root
group.phys-hdbs.24396246._000093.CxAOD.root
group.phys-hdbs.24396246._000094.CxAOD.root
group.phys-hdbs.24396246._000095.CxAOD.root
group.phys-hdbs.24396246._000096.CxAOD.root
group.phys-hdbs.24396246._000097.CxAOD.root
group.phys-hdbs.24396246._000098.CxAOD.root
group.phys-hdbs.24396246._000099.CxAOD.root
group.phys-hdbs.24396246._000100.CxAOD.root
group.phys-hdbs.24396246._000101.CxAOD.root
group.phys-hdbs.24396246._000102.CxAOD.root
group.phys-hdbs.24396246._000103.CxAOD.root
group.phys-hdbs.24396246._000104.CxAOD.root
group.phys-hdbs.24396246._000105.CxAOD.root
group.phys-hdbs.24396246._000106.CxAOD.root
group.phys-hdbs.24396246._000107.CxAOD.root
group.phys-hdbs.24396246._000108.CxAOD.root
group.phys-hdbs.24396246._000109.CxAOD.root
group.phys-hdbs.24396246._000110.CxAOD.root
group.phys-hdbs.24396246._000111.CxAOD.root
group.phys-hdbs.24396246._000112.CxAOD.root
group.phys-hdbs.24396246._000113.CxAOD.root
group.phys-hdbs.24396246._000114.CxAOD.root
group.phys-hdbs.24396246._000115.CxAOD.root
group.phys-hdbs.24396246._000116.CxAOD.root
group.phys-hdbs.24396246._000117.CxAOD.root
group.phys-hdbs.24396246._000118.CxAOD.root
group.phys-hdbs.24396246._000119.CxAOD.root
group.phys-hdbs.24396246._000120.CxAOD.root
group.phys-hdbs.24396246._000121.CxAOD.root
group.phys-hdbs.24396246._000122.CxAOD.root
group.phys-hdbs.24396246._000123.CxAOD.root
group.phys-hdbs.24396246._000124.CxAOD.root
group.phys-hdbs.24396246._000125.CxAOD.root
group.phys-hdbs.24396246._000126.CxAOD.root
group.phys-hdbs.24396246._000127.CxAOD.root
group.phys-hdbs.24396246._000128.CxAOD.root
group.phys-hdbs.24396246._000129.CxAOD.root
