group.phys-hdbs.24395901._000004.CxAOD.root
group.phys-hdbs.24395901._000005.CxAOD.root
group.phys-hdbs.24395901._000006.CxAOD.root
group.phys-hdbs.24395901._000002.CxAOD.root
group.phys-hdbs.24395901._000003.CxAOD.root
group.phys-hdbs.24395901._000001.CxAOD.root
