group.phys-hdbs.30345522._000044.CxAOD.root
group.phys-hdbs.30345522._000045.CxAOD.root
group.phys-hdbs.30345522._000046.CxAOD.root
group.phys-hdbs.30345522._000035.CxAOD.root
group.phys-hdbs.30345522._000006.CxAOD.root
group.phys-hdbs.30345522._000007.CxAOD.root
group.phys-hdbs.30345522._000008.CxAOD.root
group.phys-hdbs.30345522._000009.CxAOD.root
group.phys-hdbs.30345522._000010.CxAOD.root
group.phys-hdbs.30345522._000011.CxAOD.root
group.phys-hdbs.30345522._000013.CxAOD.root
group.phys-hdbs.30345522._000014.CxAOD.root
group.phys-hdbs.30345522._000015.CxAOD.root
group.phys-hdbs.30345522._000017.CxAOD.root
group.phys-hdbs.30345522._000018.CxAOD.root
group.phys-hdbs.30345522._000019.CxAOD.root
group.phys-hdbs.30345522._000021.CxAOD.root
group.phys-hdbs.30345522._000022.CxAOD.root
group.phys-hdbs.30345522._000024.CxAOD.root
group.phys-hdbs.30345522._000025.CxAOD.root
group.phys-hdbs.30345522._000026.CxAOD.root
group.phys-hdbs.30345522._000027.CxAOD.root
group.phys-hdbs.30345522._000031.CxAOD.root
group.phys-hdbs.30345522._000032.CxAOD.root
group.phys-hdbs.30345522._000033.CxAOD.root
group.phys-hdbs.30345522._000037.CxAOD.root
group.phys-hdbs.30345522._000038.CxAOD.root
group.phys-hdbs.30345522._000039.CxAOD.root
group.phys-hdbs.30345522._000040.CxAOD.root
group.phys-hdbs.30345522._000043.CxAOD.root
group.phys-hdbs.30345522._000003.CxAOD.root
group.phys-hdbs.30345522._000004.CxAOD.root
group.phys-hdbs.30345522._000005.CxAOD.root
group.phys-hdbs.30345522._000001.CxAOD.root
group.phys-hdbs.30345522._000002.CxAOD.root
group.phys-hdbs.30345522._000034.CxAOD.root
