group.phys-hdbs.30345117._000030.CxAOD.root
group.phys-hdbs.30345117._000011.CxAOD.root
group.phys-hdbs.30345117._000005.CxAOD.root
group.phys-hdbs.30345117._000006.CxAOD.root
group.phys-hdbs.30345117._000007.CxAOD.root
group.phys-hdbs.30345117._000008.CxAOD.root
group.phys-hdbs.30345117._000009.CxAOD.root
group.phys-hdbs.30345117._000010.CxAOD.root
group.phys-hdbs.30345117._000019.CxAOD.root
group.phys-hdbs.30345117._000028.CxAOD.root
group.phys-hdbs.30345117._000029.CxAOD.root
group.phys-hdbs.30345117._000033.CxAOD.root
group.phys-hdbs.30345117._000034.CxAOD.root
group.phys-hdbs.30345117._000037.CxAOD.root
group.phys-hdbs.30345117._000004.CxAOD.root
group.phys-hdbs.30345117._000036.CxAOD.root
group.phys-hdbs.30345117._000003.CxAOD.root
group.phys-hdbs.30345117._000002.CxAOD.root
