group.phys-hdbs.30345403._000136.CxAOD.root
group.phys-hdbs.30345403._000135.CxAOD.root
group.phys-hdbs.30345403._000134.CxAOD.root
group.phys-hdbs.30345403._000132.CxAOD.root
group.phys-hdbs.30345403._000126.CxAOD.root
group.phys-hdbs.30345403._000127.CxAOD.root
group.phys-hdbs.30345403._000128.CxAOD.root
group.phys-hdbs.30345403._000123.CxAOD.root
group.phys-hdbs.30345403._000124.CxAOD.root
group.phys-hdbs.30345403._000125.CxAOD.root
group.phys-hdbs.30345403._000129.CxAOD.root
group.phys-hdbs.30345403._000120.CxAOD.root
group.phys-hdbs.30345403._000110.CxAOD.root
group.phys-hdbs.30345403._000111.CxAOD.root
group.phys-hdbs.30345403._000112.CxAOD.root
group.phys-hdbs.30345403._000113.CxAOD.root
group.phys-hdbs.30345403._000114.CxAOD.root
group.phys-hdbs.30345403._000115.CxAOD.root
group.phys-hdbs.30345403._000116.CxAOD.root
group.phys-hdbs.30345403._000118.CxAOD.root
group.phys-hdbs.30345403._000119.CxAOD.root
group.phys-hdbs.30345403._000019.CxAOD.root
group.phys-hdbs.30345403._000020.CxAOD.root
group.phys-hdbs.30345403._000021.CxAOD.root
group.phys-hdbs.30345403._000022.CxAOD.root
group.phys-hdbs.30345403._000023.CxAOD.root
group.phys-hdbs.30345403._000024.CxAOD.root
group.phys-hdbs.30345403._000025.CxAOD.root
group.phys-hdbs.30345403._000016.CxAOD.root
group.phys-hdbs.30345403._000017.CxAOD.root
group.phys-hdbs.30345403._000018.CxAOD.root
group.phys-hdbs.30345403._000012.CxAOD.root
group.phys-hdbs.30345403._000013.CxAOD.root
group.phys-hdbs.30345403._000014.CxAOD.root
group.phys-hdbs.30345403._000015.CxAOD.root
group.phys-hdbs.30345403._000009.CxAOD.root
group.phys-hdbs.30345403._000010.CxAOD.root
group.phys-hdbs.30345403._000130.CxAOD.root
group.phys-hdbs.30345403._000004.CxAOD.root
group.phys-hdbs.30345403._000005.CxAOD.root
group.phys-hdbs.30345403._000006.CxAOD.root
group.phys-hdbs.30345403._000008.CxAOD.root
group.phys-hdbs.30345403._000122.CxAOD.root
group.phys-hdbs.30345403._000002.CxAOD.root
group.phys-hdbs.30345403._000001.CxAOD.root
group.phys-hdbs.30345403._000003.CxAOD.root
