group.phys-hdbs.24567423._000003.CxAOD.root
group.phys-hdbs.24567423._000004.CxAOD.root
group.phys-hdbs.24567423._000005.CxAOD.root
group.phys-hdbs.24567423._000002.CxAOD.root
group.phys-hdbs.24567423._000001.CxAOD.root
group.phys-hdbs.24567423._000006.CxAOD.root
group.phys-hdbs.24567423._000007.CxAOD.root
group.phys-hdbs.24567423._000008.CxAOD.root
group.phys-hdbs.24567423._000009.CxAOD.root
group.phys-hdbs.24567423._000010.CxAOD.root
