group.phys-hdbs.24565056._000003.CxAOD.root
group.phys-hdbs.24565056._000001.CxAOD.root
group.phys-hdbs.24565056._000002.CxAOD.root
group.phys-hdbs.24565056._000005.CxAOD.root
group.phys-hdbs.24565056._000006.CxAOD.root
group.phys-hdbs.24565056._000007.CxAOD.root
