group.phys-hdbs.24567416._000006.CxAOD.root
group.phys-hdbs.24567416._000007.CxAOD.root
group.phys-hdbs.24567416._000004.CxAOD.root
group.phys-hdbs.24567416._000003.CxAOD.root
group.phys-hdbs.24567416._000002.CxAOD.root
group.phys-hdbs.24567416._000001.CxAOD.root
