group.phys-hdbs.24404785._000005.CxAOD.root
group.phys-hdbs.24404785._000003.CxAOD.root
group.phys-hdbs.24404785._000004.CxAOD.root
group.phys-hdbs.24404785._000002.CxAOD.root
group.phys-hdbs.24404785._000001.CxAOD.root
