group.phys-hdbs.24406092._000001.CxAOD.root
group.phys-hdbs.24406092._000002.CxAOD.root
group.phys-hdbs.24406092._000003.CxAOD.root
group.phys-hdbs.24406092._000004.CxAOD.root
group.phys-hdbs.24406092._000005.CxAOD.root
