group.phys-hdbs.24405477._000001.CxAOD.root
group.phys-hdbs.24405477._000002.CxAOD.root
group.phys-hdbs.24405477._000003.CxAOD.root
group.phys-hdbs.24405477._000004.CxAOD.root
group.phys-hdbs.24405477._000005.CxAOD.root
group.phys-hdbs.24405477._000006.CxAOD.root
group.phys-hdbs.24405477._000007.CxAOD.root
group.phys-hdbs.24405477._000008.CxAOD.root
