user.yanlin.24421486._000001.CxAOD.root
user.yanlin.24421486._000002.CxAOD.root
user.yanlin.24421486._000003.CxAOD.root
user.yanlin.24421486._000004.CxAOD.root
user.yanlin.24421486._000005.CxAOD.root
