group.phys-hdbs.30345847._000001.CxAOD.root
group.phys-hdbs.30345847._000002.CxAOD.root
group.phys-hdbs.30345847._000003.CxAOD.root
group.phys-hdbs.30345847._000004.CxAOD.root
group.phys-hdbs.30345847._000005.CxAOD.root
group.phys-hdbs.30345847._000006.CxAOD.root
group.phys-hdbs.30345847._000007.CxAOD.root
group.phys-hdbs.30345847._000008.CxAOD.root
group.phys-hdbs.30345847._000009.CxAOD.root
group.phys-hdbs.30345847._000010.CxAOD.root
group.phys-hdbs.30345847._000011.CxAOD.root
group.phys-hdbs.30345847._000012.CxAOD.root
group.phys-hdbs.30345847._000013.CxAOD.root
group.phys-hdbs.30345847._000014.CxAOD.root
group.phys-hdbs.30345847._000015.CxAOD.root
group.phys-hdbs.30345847._000016.CxAOD.root
group.phys-hdbs.30345847._000017.CxAOD.root
group.phys-hdbs.30345847._000018.CxAOD.root
group.phys-hdbs.30345847._000019.CxAOD.root
group.phys-hdbs.30345847._000020.CxAOD.root
group.phys-hdbs.30345847._000021.CxAOD.root
group.phys-hdbs.30345847._000022.CxAOD.root
group.phys-hdbs.30345847._000023.CxAOD.root
group.phys-hdbs.30345847._000024.CxAOD.root
group.phys-hdbs.30345847._000025.CxAOD.root
group.phys-hdbs.30345847._000026.CxAOD.root
group.phys-hdbs.30345847._000027.CxAOD.root
group.phys-hdbs.30345847._000028.CxAOD.root
group.phys-hdbs.30345847._000029.CxAOD.root
group.phys-hdbs.30345847._000030.CxAOD.root
group.phys-hdbs.30345847._000031.CxAOD.root
group.phys-hdbs.30345847._000032.CxAOD.root
group.phys-hdbs.30345847._000033.CxAOD.root
group.phys-hdbs.30345847._000034.CxAOD.root
group.phys-hdbs.30345847._000035.CxAOD.root
group.phys-hdbs.30345847._000036.CxAOD.root
group.phys-hdbs.30345847._000037.CxAOD.root
group.phys-hdbs.30345847._000038.CxAOD.root
group.phys-hdbs.30345847._000039.CxAOD.root
group.phys-hdbs.30345847._000040.CxAOD.root
group.phys-hdbs.30345847._000041.CxAOD.root
group.phys-hdbs.30345847._000042.CxAOD.root
group.phys-hdbs.30345847._000043.CxAOD.root
group.phys-hdbs.30345847._000044.CxAOD.root
group.phys-hdbs.30345847._000045.CxAOD.root
group.phys-hdbs.30345847._000046.CxAOD.root
group.phys-hdbs.30345847._000047.CxAOD.root
group.phys-hdbs.30345847._000048.CxAOD.root
group.phys-hdbs.30345847._000049.CxAOD.root
group.phys-hdbs.30345847._000050.CxAOD.root
group.phys-hdbs.30345847._000051.CxAOD.root
group.phys-hdbs.30345847._000052.CxAOD.root
group.phys-hdbs.30345847._000053.CxAOD.root
group.phys-hdbs.30345847._000054.CxAOD.root
group.phys-hdbs.30345847._000055.CxAOD.root
group.phys-hdbs.30345847._000056.CxAOD.root
group.phys-hdbs.30345847._000057.CxAOD.root
group.phys-hdbs.30345847._000058.CxAOD.root
group.phys-hdbs.30345847._000059.CxAOD.root
group.phys-hdbs.30345847._000060.CxAOD.root
group.phys-hdbs.30345847._000061.CxAOD.root
group.phys-hdbs.30345847._000062.CxAOD.root
group.phys-hdbs.30345847._000063.CxAOD.root
group.phys-hdbs.30345847._000064.CxAOD.root
group.phys-hdbs.30345847._000065.CxAOD.root
group.phys-hdbs.30345847._000066.CxAOD.root
group.phys-hdbs.30345847._000067.CxAOD.root
group.phys-hdbs.30345847._000068.CxAOD.root
group.phys-hdbs.30345847._000069.CxAOD.root
group.phys-hdbs.30345847._000073.CxAOD.root
group.phys-hdbs.30345847._000075.CxAOD.root
group.phys-hdbs.30345847._000076.CxAOD.root
group.phys-hdbs.30345847._000077.CxAOD.root
