user.yanlin.24421498._000001.CxAOD.root
user.yanlin.24421498._000002.CxAOD.root
user.yanlin.24421498._000003.CxAOD.root
user.yanlin.24421498._000004.CxAOD.root
user.yanlin.24421498._000005.CxAOD.root
user.yanlin.24421498._000006.CxAOD.root
user.yanlin.24421498._000007.CxAOD.root
