user.yanlin.24421493._000001.CxAOD.root
user.yanlin.24421493._000002.CxAOD.root
user.yanlin.24421493._000003.CxAOD.root
user.yanlin.24421493._000004.CxAOD.root
user.yanlin.24421493._000005.CxAOD.root
