user.yanlin.24422111._000001.CxAOD.root
user.yanlin.24422111._000002.CxAOD.root
user.yanlin.24422111._000003.CxAOD.root
user.yanlin.24422111._000004.CxAOD.root
user.yanlin.24422111._000005.CxAOD.root
user.yanlin.24422111._000006.CxAOD.root
user.yanlin.24422111._000007.CxAOD.root
user.yanlin.24422111._000008.CxAOD.root
user.yanlin.24422111._000009.CxAOD.root
user.yanlin.24422111._000010.CxAOD.root
user.yanlin.24422111._000011.CxAOD.root
user.yanlin.24422111._000012.CxAOD.root
user.yanlin.24422111._000014.CxAOD.root
user.yanlin.24422111._000015.CxAOD.root
user.yanlin.24422111._000016.CxAOD.root
