group.phys-hdbs.30344832._000006.CxAOD.root
group.phys-hdbs.30344832._000008.CxAOD.root
group.phys-hdbs.30344832._000004.CxAOD.root
group.phys-hdbs.30344832._000005.CxAOD.root
group.phys-hdbs.30344832._000009.CxAOD.root
group.phys-hdbs.30344832._000002.CxAOD.root
