group.phys-hdbs.24567406._000001.CxAOD.root
group.phys-hdbs.24567406._000002.CxAOD.root
group.phys-hdbs.24567406._000004.CxAOD.root
group.phys-hdbs.24567406._000005.CxAOD.root
group.phys-hdbs.24567406._000006.CxAOD.root
