group.phys-hdbs.30802460._000001.CxAOD.root
group.phys-hdbs.30802460._000002.CxAOD.root
group.phys-hdbs.30802460._000003.CxAOD.root
group.phys-hdbs.30802460._000004.CxAOD.root
group.phys-hdbs.30802460._000005.CxAOD.root
group.phys-hdbs.30802460._000006.CxAOD.root
group.phys-hdbs.30802460._000007.CxAOD.root
group.phys-hdbs.30802460._000008.CxAOD.root
group.phys-hdbs.30802460._000009.CxAOD.root
group.phys-hdbs.30802460._000010.CxAOD.root
group.phys-hdbs.30802460._000011.CxAOD.root
group.phys-hdbs.30802460._000012.CxAOD.root
group.phys-hdbs.30802460._000013.CxAOD.root
group.phys-hdbs.30802460._000014.CxAOD.root
group.phys-hdbs.30802460._000015.CxAOD.root
group.phys-hdbs.30802460._000016.CxAOD.root
group.phys-hdbs.30802460._000017.CxAOD.root
group.phys-hdbs.30802460._000019.CxAOD.root
