group.phys-hdbs.24568024._000009.CxAOD.root
group.phys-hdbs.24568024._000008.CxAOD.root
group.phys-hdbs.24568024._000006.CxAOD.root
group.phys-hdbs.24568024._000004.CxAOD.root
group.phys-hdbs.24568024._000002.CxAOD.root
group.phys-hdbs.24568024._000001.CxAOD.root
group.phys-hdbs.24568024._000003.CxAOD.root
