group.phys-hdbs.30802980._000013.CxAOD.root
group.phys-hdbs.30802980._000012.CxAOD.root
group.phys-hdbs.30802980._000011.CxAOD.root
group.phys-hdbs.30802980._000010.CxAOD.root
group.phys-hdbs.30802980._000003.CxAOD.root
group.phys-hdbs.30802980._000004.CxAOD.root
group.phys-hdbs.30802980._000005.CxAOD.root
group.phys-hdbs.30802980._000014.CxAOD.root
group.phys-hdbs.30802980._000002.CxAOD.root
group.phys-hdbs.30802980._000001.CxAOD.root
