group.phys-hdbs.24551688._000003.CxAOD.root
group.phys-hdbs.24551688._000004.CxAOD.root
group.phys-hdbs.24551688._000005.CxAOD.root
group.phys-hdbs.24551688._000002.CxAOD.root
group.phys-hdbs.24551688._000001.CxAOD.root
