group.phys-hdbs.30802727._000001.CxAOD.root
group.phys-hdbs.30802727._000004.CxAOD.root
group.phys-hdbs.30802727._000006.CxAOD.root
group.phys-hdbs.30802727._000007.CxAOD.root
group.phys-hdbs.30802727._000009.CxAOD.root
group.phys-hdbs.30802727._000010.CxAOD.root
group.phys-hdbs.30802727._000011.CxAOD.root
group.phys-hdbs.30802727._000012.CxAOD.root
group.phys-hdbs.30802727._000015.CxAOD.root
group.phys-hdbs.30802727._000016.CxAOD.root
group.phys-hdbs.30802727._000018.CxAOD.root
group.phys-hdbs.30802727._000019.CxAOD.root
group.phys-hdbs.30802727._000020.CxAOD.root
group.phys-hdbs.30802727._000021.CxAOD.root
group.phys-hdbs.30802727._000022.CxAOD.root
group.phys-hdbs.30802727._000023.CxAOD.root
group.phys-hdbs.30802727._000024.CxAOD.root
group.phys-hdbs.30802727._000025.CxAOD.root
group.phys-hdbs.30802727._000026.CxAOD.root
group.phys-hdbs.30802727._000027.CxAOD.root
group.phys-hdbs.30802727._000028.CxAOD.root
group.phys-hdbs.30802727._000029.CxAOD.root
group.phys-hdbs.30802727._000030.CxAOD.root
group.phys-hdbs.30802727._000031.CxAOD.root
group.phys-hdbs.30802727._000032.CxAOD.root
group.phys-hdbs.30802727._000033.CxAOD.root
group.phys-hdbs.30802727._000034.CxAOD.root
group.phys-hdbs.30802727._000035.CxAOD.root
group.phys-hdbs.30802727._000036.CxAOD.root
group.phys-hdbs.30802727._000039.CxAOD.root
group.phys-hdbs.30802727._000040.CxAOD.root
