group.phys-hdbs.30803843._000004.CxAOD.root
group.phys-hdbs.30803843._000005.CxAOD.root
group.phys-hdbs.30803843._000006.CxAOD.root
group.phys-hdbs.30803843._000007.CxAOD.root
group.phys-hdbs.30803843._000008.CxAOD.root
group.phys-hdbs.30803843._000009.CxAOD.root
