group.phys-hdbs.29763948._000001.CxAOD.root
group.phys-hdbs.29763948._000002.CxAOD.root
group.phys-hdbs.29763948._000003.CxAOD.root
group.phys-hdbs.29763948._000004.CxAOD.root
group.phys-hdbs.29763948._000005.CxAOD.root
group.phys-hdbs.29763948._000006.CxAOD.root
group.phys-hdbs.29763948._000007.CxAOD.root
group.phys-hdbs.29763948._000008.CxAOD.root
group.phys-hdbs.29763948._000009.CxAOD.root
group.phys-hdbs.29763948._000010.CxAOD.root
group.phys-hdbs.29763948._000011.CxAOD.root
group.phys-hdbs.29763948._000014.CxAOD.root
group.phys-hdbs.29763948._000015.CxAOD.root
group.phys-hdbs.29763948._000016.CxAOD.root
group.phys-hdbs.29763948._000017.CxAOD.root
group.phys-hdbs.29763948._000018.CxAOD.root
