group.phys-hdbs.24394572._000001.CxAOD.root
group.phys-hdbs.24394572._000002.CxAOD.root
group.phys-hdbs.24394572._000003.CxAOD.root
group.phys-hdbs.24394572._000004.CxAOD.root
group.phys-hdbs.24394572._000005.CxAOD.root
