group.phys-hdbs.30803936._000001.CxAOD.root
group.phys-hdbs.30803936._000002.CxAOD.root
group.phys-hdbs.30803936._000003.CxAOD.root
group.phys-hdbs.30803936._000004.CxAOD.root
group.phys-hdbs.30803936._000005.CxAOD.root
