group.phys-hdbs.29766470._000001.CxAOD.root
group.phys-hdbs.29766470._000002.CxAOD.root
group.phys-hdbs.29766470._000003.CxAOD.root
group.phys-hdbs.29766470._000004.CxAOD.root
group.phys-hdbs.29766470._000005.CxAOD.root
