user.yanlin.24411581._000001.CxAOD.root
user.yanlin.24411581._000002.CxAOD.root
user.yanlin.24411581._000003.CxAOD.root
user.yanlin.24411581._000004.CxAOD.root
user.yanlin.24411581._000006.CxAOD.root
user.yanlin.24411581._000007.CxAOD.root
