group.phys-hdbs.24395825._000001.CxAOD.root
group.phys-hdbs.24395825._000004.CxAOD.root
group.phys-hdbs.24395825._000005.CxAOD.root
group.phys-hdbs.24395825._000006.CxAOD.root
group.phys-hdbs.24395825._000007.CxAOD.root
