user.yanlin.24421979._000001.CxAOD.root
user.yanlin.24421979._000002.CxAOD.root
user.yanlin.24421979._000003.CxAOD.root
user.yanlin.24421979._000004.CxAOD.root
user.yanlin.24421979._000006.CxAOD.root
