group.phys-hdbs.29764779._000001.CxAOD.root
group.phys-hdbs.29764779._000002.CxAOD.root
group.phys-hdbs.29764779._000003.CxAOD.root
group.phys-hdbs.29764779._000004.CxAOD.root
group.phys-hdbs.29764779._000006.CxAOD.root
group.phys-hdbs.29764779._000007.CxAOD.root
group.phys-hdbs.29764779._000008.CxAOD.root
