group.phys-hdbs.29766635._000001.CxAOD.root
group.phys-hdbs.29766635._000002.CxAOD.root
group.phys-hdbs.29766635._000003.CxAOD.root
group.phys-hdbs.29766635._000004.CxAOD.root
group.phys-hdbs.29766635._000005.CxAOD.root
