user.yanlin.24422392._000001.CxAOD.root
user.yanlin.24422392._000002.CxAOD.root
user.yanlin.24422392._000003.CxAOD.root
user.yanlin.24422392._000004.CxAOD.root
user.yanlin.24422392._000005.CxAOD.root
user.yanlin.24422392._000006.CxAOD.root
user.yanlin.24422392._000007.CxAOD.root
user.yanlin.24422392._000008.CxAOD.root
