group.phys-hdbs.29764024._000001.CxAOD.root
group.phys-hdbs.29764024._000002.CxAOD.root
group.phys-hdbs.29764024._000003.CxAOD.root
group.phys-hdbs.29764024._000006.CxAOD.root
group.phys-hdbs.29764024._000007.CxAOD.root
