group.phys-hdbs.29764249._000001.CxAOD.root
group.phys-hdbs.29764249._000002.CxAOD.root
group.phys-hdbs.29764249._000003.CxAOD.root
group.phys-hdbs.29764249._000004.CxAOD.root
group.phys-hdbs.29764249._000005.CxAOD.root
