group.phys-hdbs.24393814._000001.CxAOD.root
group.phys-hdbs.24393814._000002.CxAOD.root
group.phys-hdbs.24393814._000003.CxAOD.root
group.phys-hdbs.24393814._000005.CxAOD.root
group.phys-hdbs.24393814._000006.CxAOD.root
group.phys-hdbs.24393814._000007.CxAOD.root
group.phys-hdbs.24393814._000008.CxAOD.root
group.phys-hdbs.24393814._000009.CxAOD.root
group.phys-hdbs.24393814._000011.CxAOD.root
group.phys-hdbs.24393814._000013.CxAOD.root
