group.phys-hdbs.29764238._000001.CxAOD.root
group.phys-hdbs.29764238._000002.CxAOD.root
group.phys-hdbs.29764238._000003.CxAOD.root
group.phys-hdbs.29764238._000004.CxAOD.root
group.phys-hdbs.29764238._000005.CxAOD.root
group.phys-hdbs.29764238._000006.CxAOD.root
group.phys-hdbs.29764238._000009.CxAOD.root
group.phys-hdbs.29764238._000010.CxAOD.root
group.phys-hdbs.29764238._000011.CxAOD.root
group.phys-hdbs.29764238._000012.CxAOD.root
group.phys-hdbs.29764238._000013.CxAOD.root
group.phys-hdbs.29764238._000014.CxAOD.root
group.phys-hdbs.29764238._000015.CxAOD.root
group.phys-hdbs.29764238._000016.CxAOD.root
group.phys-hdbs.29764238._000017.CxAOD.root
group.phys-hdbs.29764238._000018.CxAOD.root
group.phys-hdbs.29764238._000019.CxAOD.root
group.phys-hdbs.29764238._000021.CxAOD.root
group.phys-hdbs.29764238._000022.CxAOD.root
group.phys-hdbs.29764238._000023.CxAOD.root
group.phys-hdbs.29764238._000026.CxAOD.root
group.phys-hdbs.29764238._000027.CxAOD.root
