group.phys-hdbs.29765733._000001.CxAOD.root
group.phys-hdbs.29765733._000003.CxAOD.root
group.phys-hdbs.29765733._000004.CxAOD.root
group.phys-hdbs.29765733._000005.CxAOD.root
group.phys-hdbs.29765733._000006.CxAOD.root
group.phys-hdbs.29765733._000007.CxAOD.root
group.phys-hdbs.29765733._000008.CxAOD.root
group.phys-hdbs.29765733._000009.CxAOD.root
