group.phys-hdbs.24405953._000001.CxAOD.root
group.phys-hdbs.24405953._000002.CxAOD.root
group.phys-hdbs.24405953._000003.CxAOD.root
group.phys-hdbs.24405953._000004.CxAOD.root
group.phys-hdbs.24405953._000005.CxAOD.root
group.phys-hdbs.24405953._000006.CxAOD.root
