group.phys-hdbs.29765160._000001.CxAOD.root
group.phys-hdbs.29765160._000002.CxAOD.root
group.phys-hdbs.29765160._000003.CxAOD.root
group.phys-hdbs.29765160._000004.CxAOD.root
group.phys-hdbs.29765160._000005.CxAOD.root
group.phys-hdbs.29765160._000010.CxAOD.root
group.phys-hdbs.29765160._000011.CxAOD.root
group.phys-hdbs.29765160._000013.CxAOD.root
group.phys-hdbs.29765160._000014.CxAOD.root
group.phys-hdbs.29765160._000015.CxAOD.root
group.phys-hdbs.29765160._000019.CxAOD.root
group.phys-hdbs.29765160._000020.CxAOD.root
group.phys-hdbs.29765160._000021.CxAOD.root
group.phys-hdbs.29765160._000022.CxAOD.root
group.phys-hdbs.29765160._000023.CxAOD.root
group.phys-hdbs.29765160._000024.CxAOD.root
group.phys-hdbs.29765160._000025.CxAOD.root
group.phys-hdbs.29765160._000027.CxAOD.root
group.phys-hdbs.29765160._000028.CxAOD.root
group.phys-hdbs.29765160._000029.CxAOD.root
group.phys-hdbs.29765160._000030.CxAOD.root
group.phys-hdbs.29765160._000033.CxAOD.root
group.phys-hdbs.29765160._000034.CxAOD.root
group.phys-hdbs.29765160._000035.CxAOD.root
group.phys-hdbs.29765160._000036.CxAOD.root
group.phys-hdbs.29765160._000037.CxAOD.root
group.phys-hdbs.29765160._000038.CxAOD.root
group.phys-hdbs.29765160._000039.CxAOD.root
group.phys-hdbs.29765160._000040.CxAOD.root
group.phys-hdbs.29765160._000041.CxAOD.root
group.phys-hdbs.29765160._000042.CxAOD.root
group.phys-hdbs.29765160._000043.CxAOD.root
group.phys-hdbs.29765160._000044.CxAOD.root
group.phys-hdbs.29765160._000045.CxAOD.root
group.phys-hdbs.29765160._000047.CxAOD.root
group.phys-hdbs.29765160._000048.CxAOD.root
group.phys-hdbs.29765160._000050.CxAOD.root
