group.phys-hdbs.29765725._000001.CxAOD.root
group.phys-hdbs.29765725._000002.CxAOD.root
group.phys-hdbs.29765725._000003.CxAOD.root
group.phys-hdbs.29765725._000004.CxAOD.root
group.phys-hdbs.29765725._000005.CxAOD.root
group.phys-hdbs.29765725._000006.CxAOD.root
group.phys-hdbs.29765725._000007.CxAOD.root
group.phys-hdbs.29765725._000008.CxAOD.root
group.phys-hdbs.29765725._000009.CxAOD.root
group.phys-hdbs.29765725._000010.CxAOD.root
group.phys-hdbs.29765725._000011.CxAOD.root
group.phys-hdbs.29765725._000012.CxAOD.root
group.phys-hdbs.29765725._000013.CxAOD.root
group.phys-hdbs.29765725._000014.CxAOD.root
group.phys-hdbs.29765725._000015.CxAOD.root
group.phys-hdbs.29765725._000016.CxAOD.root
group.phys-hdbs.29765725._000017.CxAOD.root
group.phys-hdbs.29765725._000018.CxAOD.root
group.phys-hdbs.29765725._000019.CxAOD.root
group.phys-hdbs.29765725._000020.CxAOD.root
group.phys-hdbs.29765725._000021.CxAOD.root
group.phys-hdbs.29765725._000022.CxAOD.root
