group.phys-hdbs.24404865._000001.CxAOD.root
group.phys-hdbs.24404865._000002.CxAOD.root
group.phys-hdbs.24404865._000003.CxAOD.root
group.phys-hdbs.24404865._000004.CxAOD.root
group.phys-hdbs.24404865._000006.CxAOD.root
group.phys-hdbs.24404865._000007.CxAOD.root
group.phys-hdbs.24404865._000008.CxAOD.root
group.phys-hdbs.24404865._000009.CxAOD.root
