group.phys-hdbs.29767083._000001.CxAOD.root
group.phys-hdbs.29767083._000002.CxAOD.root
group.phys-hdbs.29767083._000003.CxAOD.root
group.phys-hdbs.29767083._000005.CxAOD.root
group.phys-hdbs.29767083._000006.CxAOD.root
group.phys-hdbs.29767083._000007.CxAOD.root
group.phys-hdbs.29767083._000008.CxAOD.root
group.phys-hdbs.29767083._000010.CxAOD.root
