group.phys-hdbs.29765956._000002.CxAOD.root
group.phys-hdbs.29765956._000003.CxAOD.root
group.phys-hdbs.29765956._000004.CxAOD.root
group.phys-hdbs.29765956._000005.CxAOD.root
group.phys-hdbs.29765956._000006.CxAOD.root
group.phys-hdbs.29765956._000007.CxAOD.root
group.phys-hdbs.29765956._000008.CxAOD.root
group.phys-hdbs.29765956._000009.CxAOD.root
