group.phys-hdbs.29764086._000003.CxAOD.root
group.phys-hdbs.29764086._000007.CxAOD.root
group.phys-hdbs.29764086._000011.CxAOD.root
group.phys-hdbs.29764086._000012.CxAOD.root
group.phys-hdbs.29764086._000013.CxAOD.root
group.phys-hdbs.29764086._000014.CxAOD.root
group.phys-hdbs.29764086._000015.CxAOD.root
group.phys-hdbs.29764086._000016.CxAOD.root
group.phys-hdbs.29764086._000017.CxAOD.root
group.phys-hdbs.29764086._000018.CxAOD.root
group.phys-hdbs.29764086._000019.CxAOD.root
group.phys-hdbs.29764086._000020.CxAOD.root
group.phys-hdbs.29764086._000021.CxAOD.root
group.phys-hdbs.29764086._000022.CxAOD.root
