group.phys-hdbs.24395782._000001.CxAOD.root
group.phys-hdbs.24395782._000002.CxAOD.root
group.phys-hdbs.24395782._000003.CxAOD.root
group.phys-hdbs.24395782._000004.CxAOD.root
group.phys-hdbs.24395782._000005.CxAOD.root
group.phys-hdbs.24395782._000006.CxAOD.root
group.phys-hdbs.24395782._000007.CxAOD.root
group.phys-hdbs.24395782._000009.CxAOD.root
