group.phys-hdbs.29766495._000001.CxAOD.root
group.phys-hdbs.29766495._000002.CxAOD.root
group.phys-hdbs.29766495._000003.CxAOD.root
group.phys-hdbs.29766495._000004.CxAOD.root
group.phys-hdbs.29766495._000006.CxAOD.root
