group.phys-hdbs.30802813._000001.CxAOD.root
group.phys-hdbs.30802813._000002.CxAOD.root
group.phys-hdbs.30802813._000005.CxAOD.root
group.phys-hdbs.30802813._000006.CxAOD.root
group.phys-hdbs.30802813._000007.CxAOD.root
group.phys-hdbs.30802813._000008.CxAOD.root
