group.phys-hdbs.29766023._000001.CxAOD.root
group.phys-hdbs.29766023._000002.CxAOD.root
group.phys-hdbs.29766023._000003.CxAOD.root
group.phys-hdbs.29766023._000004.CxAOD.root
group.phys-hdbs.29766023._000005.CxAOD.root
