group.phys-hdbs.24564963._000001.CxAOD.root
group.phys-hdbs.24564963._000003.CxAOD.root
group.phys-hdbs.24564963._000004.CxAOD.root
group.phys-hdbs.24564963._000005.CxAOD.root
group.phys-hdbs.24564963._000006.CxAOD.root
group.phys-hdbs.24564963._000007.CxAOD.root
