group.phys-hdbs.24396205._000003.CxAOD.root
group.phys-hdbs.24396205._000004.CxAOD.root
group.phys-hdbs.24396205._000005.CxAOD.root
group.phys-hdbs.24396205._000001.CxAOD.root
group.phys-hdbs.24396205._000002.CxAOD.root
