group.phys-hdbs.30803727._000015.CxAOD.root
group.phys-hdbs.30803727._000012.CxAOD.root
group.phys-hdbs.30803727._000011.CxAOD.root
group.phys-hdbs.30803727._000010.CxAOD.root
group.phys-hdbs.30803727._000005.CxAOD.root
group.phys-hdbs.30803727._000009.CxAOD.root
group.phys-hdbs.30803727._000013.CxAOD.root
group.phys-hdbs.30803727._000014.CxAOD.root
group.phys-hdbs.30803727._000001.CxAOD.root
group.phys-hdbs.30803727._000002.CxAOD.root
