group.phys-hdbs.29767076._000014.CxAOD.root
group.phys-hdbs.29767076._000007.CxAOD.root
group.phys-hdbs.29767076._000008.CxAOD.root
group.phys-hdbs.29767076._000009.CxAOD.root
group.phys-hdbs.29767076._000015.CxAOD.root
group.phys-hdbs.29767076._000016.CxAOD.root
group.phys-hdbs.29767076._000017.CxAOD.root
group.phys-hdbs.29767076._000018.CxAOD.root
group.phys-hdbs.29767076._000003.CxAOD.root
group.phys-hdbs.29767076._000010.CxAOD.root
group.phys-hdbs.29767076._000011.CxAOD.root
group.phys-hdbs.29767076._000012.CxAOD.root
group.phys-hdbs.29767076._000013.CxAOD.root
group.phys-hdbs.29767076._000002.CxAOD.root
group.phys-hdbs.29767076._000001.CxAOD.root
