group.phys-hdbs.24396170._000004.CxAOD.root
group.phys-hdbs.24396170._000003.CxAOD.root
group.phys-hdbs.24396170._000002.CxAOD.root
group.phys-hdbs.24396170._000005.CxAOD.root
group.phys-hdbs.24396170._000001.CxAOD.root
