group.phys-hdbs.29766281._000014.CxAOD.root
group.phys-hdbs.29766281._000021.CxAOD.root
group.phys-hdbs.29766281._000022.CxAOD.root
group.phys-hdbs.29766281._000003.CxAOD.root
group.phys-hdbs.29766281._000004.CxAOD.root
group.phys-hdbs.29766281._000005.CxAOD.root
group.phys-hdbs.29766281._000002.CxAOD.root
group.phys-hdbs.29766281._000001.CxAOD.root
