group.phys-hdbs.29764015._000013.CxAOD.root
group.phys-hdbs.29764015._000007.CxAOD.root
group.phys-hdbs.29764015._000008.CxAOD.root
group.phys-hdbs.29764015._000005.CxAOD.root
group.phys-hdbs.29764015._000006.CxAOD.root
group.phys-hdbs.29764015._000004.CxAOD.root
group.phys-hdbs.29764015._000003.CxAOD.root
group.phys-hdbs.29764015._000014.CxAOD.root
group.phys-hdbs.29764015._000015.CxAOD.root
group.phys-hdbs.29764015._000001.CxAOD.root
group.phys-hdbs.29764015._000002.CxAOD.root
group.phys-hdbs.29764015._000016.CxAOD.root
group.phys-hdbs.29764015._000021.CxAOD.root
group.phys-hdbs.29764015._000022.CxAOD.root
group.phys-hdbs.29764015._000024.CxAOD.root
group.phys-hdbs.29764015._000025.CxAOD.root
