group.phys-hdbs.29763957._000004.CxAOD.root
group.phys-hdbs.29763957._000005.CxAOD.root
group.phys-hdbs.29763957._000003.CxAOD.root
group.phys-hdbs.29763957._000002.CxAOD.root
group.phys-hdbs.29763957._000001.CxAOD.root
