group.phys-hdbs.24393820._000007.CxAOD.root
group.phys-hdbs.24393820._000002.CxAOD.root
group.phys-hdbs.24393820._000003.CxAOD.root
group.phys-hdbs.24393820._000001.CxAOD.root
group.phys-hdbs.24393820._000006.CxAOD.root
group.phys-hdbs.24393820._000009.CxAOD.root
