group.phys-hdbs.29766621._000033.CxAOD.root
group.phys-hdbs.29766621._000034.CxAOD.root
group.phys-hdbs.29766621._000028.CxAOD.root
group.phys-hdbs.29766621._000029.CxAOD.root
group.phys-hdbs.29766621._000025.CxAOD.root
group.phys-hdbs.29766621._000026.CxAOD.root
group.phys-hdbs.29766621._000032.CxAOD.root
group.phys-hdbs.29766621._000035.CxAOD.root
group.phys-hdbs.29766621._000036.CxAOD.root
group.phys-hdbs.29766621._000024.CxAOD.root
group.phys-hdbs.29766621._000020.CxAOD.root
group.phys-hdbs.29766621._000021.CxAOD.root
group.phys-hdbs.29766621._000019.CxAOD.root
group.phys-hdbs.29766621._000018.CxAOD.root
group.phys-hdbs.29766621._000017.CxAOD.root
group.phys-hdbs.29766621._000027.CxAOD.root
group.phys-hdbs.29766621._000016.CxAOD.root
group.phys-hdbs.29766621._000012.CxAOD.root
group.phys-hdbs.29766621._000013.CxAOD.root
group.phys-hdbs.29766621._000011.CxAOD.root
group.phys-hdbs.29766621._000010.CxAOD.root
group.phys-hdbs.29766621._000008.CxAOD.root
group.phys-hdbs.29766621._000009.CxAOD.root
group.phys-hdbs.29766621._000014.CxAOD.root
group.phys-hdbs.29766621._000015.CxAOD.root
group.phys-hdbs.29766621._000006.CxAOD.root
group.phys-hdbs.29766621._000007.CxAOD.root
group.phys-hdbs.29766621._000022.CxAOD.root
group.phys-hdbs.29766621._000023.CxAOD.root
group.phys-hdbs.29766621._000001.CxAOD.root
