group.phys-hdbs.29765984._000006.CxAOD.root
group.phys-hdbs.29765984._000007.CxAOD.root
group.phys-hdbs.29765984._000008.CxAOD.root
group.phys-hdbs.29765984._000005.CxAOD.root
group.phys-hdbs.29765984._000003.CxAOD.root
group.phys-hdbs.29765984._000004.CxAOD.root
group.phys-hdbs.29765984._000001.CxAOD.root
