group.phys-hdbs.29767087._000007.CxAOD.root
group.phys-hdbs.29767087._000004.CxAOD.root
group.phys-hdbs.29767087._000003.CxAOD.root
group.phys-hdbs.29767087._000002.CxAOD.root
group.phys-hdbs.29767087._000001.CxAOD.root
