group.phys-hdbs.29767063._000005.CxAOD.root
group.phys-hdbs.29767063._000002.CxAOD.root
group.phys-hdbs.29767063._000003.CxAOD.root
group.phys-hdbs.29767063._000004.CxAOD.root
group.phys-hdbs.29767063._000001.CxAOD.root
