group.phys-hdbs.24396146._000004.CxAOD.root
group.phys-hdbs.24396146._000005.CxAOD.root
group.phys-hdbs.24396146._000001.CxAOD.root
group.phys-hdbs.24396146._000002.CxAOD.root
group.phys-hdbs.24396146._000003.CxAOD.root
