group.phys-hdbs.24394207._000005.CxAOD.root
group.phys-hdbs.24394207._000004.CxAOD.root
group.phys-hdbs.24394207._000003.CxAOD.root
group.phys-hdbs.24394207._000001.CxAOD.root
group.phys-hdbs.24394207._000002.CxAOD.root
