group.phys-hdbs.29764012._000015.CxAOD.root
group.phys-hdbs.29764012._000012.CxAOD.root
group.phys-hdbs.29764012._000013.CxAOD.root
group.phys-hdbs.29764012._000014.CxAOD.root
group.phys-hdbs.29764012._000017.CxAOD.root
group.phys-hdbs.29764012._000018.CxAOD.root
group.phys-hdbs.29764012._000011.CxAOD.root
group.phys-hdbs.29764012._000008.CxAOD.root
group.phys-hdbs.29764012._000009.CxAOD.root
group.phys-hdbs.29764012._000010.CxAOD.root
group.phys-hdbs.29764012._000016.CxAOD.root
group.phys-hdbs.29764012._000006.CxAOD.root
group.phys-hdbs.29764012._000007.CxAOD.root
group.phys-hdbs.29764012._000002.CxAOD.root
