group.phys-hdbs.29764532._000006.CxAOD.root
group.phys-hdbs.29764532._000005.CxAOD.root
group.phys-hdbs.29764532._000004.CxAOD.root
group.phys-hdbs.29764532._000002.CxAOD.root
group.phys-hdbs.29764532._000003.CxAOD.root
group.phys-hdbs.29764532._000001.CxAOD.root
