group.phys-hdbs.24405946._000004.CxAOD.root
group.phys-hdbs.24405946._000005.CxAOD.root
group.phys-hdbs.24405946._000003.CxAOD.root
group.phys-hdbs.24405946._000001.CxAOD.root
group.phys-hdbs.24405946._000002.CxAOD.root
