group.phys-hdbs.24394144._000003.CxAOD.root
group.phys-hdbs.24394144._000004.CxAOD.root
group.phys-hdbs.24394144._000005.CxAOD.root
group.phys-hdbs.24394144._000001.CxAOD.root
group.phys-hdbs.24394144._000002.CxAOD.root
