user.yanlin.24422141._000001.CxAOD.root
user.yanlin.24422141._000002.CxAOD.root
user.yanlin.24422141._000003.CxAOD.root
user.yanlin.24422141._000004.CxAOD.root
user.yanlin.24422141._000005.CxAOD.root
user.yanlin.24422141._000006.CxAOD.root
user.yanlin.24422141._000007.CxAOD.root
user.yanlin.24422141._000008.CxAOD.root
user.yanlin.24422141._000009.CxAOD.root
user.yanlin.24422141._000010.CxAOD.root
