group.phys-hdbs.24395508._000001.CxAOD.root
group.phys-hdbs.24395508._000002.CxAOD.root
group.phys-hdbs.24395508._000003.CxAOD.root
group.phys-hdbs.24395508._000005.CxAOD.root
group.phys-hdbs.24395508._000006.CxAOD.root
