group.phys-hdbs.24551687._000001.CxAOD.root
group.phys-hdbs.24551687._000002.CxAOD.root
group.phys-hdbs.24551687._000003.CxAOD.root
group.phys-hdbs.24551687._000004.CxAOD.root
group.phys-hdbs.24551687._000007.CxAOD.root
group.phys-hdbs.24551687._000008.CxAOD.root
group.phys-hdbs.24551687._000009.CxAOD.root
group.phys-hdbs.24551687._000010.CxAOD.root
group.phys-hdbs.24551687._000011.CxAOD.root
group.phys-hdbs.24551687._000012.CxAOD.root
group.phys-hdbs.24551687._000013.CxAOD.root
