group.phys-hdbs.24395906._000001.CxAOD.root
group.phys-hdbs.24395906._000002.CxAOD.root
group.phys-hdbs.24395906._000003.CxAOD.root
group.phys-hdbs.24395906._000006.CxAOD.root
group.phys-hdbs.24395906._000007.CxAOD.root
group.phys-hdbs.24395906._000008.CxAOD.root
