group.phys-hdbs.30344863._000001.CxAOD.root
group.phys-hdbs.30344863._000002.CxAOD.root
group.phys-hdbs.30344863._000003.CxAOD.root
group.phys-hdbs.30344863._000004.CxAOD.root
group.phys-hdbs.30344863._000005.CxAOD.root
group.phys-hdbs.30344863._000006.CxAOD.root
group.phys-hdbs.30344863._000007.CxAOD.root
