user.yanlin.24421488._000001.CxAOD.root
user.yanlin.24421488._000002.CxAOD.root
user.yanlin.24421488._000003.CxAOD.root
user.yanlin.24421488._000004.CxAOD.root
user.yanlin.24421488._000005.CxAOD.root
