user.yanlin.24421496._000001.CxAOD.root
user.yanlin.24421496._000002.CxAOD.root
user.yanlin.24421496._000003.CxAOD.root
user.yanlin.24421496._000005.CxAOD.root
user.yanlin.24421496._000006.CxAOD.root
user.yanlin.24421496._000007.CxAOD.root
