user.yanlin.24422189._000001.CxAOD.root
user.yanlin.24422189._000002.CxAOD.root
user.yanlin.24422189._000003.CxAOD.root
user.yanlin.24422189._000004.CxAOD.root
user.yanlin.24422189._000005.CxAOD.root
user.yanlin.24422189._000006.CxAOD.root
user.yanlin.24422189._000011.CxAOD.root
user.yanlin.24422189._000012.CxAOD.root
user.yanlin.24422189._000013.CxAOD.root
user.yanlin.24422189._000015.CxAOD.root
