group.phys-hdbs.30345022._000001.CxAOD.root
group.phys-hdbs.30345022._000002.CxAOD.root
group.phys-hdbs.30345022._000003.CxAOD.root
group.phys-hdbs.30345022._000004.CxAOD.root
group.phys-hdbs.30345022._000005.CxAOD.root
group.phys-hdbs.30345022._000006.CxAOD.root
group.phys-hdbs.30345022._000007.CxAOD.root
group.phys-hdbs.30345022._000008.CxAOD.root
group.phys-hdbs.30345022._000009.CxAOD.root
group.phys-hdbs.30345022._000010.CxAOD.root
group.phys-hdbs.30345022._000011.CxAOD.root
group.phys-hdbs.30345022._000012.CxAOD.root
group.phys-hdbs.30345022._000013.CxAOD.root
group.phys-hdbs.30345022._000014.CxAOD.root
group.phys-hdbs.30345022._000015.CxAOD.root
group.phys-hdbs.30345022._000016.CxAOD.root
group.phys-hdbs.30345022._000017.CxAOD.root
group.phys-hdbs.30345022._000018.CxAOD.root
group.phys-hdbs.30345022._000019.CxAOD.root
group.phys-hdbs.30345022._000020.CxAOD.root
group.phys-hdbs.30345022._000021.CxAOD.root
group.phys-hdbs.30345022._000022.CxAOD.root
group.phys-hdbs.30345022._000023.CxAOD.root
group.phys-hdbs.30345022._000024.CxAOD.root
group.phys-hdbs.30345022._000025.CxAOD.root
group.phys-hdbs.30345022._000027.CxAOD.root
group.phys-hdbs.30345022._000028.CxAOD.root
group.phys-hdbs.30345022._000029.CxAOD.root
group.phys-hdbs.30345022._000030.CxAOD.root
group.phys-hdbs.30345022._000031.CxAOD.root
group.phys-hdbs.30345022._000032.CxAOD.root
group.phys-hdbs.30345022._000033.CxAOD.root
group.phys-hdbs.30345022._000034.CxAOD.root
group.phys-hdbs.30345022._000035.CxAOD.root
group.phys-hdbs.30345022._000036.CxAOD.root
