group.phys-hdbs.30345641._000001.CxAOD.root
group.phys-hdbs.30345641._000002.CxAOD.root
group.phys-hdbs.30345641._000003.CxAOD.root
group.phys-hdbs.30345641._000004.CxAOD.root
group.phys-hdbs.30345641._000005.CxAOD.root
group.phys-hdbs.30345641._000006.CxAOD.root
group.phys-hdbs.30345641._000007.CxAOD.root
group.phys-hdbs.30345641._000008.CxAOD.root
group.phys-hdbs.30345641._000009.CxAOD.root
group.phys-hdbs.30345641._000010.CxAOD.root
group.phys-hdbs.30345641._000011.CxAOD.root
group.phys-hdbs.30345641._000012.CxAOD.root
group.phys-hdbs.30345641._000013.CxAOD.root
group.phys-hdbs.30345641._000014.CxAOD.root
group.phys-hdbs.30345641._000015.CxAOD.root
group.phys-hdbs.30345641._000016.CxAOD.root
group.phys-hdbs.30345641._000017.CxAOD.root
group.phys-hdbs.30345641._000018.CxAOD.root
group.phys-hdbs.30345641._000019.CxAOD.root
group.phys-hdbs.30345641._000020.CxAOD.root
group.phys-hdbs.30345641._000021.CxAOD.root
group.phys-hdbs.30345641._000022.CxAOD.root
group.phys-hdbs.30345641._000023.CxAOD.root
group.phys-hdbs.30345641._000024.CxAOD.root
group.phys-hdbs.30345641._000025.CxAOD.root
group.phys-hdbs.30345641._000026.CxAOD.root
group.phys-hdbs.30345641._000027.CxAOD.root
group.phys-hdbs.30345641._000028.CxAOD.root
