group.phys-hdbs.24393840._000001.CxAOD.root
group.phys-hdbs.24393840._000002.CxAOD.root
group.phys-hdbs.24393840._000003.CxAOD.root
group.phys-hdbs.24393840._000004.CxAOD.root
group.phys-hdbs.24393840._000005.CxAOD.root
group.phys-hdbs.24393840._000006.CxAOD.root
group.phys-hdbs.24393840._000007.CxAOD.root
