user.yanlin.24421509._000001.CxAOD.root
user.yanlin.24421509._000002.CxAOD.root
user.yanlin.24421509._000003.CxAOD.root
user.yanlin.24421509._000004.CxAOD.root
user.yanlin.24421509._000005.CxAOD.root
user.yanlin.24421509._000006.CxAOD.root
user.yanlin.24421509._000007.CxAOD.root
user.yanlin.24421509._000008.CxAOD.root
user.yanlin.24421509._000009.CxAOD.root
user.yanlin.24421509._000010.CxAOD.root
