group.phys-hdbs.24395874._000002.CxAOD.root
group.phys-hdbs.24395874._000003.CxAOD.root
group.phys-hdbs.24395874._000004.CxAOD.root
group.phys-hdbs.24395874._000005.CxAOD.root
group.phys-hdbs.24395874._000006.CxAOD.root
group.phys-hdbs.24395874._000007.CxAOD.root
group.phys-hdbs.24395874._000008.CxAOD.root
group.phys-hdbs.24395874._000009.CxAOD.root
