group.phys-hdbs.30802457._000002.CxAOD.root
group.phys-hdbs.30802457._000005.CxAOD.root
group.phys-hdbs.30802457._000006.CxAOD.root
group.phys-hdbs.30802457._000007.CxAOD.root
group.phys-hdbs.30802457._000008.CxAOD.root
group.phys-hdbs.30802457._000009.CxAOD.root
group.phys-hdbs.30802457._000013.CxAOD.root
group.phys-hdbs.30802457._000014.CxAOD.root
group.phys-hdbs.30802457._000015.CxAOD.root
group.phys-hdbs.30802457._000016.CxAOD.root
group.phys-hdbs.30802457._000017.CxAOD.root
group.phys-hdbs.30802457._000018.CxAOD.root
group.phys-hdbs.30802457._000019.CxAOD.root
group.phys-hdbs.30802457._000020.CxAOD.root
group.phys-hdbs.30802457._000021.CxAOD.root
group.phys-hdbs.30802457._000022.CxAOD.root
group.phys-hdbs.30802457._000023.CxAOD.root
group.phys-hdbs.30802457._000024.CxAOD.root
group.phys-hdbs.30802457._000025.CxAOD.root
group.phys-hdbs.30802457._000026.CxAOD.root
group.phys-hdbs.30802457._000027.CxAOD.root
group.phys-hdbs.30802457._000028.CxAOD.root
group.phys-hdbs.30802457._000030.CxAOD.root
group.phys-hdbs.30802457._000032.CxAOD.root
group.phys-hdbs.30802457._000033.CxAOD.root
group.phys-hdbs.30802457._000034.CxAOD.root
group.phys-hdbs.30802457._000036.CxAOD.root
group.phys-hdbs.30802457._000037.CxAOD.root
group.phys-hdbs.30802457._000039.CxAOD.root
group.phys-hdbs.30802457._000042.CxAOD.root
group.phys-hdbs.30802457._000043.CxAOD.root
group.phys-hdbs.30802457._000044.CxAOD.root
group.phys-hdbs.30802457._000045.CxAOD.root
group.phys-hdbs.30802457._000046.CxAOD.root
group.phys-hdbs.30802457._000047.CxAOD.root
group.phys-hdbs.30802457._000048.CxAOD.root
group.phys-hdbs.30802457._000049.CxAOD.root
group.phys-hdbs.30802457._000052.CxAOD.root
group.phys-hdbs.30802457._000053.CxAOD.root
group.phys-hdbs.30802457._000054.CxAOD.root
group.phys-hdbs.30802457._000055.CxAOD.root
group.phys-hdbs.30802457._000056.CxAOD.root
group.phys-hdbs.30802457._000057.CxAOD.root
group.phys-hdbs.30802457._000058.CxAOD.root
group.phys-hdbs.30802457._000059.CxAOD.root
group.phys-hdbs.30802457._000061.CxAOD.root
group.phys-hdbs.30802457._000062.CxAOD.root
group.phys-hdbs.30802457._000064.CxAOD.root
