group.phys-hdbs.24396267._000001.CxAOD.root
group.phys-hdbs.24396267._000002.CxAOD.root
group.phys-hdbs.24396267._000003.CxAOD.root
group.phys-hdbs.24396267._000004.CxAOD.root
group.phys-hdbs.24396267._000006.CxAOD.root
