group.phys-hdbs.24396282._000001.CxAOD.root
group.phys-hdbs.24396282._000002.CxAOD.root
group.phys-hdbs.24396282._000004.CxAOD.root
group.phys-hdbs.24396282._000005.CxAOD.root
group.phys-hdbs.24396282._000006.CxAOD.root
group.phys-hdbs.24396282._000007.CxAOD.root
