group.phys-hdbs.24404902._000001.CxAOD.root
group.phys-hdbs.24404902._000002.CxAOD.root
group.phys-hdbs.24404902._000003.CxAOD.root
group.phys-hdbs.24404902._000004.CxAOD.root
group.phys-hdbs.24404902._000005.CxAOD.root
group.phys-hdbs.24404902._000006.CxAOD.root
group.phys-hdbs.24404902._000007.CxAOD.root
group.phys-hdbs.24404902._000008.CxAOD.root
group.phys-hdbs.24404902._000009.CxAOD.root
group.phys-hdbs.24404902._000010.CxAOD.root
group.phys-hdbs.24404902._000011.CxAOD.root
group.phys-hdbs.24404902._000012.CxAOD.root
group.phys-hdbs.24404902._000013.CxAOD.root
group.phys-hdbs.24404902._000014.CxAOD.root
group.phys-hdbs.24404902._000015.CxAOD.root
group.phys-hdbs.24404902._000016.CxAOD.root
group.phys-hdbs.24404902._000017.CxAOD.root
