user.yanlin.24422171._000001.CxAOD.root
user.yanlin.24422171._000002.CxAOD.root
user.yanlin.24422171._000003.CxAOD.root
user.yanlin.24422171._000004.CxAOD.root
user.yanlin.24422171._000005.CxAOD.root
user.yanlin.24422171._000006.CxAOD.root
user.yanlin.24422171._000007.CxAOD.root
user.yanlin.24422171._000008.CxAOD.root
user.yanlin.24422171._000009.CxAOD.root
user.yanlin.24422171._000010.CxAOD.root
user.yanlin.24422171._000011.CxAOD.root
user.yanlin.24422171._000012.CxAOD.root
user.yanlin.24422171._000013.CxAOD.root
user.yanlin.24422171._000014.CxAOD.root
user.yanlin.24422171._000015.CxAOD.root
user.yanlin.24422171._000016.CxAOD.root
user.yanlin.24422171._000017.CxAOD.root
user.yanlin.24422171._000018.CxAOD.root
user.yanlin.24422171._000019.CxAOD.root
user.yanlin.24422171._000020.CxAOD.root
user.yanlin.24422171._000022.CxAOD.root
user.yanlin.24422171._000023.CxAOD.root
user.yanlin.24422171._000024.CxAOD.root
user.yanlin.24422171._000025.CxAOD.root
user.yanlin.24422171._000026.CxAOD.root
user.yanlin.24422171._000027.CxAOD.root
user.yanlin.24422171._000028.CxAOD.root
user.yanlin.24422171._000029.CxAOD.root
user.yanlin.24422171._000030.CxAOD.root
