group.phys-hdbs.24565685._000001.CxAOD.root
group.phys-hdbs.24565685._000002.CxAOD.root
group.phys-hdbs.24565685._000003.CxAOD.root
group.phys-hdbs.24565685._000004.CxAOD.root
group.phys-hdbs.24565685._000005.CxAOD.root
group.phys-hdbs.24565685._000007.CxAOD.root
