group.phys-hdbs.24564982._000001.CxAOD.root
group.phys-hdbs.24564982._000002.CxAOD.root
group.phys-hdbs.24564982._000005.CxAOD.root
group.phys-hdbs.24564982._000006.CxAOD.root
group.phys-hdbs.24564982._000007.CxAOD.root
