group.phys-hdbs.30345238._000001.CxAOD.root
group.phys-hdbs.30345238._000003.CxAOD.root
group.phys-hdbs.30345238._000004.CxAOD.root
group.phys-hdbs.30345238._000005.CxAOD.root
group.phys-hdbs.30345238._000006.CxAOD.root
group.phys-hdbs.30345238._000007.CxAOD.root
group.phys-hdbs.30345238._000008.CxAOD.root
group.phys-hdbs.30345238._000009.CxAOD.root
