group.phys-hdbs.24565064._000002.CxAOD.root
group.phys-hdbs.24565064._000003.CxAOD.root
group.phys-hdbs.24565064._000004.CxAOD.root
group.phys-hdbs.24565064._000005.CxAOD.root
group.phys-hdbs.24565064._000006.CxAOD.root
group.phys-hdbs.24565064._000007.CxAOD.root
group.phys-hdbs.24565064._000008.CxAOD.root
group.phys-hdbs.24565064._000009.CxAOD.root
group.phys-hdbs.24565064._000010.CxAOD.root
group.phys-hdbs.24565064._000011.CxAOD.root
group.phys-hdbs.24565064._000012.CxAOD.root
group.phys-hdbs.24565064._000013.CxAOD.root
