group.phys-hdbs.24405537._000001.CxAOD.root
group.phys-hdbs.24405537._000002.CxAOD.root
group.phys-hdbs.24405537._000003.CxAOD.root
group.phys-hdbs.24405537._000004.CxAOD.root
group.phys-hdbs.24405537._000005.CxAOD.root
