user.yanlin.24421516._000001.CxAOD.root
user.yanlin.24421516._000002.CxAOD.root
user.yanlin.24421516._000003.CxAOD.root
user.yanlin.24421516._000004.CxAOD.root
user.yanlin.24421516._000005.CxAOD.root
