group.phys-hdbs.24405481._000001.CxAOD.root
group.phys-hdbs.24405481._000002.CxAOD.root
group.phys-hdbs.24405481._000003.CxAOD.root
group.phys-hdbs.24405481._000004.CxAOD.root
group.phys-hdbs.24405481._000005.CxAOD.root
