group.phys-hdbs.30345287._000067.CxAOD.root
group.phys-hdbs.30345287._000066.CxAOD.root
group.phys-hdbs.30345287._000064.CxAOD.root
group.phys-hdbs.30345287._000059.CxAOD.root
group.phys-hdbs.30345287._000049.CxAOD.root
group.phys-hdbs.30345287._000050.CxAOD.root
group.phys-hdbs.30345287._000051.CxAOD.root
group.phys-hdbs.30345287._000057.CxAOD.root
group.phys-hdbs.30345287._000063.CxAOD.root
group.phys-hdbs.30345287._000044.CxAOD.root
group.phys-hdbs.30345287._000045.CxAOD.root
group.phys-hdbs.30345287._000065.CxAOD.root
group.phys-hdbs.30345287._000040.CxAOD.root
group.phys-hdbs.30345287._000043.CxAOD.root
group.phys-hdbs.30345287._000060.CxAOD.root
group.phys-hdbs.30345287._000039.CxAOD.root
group.phys-hdbs.30345287._000058.CxAOD.root
group.phys-hdbs.30345287._000061.CxAOD.root
group.phys-hdbs.30345287._000036.CxAOD.root
group.phys-hdbs.30345287._000034.CxAOD.root
group.phys-hdbs.30345287._000038.CxAOD.root
group.phys-hdbs.30345287._000052.CxAOD.root
group.phys-hdbs.30345287._000053.CxAOD.root
group.phys-hdbs.30345287._000055.CxAOD.root
group.phys-hdbs.30345287._000056.CxAOD.root
group.phys-hdbs.30345287._000032.CxAOD.root
group.phys-hdbs.30345287._000033.CxAOD.root
group.phys-hdbs.30345287._000019.CxAOD.root
group.phys-hdbs.30345287._000020.CxAOD.root
group.phys-hdbs.30345287._000021.CxAOD.root
group.phys-hdbs.30345287._000022.CxAOD.root
group.phys-hdbs.30345287._000023.CxAOD.root
group.phys-hdbs.30345287._000024.CxAOD.root
group.phys-hdbs.30345287._000025.CxAOD.root
group.phys-hdbs.30345287._000026.CxAOD.root
group.phys-hdbs.30345287._000031.CxAOD.root
group.phys-hdbs.30345287._000016.CxAOD.root
group.phys-hdbs.30345287._000017.CxAOD.root
group.phys-hdbs.30345287._000018.CxAOD.root
group.phys-hdbs.30345287._000012.CxAOD.root
group.phys-hdbs.30345287._000013.CxAOD.root
group.phys-hdbs.30345287._000014.CxAOD.root
group.phys-hdbs.30345287._000015.CxAOD.root
group.phys-hdbs.30345287._000005.CxAOD.root
group.phys-hdbs.30345287._000007.CxAOD.root
group.phys-hdbs.30345287._000008.CxAOD.root
group.phys-hdbs.30345287._000009.CxAOD.root
group.phys-hdbs.30345287._000041.CxAOD.root
group.phys-hdbs.30345287._000042.CxAOD.root
group.phys-hdbs.30345287._000004.CxAOD.root
group.phys-hdbs.30345287._000002.CxAOD.root
group.phys-hdbs.30345287._000003.CxAOD.root
group.phys-hdbs.30345287._000010.CxAOD.root
group.phys-hdbs.30345287._000011.CxAOD.root
group.phys-hdbs.30345287._000027.CxAOD.root
group.phys-hdbs.30345287._000028.CxAOD.root
group.phys-hdbs.30345287._000029.CxAOD.root
group.phys-hdbs.30345287._000030.CxAOD.root
group.phys-hdbs.30345287._000001.CxAOD.root
