group.phys-hdbs.30344976._000005.CxAOD.root
group.phys-hdbs.30344976._000004.CxAOD.root
group.phys-hdbs.30344976._000003.CxAOD.root
group.phys-hdbs.30344976._000002.CxAOD.root
group.phys-hdbs.30344976._000001.CxAOD.root
