group.phys-hdbs.24568027._000007.CxAOD.root
group.phys-hdbs.24568027._000008.CxAOD.root
group.phys-hdbs.24568027._000006.CxAOD.root
group.phys-hdbs.24568027._000005.CxAOD.root
group.phys-hdbs.24568027._000004.CxAOD.root
group.phys-hdbs.24568027._000003.CxAOD.root
