group.phys-hdbs.24405535._000004.CxAOD.root
group.phys-hdbs.24405535._000005.CxAOD.root
group.phys-hdbs.24405535._000001.CxAOD.root
group.phys-hdbs.24405535._000002.CxAOD.root
group.phys-hdbs.24405535._000003.CxAOD.root
