group.phys-hdbs.24567412._000005.CxAOD.root
group.phys-hdbs.24567412._000003.CxAOD.root
group.phys-hdbs.24567412._000004.CxAOD.root
group.phys-hdbs.24567412._000002.CxAOD.root
group.phys-hdbs.24567412._000001.CxAOD.root
