group.phys-hdbs.30344820._000007.CxAOD.root
group.phys-hdbs.30344820._000008.CxAOD.root
group.phys-hdbs.30344820._000004.CxAOD.root
group.phys-hdbs.30344820._000005.CxAOD.root
group.phys-hdbs.30344820._000003.CxAOD.root
group.phys-hdbs.30344820._000002.CxAOD.root
group.phys-hdbs.30344820._000001.CxAOD.root
