group.phys-hdbs.24393851._000005.CxAOD.root
group.phys-hdbs.24393851._000004.CxAOD.root
group.phys-hdbs.24393851._000001.CxAOD.root
group.phys-hdbs.24393851._000002.CxAOD.root
group.phys-hdbs.24393851._000003.CxAOD.root
