group.phys-hdbs.30345820._000090.CxAOD.root
group.phys-hdbs.30345820._000089.CxAOD.root
group.phys-hdbs.30345820._000074.CxAOD.root
group.phys-hdbs.30345820._000083.CxAOD.root
group.phys-hdbs.30345820._000084.CxAOD.root
group.phys-hdbs.30345820._000086.CxAOD.root
group.phys-hdbs.30345820._000059.CxAOD.root
group.phys-hdbs.30345820._000060.CxAOD.root
group.phys-hdbs.30345820._000062.CxAOD.root
group.phys-hdbs.30345820._000063.CxAOD.root
group.phys-hdbs.30345820._000066.CxAOD.root
group.phys-hdbs.30345820._000058.CxAOD.root
group.phys-hdbs.30345820._000080.CxAOD.root
group.phys-hdbs.30345820._000088.CxAOD.root
group.phys-hdbs.30345820._000049.CxAOD.root
group.phys-hdbs.30345820._000050.CxAOD.root
group.phys-hdbs.30345820._000051.CxAOD.root
group.phys-hdbs.30345820._000052.CxAOD.root
group.phys-hdbs.30345820._000053.CxAOD.root
group.phys-hdbs.30345820._000054.CxAOD.root
group.phys-hdbs.30345820._000055.CxAOD.root
group.phys-hdbs.30345820._000056.CxAOD.root
group.phys-hdbs.30345820._000081.CxAOD.root
group.phys-hdbs.30345820._000047.CxAOD.root
group.phys-hdbs.30345820._000048.CxAOD.root
group.phys-hdbs.30345820._000046.CxAOD.root
group.phys-hdbs.30345820._000045.CxAOD.root
group.phys-hdbs.30345820._000085.CxAOD.root
group.phys-hdbs.30345820._000044.CxAOD.root
group.phys-hdbs.30345820._000065.CxAOD.root
group.phys-hdbs.30345820._000033.CxAOD.root
group.phys-hdbs.30345820._000034.CxAOD.root
group.phys-hdbs.30345820._000035.CxAOD.root
group.phys-hdbs.30345820._000036.CxAOD.root
group.phys-hdbs.30345820._000037.CxAOD.root
group.phys-hdbs.30345820._000038.CxAOD.root
group.phys-hdbs.30345820._000039.CxAOD.root
group.phys-hdbs.30345820._000040.CxAOD.root
group.phys-hdbs.30345820._000041.CxAOD.root
group.phys-hdbs.30345820._000016.CxAOD.root
group.phys-hdbs.30345820._000017.CxAOD.root
group.phys-hdbs.30345820._000018.CxAOD.root
group.phys-hdbs.30345820._000019.CxAOD.root
group.phys-hdbs.30345820._000020.CxAOD.root
group.phys-hdbs.30345820._000021.CxAOD.root
group.phys-hdbs.30345820._000022.CxAOD.root
group.phys-hdbs.30345820._000023.CxAOD.root
group.phys-hdbs.30345820._000024.CxAOD.root
group.phys-hdbs.30345820._000011.CxAOD.root
group.phys-hdbs.30345820._000012.CxAOD.root
group.phys-hdbs.30345820._000013.CxAOD.root
group.phys-hdbs.30345820._000014.CxAOD.root
group.phys-hdbs.30345820._000042.CxAOD.root
group.phys-hdbs.30345820._000006.CxAOD.root
group.phys-hdbs.30345820._000007.CxAOD.root
group.phys-hdbs.30345820._000008.CxAOD.root
group.phys-hdbs.30345820._000009.CxAOD.root
group.phys-hdbs.30345820._000010.CxAOD.root
group.phys-hdbs.30345820._000077.CxAOD.root
group.phys-hdbs.30345820._000004.CxAOD.root
group.phys-hdbs.30345820._000005.CxAOD.root
group.phys-hdbs.30345820._000043.CxAOD.root
group.phys-hdbs.30345820._000057.CxAOD.root
group.phys-hdbs.30345820._000082.CxAOD.root
group.phys-hdbs.30345820._000087.CxAOD.root
group.phys-hdbs.30345820._000003.CxAOD.root
group.phys-hdbs.30345820._000015.CxAOD.root
group.phys-hdbs.30345820._000073.CxAOD.root
group.phys-hdbs.30345820._000002.CxAOD.root
group.phys-hdbs.30345820._000071.CxAOD.root
group.phys-hdbs.30345820._000072.CxAOD.root
