group.phys-hdbs.24552295._000008.CxAOD.root
group.phys-hdbs.24552295._000007.CxAOD.root
group.phys-hdbs.24552295._000003.CxAOD.root
group.phys-hdbs.24552295._000004.CxAOD.root
group.phys-hdbs.24552295._000005.CxAOD.root
group.phys-hdbs.24552295._000006.CxAOD.root
group.phys-hdbs.24552295._000009.CxAOD.root
group.phys-hdbs.24552295._000001.CxAOD.root
