group.phys-hdbs.30344837._000006.CxAOD.root
group.phys-hdbs.30344837._000005.CxAOD.root
group.phys-hdbs.30344837._000004.CxAOD.root
group.phys-hdbs.30344837._000007.CxAOD.root
group.phys-hdbs.30344837._000008.CxAOD.root
group.phys-hdbs.30344837._000001.CxAOD.root
group.phys-hdbs.30344837._000002.CxAOD.root
