group.phys-hdbs.24395464._000005.CxAOD.root
group.phys-hdbs.24395464._000003.CxAOD.root
group.phys-hdbs.24395464._000004.CxAOD.root
group.phys-hdbs.24395464._000001.CxAOD.root
group.phys-hdbs.24395464._000002.CxAOD.root
